2.752859e-01 7.140751e-03
2.772182e-01 7.385511e-03
2.791475e-01 7.642655e-03
2.810751e-01 7.913229e-03
2.830003e-01 8.198069e-03
2.849224e-01 8.498069e-03
2.868428e-01 8.814557e-03
2.887608e-01 9.148623e-03
2.906757e-01 9.501447e-03
2.925888e-01 9.874731e-03
2.944994e-01 1.026992e-02
2.964068e-01 1.068860e-02
2.983124e-01 1.113297e-02
3.002155e-01 1.160500e-02
3.021153e-01 1.210680e-02
3.040133e-01 1.264133e-02
3.059087e-01 1.321125e-02
3.078008e-01 1.381950e-02
3.096911e-01 1.447006e-02
3.115787e-01 1.516666e-02
3.134629e-01 1.591341e-02
3.153453e-01 1.671582e-02
3.172249e-01 1.757921e-02
3.191012e-01 1.850949e-02
3.209754e-01 1.951449e-02
3.228470e-01 2.060193e-02
3.247151e-01 2.178058e-02
3.265811e-01 2.306183e-02
3.284444e-01 2.445733e-02
3.303043e-01 2.598037e-02
3.321620e-01 2.764815e-02
3.340169e-01 2.947880e-02
3.358683e-01 3.149325e-02
3.377175e-01 3.371852e-02
3.395639e-01 3.618389e-02
3.414068e-01 3.892384e-02
3.432474e-01 4.198272e-02
3.450851e-01 4.541027e-02
3.469192e-01 4.926609e-02
3.487511e-01 5.362726e-02
3.505800e-01 5.858314e-02
3.524053e-01 6.424325e-02
3.542282e-01 7.075055e-02
3.560482e-01 7.827679e-02
3.578645e-01 8.703766e-02
3.596784e-01 9.731847e-02
3.614893e-01 1.094733e-01
3.632964e-01 1.239557e-01
3.651012e-01 1.413686e-01
3.669028e-01 1.624665e-01
3.687007e-01 1.881994e-01
3.704961e-01 2.197676e-01
3.722884e-01 2.585431e-01
3.740769e-01 3.059848e-01
3.758629e-01 3.634700e-01
3.776457e-01 4.317820e-01
3.794246e-01 5.105719e-01
3.812010e-01 5.978224e-01
3.829742e-01 6.891694e-01
3.847434e-01 7.779199e-01
3.865101e-01 8.557767e-01
3.882735e-01 9.139854e-01
3.900330e-01 9.452776e-01
3.917898e-01 9.455984e-01
3.935433e-01 9.150571e-01
3.952928e-01 8.579482e-01
3.970396e-01 7.815211e-01
3.987831e-01 6.943788e-01
4.005225e-01 6.046893e-01
4.022592e-01 5.188157e-01
4.039925e-01 4.409797e-01
4.057217e-01 3.732400e-01
4.074482e-01 3.159096e-01
4.091712e-01 2.683106e-01
4.108900e-01 2.292175e-01
4.126061e-01 1.972110e-01
4.143187e-01 1.709900e-01
4.160271e-01 1.494208e-01
4.177326e-01 1.315489e-01
4.194346e-01 1.166341e-01
4.211324e-01 1.040919e-01
4.228273e-01 9.345292e-02
4.245186e-01 8.436299e-02
4.262057e-01 7.654309e-02
4.278898e-01 6.976517e-02
4.295703e-01 6.385580e-02
4.312465e-01 5.867540e-02
4.329197e-01 5.410606e-02
4.345893e-01 5.005707e-02
4.362545e-01 4.645373e-02
4.379167e-01 4.323067e-02
4.395751e-01 4.033727e-02
4.412292e-01 3.773095e-02
4.428803e-01 3.537319e-02
4.445275e-01 3.323410e-02
4.461704e-01 3.128809e-02
4.478101e-01 2.951125e-02
4.494461e-01 2.788508e-02
4.510776e-01 2.639348e-02
4.527059e-01 2.502096e-02
4.543304e-01 2.375559e-02
4.559504e-01 2.258689e-02
4.575672e-01 2.150442e-02
4.591801e-01 2.050024e-02
4.607885e-01 1.956727e-02
4.623936e-01 1.869828e-02
4.639948e-01 1.788782e-02
4.655915e-01 1.713100e-02
4.671849e-01 1.642264e-02
4.687742e-01 1.575891e-02
4.703591e-01 1.513635e-02
4.719405e-01 1.455118e-02
4.735180e-01 1.400065e-02
4.750908e-01 1.348225e-02
4.766602e-01 1.299315e-02
4.782256e-01 1.253135e-02
4.797864e-01 1.209500e-02
4.813436e-01 1.168194e-02
4.828968e-01 1.129068e-02
4.844454e-01 1.091985e-02
,
2.752859e-01 7.058337e-03
2.772182e-01 7.300711e-03
2.791475e-01 7.555369e-03
2.810751e-01 7.823353e-03
2.830003e-01 8.105493e-03
2.849224e-01 8.402678e-03
2.868428e-01 8.716226e-03
2.887608e-01 9.047224e-03
2.906757e-01 9.396845e-03
2.925888e-01 9.766780e-03
2.944994e-01 1.015847e-02
2.964068e-01 1.057349e-02
2.983124e-01 1.101403e-02
3.002155e-01 1.148204e-02
3.021153e-01 1.197965e-02
3.040133e-01 1.250978e-02
3.059087e-01 1.307509e-02
3.078008e-01 1.367850e-02
3.096911e-01 1.432399e-02
3.115787e-01 1.501526e-02
3.134629e-01 1.575643e-02
3.153453e-01 1.655298e-02
3.172249e-01 1.741021e-02
3.191012e-01 1.833403e-02
3.209754e-01 1.933223e-02
3.228470e-01 2.041256e-02
3.247151e-01 2.158373e-02
3.265811e-01 2.285713e-02
3.284444e-01 2.424440e-02
3.303043e-01 2.575883e-02
3.321620e-01 2.741761e-02
3.340169e-01 2.923886e-02
3.358683e-01 3.124353e-02
3.377175e-01 3.345865e-02
3.395639e-01 3.591354e-02
3.414068e-01 3.864272e-02
3.432474e-01 4.169063e-02
3.450851e-01 4.510713e-02
3.469192e-01 4.895197e-02
3.487511e-01 5.330247e-02
3.505800e-01 5.824832e-02
3.524053e-01 6.389945e-02
3.542282e-01 7.039944e-02
3.560482e-01 7.792085e-02
3.578645e-01 8.668045e-02
3.596784e-01 9.696503e-02
3.614893e-01 1.091306e-01
3.632964e-01 1.236331e-01
3.651012e-01 1.410785e-01
3.669028e-01 1.622247e-01
3.687007e-01 1.880250e-01
3.704961e-01 2.196805e-01
3.722884e-01 2.585591e-01
3.740769e-01 3.061029e-01
3.758629e-01 3.636502e-01
3.776457e-01 4.319091e-01
3.794246e-01 5.104077e-01
3.812010e-01 5.969566e-01
3.829742e-01 6.869929e-01
3.847434e-01 7.736509e-01
3.865101e-01 8.485609e-01
3.882735e-01 9.030757e-01
3.900330e-01 9.302495e-01
3.917898e-01 9.265215e-01
3.935433e-01 8.925649e-01
3.952928e-01 8.331522e-01
3.970396e-01 7.557960e-01
3.987831e-01 6.690988e-01
4.005225e-01 5.809925e-01
4.022592e-01 4.974695e-01
4.039925e-01 4.223539e-01
4.057217e-01 3.573690e-01
4.074482e-01 3.026003e-01
4.091712e-01 2.572465e-01
4.108900e-01 2.200431e-01
4.126061e-01 1.895878e-01
4.143187e-01 1.646211e-01
4.160271e-01 1.440595e-01
4.177326e-01 1.269978e-01
4.194346e-01 1.127367e-01
4.211324e-01 1.007253e-01
4.228273e-01 9.052131e-02
4.245186e-01 8.179068e-02
4.262057e-01 7.427005e-02
4.278898e-01 6.774367e-02
4.295703e-01 6.204734e-02
4.312465e-01 5.704866e-02
4.329197e-01 5.263552e-02
4.345893e-01 4.872163e-02
4.362545e-01 4.523580e-02
4.379167e-01 4.211560e-02
4.395751e-01 3.931268e-02
4.412292e-01 3.678632e-02
4.428803e-01 3.449958e-02
4.445275e-01 3.242382e-02
4.461704e-01 3.053449e-02
4.478101e-01 2.880861e-02
4.494461e-01 2.722838e-02
4.510776e-01 2.577834e-02
4.527059e-01 2.444355e-02
4.543304e-01 2.321252e-02
4.559504e-01 2.207515e-02
4.575672e-01 2.102137e-02
4.591801e-01 2.004350e-02
4.607885e-01 1.913472e-02
4.623936e-01 1.828803e-02
4.639948e-01 1.749816e-02
4.655915e-01 1.676038e-02
4.671849e-01 1.606969e-02
4.687742e-01 1.542237e-02
4.703591e-01 1.481508e-02
4.719405e-01 1.424414e-02
4.735180e-01 1.370689e-02
4.750908e-01 1.320090e-02
4.766602e-01 1.272343e-02
4.782256e-01 1.227253e-02
4.797864e-01 1.184641e-02
4.813436e-01 1.144297e-02
4.828968e-01 1.106077e-02
4.844454e-01 1.069847e-02
,
2.752879e-01 6.720884e-03
2.772202e-01 6.953458e-03
2.791494e-01 7.197916e-03
2.810771e-01 7.455269e-03
2.830023e-01 7.726330e-03
2.849244e-01 8.011968e-03
2.868449e-01 8.313469e-03
2.887629e-01 8.631897e-03
2.906777e-01 8.968402e-03
2.925908e-01 9.324637e-03
2.945014e-01 9.702019e-03
2.964089e-01 1.010208e-02
2.983145e-01 1.052700e-02
3.002176e-01 1.097867e-02
3.021174e-01 1.145919e-02
3.040155e-01 1.197144e-02
3.059109e-01 1.251804e-02
3.078030e-01 1.310189e-02
3.096933e-01 1.372689e-02
3.115809e-01 1.439673e-02
3.134651e-01 1.511547e-02
3.153475e-01 1.588856e-02
3.172271e-01 1.672126e-02
3.191034e-01 1.761945e-02
3.209777e-01 1.859088e-02
3.228492e-01 1.964328e-02
3.247174e-01 2.078538e-02
3.265834e-01 2.202856e-02
3.284468e-01 2.338450e-02
3.303066e-01 2.486657e-02
3.321643e-01 2.649204e-02
3.340193e-01 2.827921e-02
3.358707e-01 3.024931e-02
3.377199e-01 3.242967e-02
3.395663e-01 3.485014e-02
3.414092e-01 3.754592e-02
3.432498e-01 4.056239e-02
3.450875e-01 4.395068e-02
3.469217e-01 4.777234e-02
3.487535e-01 5.210706e-02
3.505825e-01 5.704786e-02
3.524077e-01 6.270919e-02
3.542307e-01 6.924088e-02
3.560507e-01 7.682407e-02
3.578670e-01 8.568737e-02
3.596809e-01 9.613403e-02
3.614918e-01 1.085425e-01
3.632990e-01 1.233991e-01
3.651037e-01 1.413501e-01
3.669054e-01 1.632037e-01
3.687033e-01 1.899699e-01
3.704987e-01 2.229040e-01
3.722910e-01 2.633976e-01
3.740795e-01 3.128425e-01
3.758655e-01 3.723902e-01
3.776483e-01 4.423485e-01
3.794273e-01 5.215897e-01
3.812037e-01 6.070447e-01
3.829769e-01 6.932042e-01
3.847462e-01 7.724832e-01
3.865128e-01 8.363537e-01
3.882762e-01 8.768489e-01
3.900357e-01 8.885541e-01
3.917925e-01 8.699727e-01
3.935460e-01 8.238774e-01
3.952956e-01 7.565920e-01
3.970424e-01 6.762615e-01
3.987859e-01 5.911757e-01
4.005253e-01 5.082412e-01
4.022620e-01 4.321173e-01
4.039953e-01 3.653434e-01
4.057246e-01 3.086438e-01
4.074510e-01 2.614805e-01
4.091740e-01 2.227468e-01
4.108929e-01 1.911092e-01
4.126090e-01 1.652402e-01
4.143216e-01 1.440109e-01
4.160300e-01 1.264838e-01
4.177355e-01 1.118919e-01
4.194376e-01 9.965022e-02
4.211354e-01 8.930055e-02
4.228303e-01 8.047542e-02
4.245216e-01 7.289764e-02
4.262087e-01 6.634814e-02
4.278928e-01 6.064664e-02
4.295733e-01 5.565568e-02
4.312495e-01 5.126407e-02
4.329228e-01 4.737708e-02
4.345923e-01 4.392170e-02
4.362576e-01 4.083750e-02
4.379197e-01 3.807118e-02
4.395782e-01 3.558141e-02
4.412324e-01 3.333330e-02
4.428834e-01 3.129503e-02
4.445306e-01 2.944193e-02
4.461735e-01 2.775277e-02
4.478133e-01 2.620761e-02
4.494492e-01 2.479100e-02
4.510808e-01 2.348951e-02
4.527091e-01 2.229006e-02
4.543336e-01 2.118263e-02
4.559536e-01 2.015839e-02
4.575704e-01 1.920847e-02
4.591833e-01 1.832616e-02
4.607917e-01 1.750545e-02
4.623969e-01 1.674016e-02
4.639981e-01 1.602564e-02
4.655948e-01 1.535772e-02
4.671881e-01 1.473197e-02
4.687775e-01 1.414509e-02
4.703624e-01 1.359413e-02
4.719438e-01 1.307581e-02
4.735213e-01 1.258777e-02
4.750941e-01 1.212785e-02
4.766636e-01 1.169360e-02
4.782290e-01 1.128329e-02
4.797897e-01 1.089531e-02
4.813470e-01 1.052781e-02
4.829002e-01 1.017947e-02
4.844488e-01 9.849113e-03
,
2.752890e-01 6.537157e-03
2.772214e-01 6.766145e-03
2.791506e-01 7.006984e-03
2.810783e-01 7.260692e-03
2.830035e-01 7.528091e-03
2.849256e-01 7.810068e-03
2.868461e-01 8.107918e-03
2.887641e-01 8.422724e-03
2.906789e-01 8.755658e-03
2.925921e-01 9.108397e-03
2.945027e-01 9.482385e-03
2.964101e-01 9.879197e-03
2.983158e-01 1.030103e-02
3.002189e-01 1.074986e-02
3.021187e-01 1.122781e-02
3.040167e-01 1.173785e-02
3.059122e-01 1.228267e-02
3.078043e-01 1.286526e-02
3.096946e-01 1.348964e-02
3.115822e-01 1.415962e-02
3.134665e-01 1.487944e-02
3.153488e-01 1.565473e-02
3.172285e-01 1.649096e-02
3.191048e-01 1.739429e-02
3.209790e-01 1.837281e-02
3.228506e-01 1.943462e-02
3.247187e-01 2.058893e-02
3.265848e-01 2.184770e-02
3.284481e-01 2.322329e-02
3.303080e-01 2.472993e-02
3.321657e-01 2.638596e-02
3.340207e-01 2.821095e-02
3.358721e-01 3.022772e-02
3.377214e-01 3.246562e-02
3.395678e-01 3.495698e-02
3.414106e-01 3.774014e-02
3.432513e-01 4.086450e-02
3.450890e-01 4.438631e-02
3.469231e-01 4.837359e-02
3.487550e-01 5.291467e-02
3.505839e-01 5.811362e-02
3.524092e-01 6.409937e-02
3.542322e-01 7.104138e-02
3.560522e-01 7.914650e-02
3.578685e-01 8.867769e-02
3.596824e-01 9.998511e-02
3.614933e-01 1.135089e-01
3.633005e-01 1.298161e-01
3.651053e-01 1.496577e-01
3.669070e-01 1.739651e-01
3.687049e-01 2.038784e-01
3.705003e-01 2.407606e-01
3.722926e-01 2.860161e-01
3.740811e-01 3.408538e-01
3.758671e-01 4.059257e-01
3.776499e-01 4.806027e-01
3.794289e-01 5.623817e-01
3.812053e-01 6.465613e-01
3.829785e-01 7.261437e-01
3.847478e-01 7.927700e-01
3.865145e-01 8.383352e-01
3.882779e-01 8.567081e-01
3.900374e-01 8.454134e-01
3.917942e-01 8.062262e-01
3.935477e-01 7.446805e-01
3.952972e-01 6.686282e-01
3.970441e-01 5.862818e-01
3.987876e-01 5.048132e-01
4.005270e-01 4.293513e-01
4.022637e-01 3.627086e-01
4.039970e-01 3.058953e-01
4.057263e-01 2.586040e-01
4.074528e-01 2.197565e-01
4.091758e-01 1.880582e-01
4.108947e-01 1.622135e-01
4.126107e-01 1.410484e-01
4.143233e-01 1.236145e-01
4.160318e-01 1.091490e-01
4.177373e-01 9.703866e-02
4.194393e-01 8.682044e-02
4.211372e-01 7.813269e-02
4.228321e-01 7.068462e-02
4.245234e-01 6.425663e-02
4.262105e-01 5.867437e-02
4.278946e-01 5.379326e-02
4.295751e-01 4.950279e-02
4.312514e-01 4.571303e-02
4.329246e-01 4.234675e-02
4.345942e-01 3.934430e-02
4.362594e-01 3.665606e-02
4.379216e-01 3.423790e-02
4.395801e-01 3.205560e-02
4.412342e-01 3.008011e-02
4.428852e-01 2.828475e-02
4.445325e-01 2.664884e-02
4.461754e-01 2.515451e-02
4.478152e-01 2.378486e-02
4.494511e-01 2.252680e-02
4.510827e-01 2.136892e-02
4.527110e-01 2.030003e-02
4.543355e-01 1.931158e-02
4.559555e-01 1.839598e-02
4.575723e-01 1.754561e-02
4.591853e-01 1.675468e-02
4.607937e-01 1.601800e-02
4.623988e-01 1.533022e-02
4.640001e-01 1.468730e-02
4.655968e-01 1.408564e-02
4.671901e-01 1.352134e-02
4.687795e-01 1.299155e-02
4.703644e-01 1.249368e-02
4.719458e-01 1.202486e-02
4.735233e-01 1.158302e-02
4.750962e-01 1.116628e-02
4.766656e-01 1.077246e-02
4.782310e-01 1.040004e-02
4.797918e-01 1.004763e-02
4.813491e-01 9.713547e-03
4.829023e-01 9.396665e-03
4.844508e-01 9.095922e-03
,
2.752882e-01 6.130821e-03
2.772206e-01 6.348881e-03
2.791498e-01 6.578407e-03
2.810775e-01 6.820396e-03
2.830027e-01 7.075659e-03
2.849248e-01 7.345074e-03
2.868453e-01 7.629912e-03
2.887633e-01 7.931250e-03
2.906781e-01 8.250251e-03
2.925912e-01 8.588569e-03
2.945019e-01 8.947647e-03
2.964093e-01 9.329054e-03
2.983149e-01 9.734976e-03
3.002180e-01 1.016738e-02
3.021179e-01 1.062841e-02
3.040159e-01 1.112103e-02
3.059113e-01 1.164794e-02
3.078035e-01 1.221218e-02
3.096937e-01 1.281777e-02
3.115813e-01 1.346860e-02
3.134656e-01 1.416896e-02
3.153479e-01 1.492455e-02
3.172276e-01 1.574099e-02
3.191039e-01 1.662459e-02
3.209781e-01 1.758360e-02
3.228497e-01 1.862640e-02
3.247178e-01 1.976251e-02
3.265839e-01 2.100428e-02
3.284472e-01 2.236461e-02
3.303071e-01 2.385838e-02
3.321648e-01 2.550476e-02
3.340197e-01 2.732441e-02
3.358711e-01 2.934152e-02
3.377204e-01 3.158723e-02
3.395668e-01 3.409615e-02
3.414096e-01 3.690955e-02
3.432503e-01 4.008072e-02
3.450880e-01 4.367093e-02
3.469222e-01 4.775481e-02
3.487540e-01 5.242952e-02
3.505830e-01 5.781077e-02
3.524082e-01 6.404301e-02
3.542312e-01 7.131683e-02
3.560512e-01 7.986728e-02
3.578675e-01 8.999502e-02
3.596814e-01 1.021013e-01
3.614923e-01 1.166921e-01
3.632995e-01 1.344173e-01
3.651042e-01 1.561254e-01
3.669059e-01 1.828435e-01
3.687038e-01 2.157705e-01
3.704993e-01 2.562282e-01
3.722916e-01 3.053673e-01
3.740801e-01 3.638021e-01
3.758661e-01 4.311421e-01
3.776489e-01 5.052585e-01
3.794278e-01 5.819048e-01
3.812042e-01 6.548436e-01
3.829774e-01 7.163967e-01
3.847467e-01 7.589633e-01
3.865134e-01 7.768038e-01
3.882768e-01 7.674394e-01
3.900363e-01 7.324010e-01
3.917931e-01 6.766967e-01
3.935466e-01 6.075355e-01
3.952961e-01 5.325885e-01
3.970430e-01 4.583987e-01
3.987864e-01 3.896935e-01
4.005259e-01 3.291198e-01
4.022626e-01 2.775113e-01
4.039959e-01 2.345758e-01
4.057252e-01 1.993558e-01
4.074516e-01 1.706166e-01
4.091746e-01 1.471799e-01
4.108935e-01 1.280004e-01
4.126096e-01 1.121931e-01
4.143222e-01 9.906996e-02
4.160306e-01 8.808926e-02
4.177361e-01 7.881836e-02
4.194381e-01 7.093179e-02
4.211360e-01 6.417451e-02
4.228309e-01 5.833952e-02
4.245222e-01 5.326987e-02
4.262093e-01 4.883990e-02
4.278934e-01 4.494413e-02
4.295739e-01 4.150158e-02
4.312502e-01 3.844587e-02
4.329234e-01 3.571924e-02
4.345929e-01 3.327703e-02
4.362582e-01 3.108179e-02
4.379204e-01 2.909986e-02
4.395788e-01 2.730511e-02
4.412330e-01 2.567523e-02
4.428840e-01 2.418951e-02
4.445313e-01 2.283191e-02
4.461742e-01 2.158851e-02
4.478139e-01 2.044599e-02
4.494499e-01 1.939408e-02
4.510814e-01 1.842377e-02
4.527097e-01 1.752613e-02
4.543342e-01 1.669437e-02
4.559543e-01 1.592246e-02
4.575710e-01 1.520423e-02
4.591840e-01 1.453505e-02
4.607924e-01 1.391075e-02
4.623975e-01 1.332697e-02
4.639988e-01 1.278046e-02
4.655954e-01 1.226828e-02
4.671888e-01 1.178725e-02
4.687782e-01 1.133504e-02
4.703630e-01 1.090955e-02
4.719445e-01 1.050840e-02
4.735220e-01 1.012990e-02
4.750948e-01 9.772498e-03
4.766642e-01 9.434396e-03
4.782296e-01 9.114340e-03
4.797904e-01 8.811171e-03
4.813477e-01 8.523503e-03
4.829009e-01 8.250392e-03
4.844495e-01 7.990960e-03
,
2.752882e-01 5.822416e-03
2.772206e-01 6.031854e-03
2.791498e-01 6.252435e-03
2.810775e-01 6.485133e-03
2.830027e-01 6.730753e-03
2.849248e-01 6.990158e-03
2.868453e-01 7.264600e-03
2.887633e-01 7.555144e-03
2.906781e-01 7.862942e-03
2.925912e-01 8.189627e-03
2.945019e-01 8.536629e-03
2.964093e-01 8.905513e-03
2.983149e-01 9.298441e-03
3.002180e-01 9.717372e-03
3.021179e-01 1.016446e-02
3.040159e-01 1.064263e-02
3.059113e-01 1.115461e-02
3.078035e-01 1.170343e-02
3.096937e-01 1.229313e-02
3.115813e-01 1.292760e-02
3.134656e-01 1.361119e-02
3.153479e-01 1.434963e-02
3.172276e-01 1.514859e-02
3.191039e-01 1.601448e-02
3.209781e-01 1.695566e-02
3.228497e-01 1.798066e-02
3.247178e-01 1.909922e-02
3.265839e-01 2.032392e-02
3.284472e-01 2.166801e-02
3.303071e-01 2.314683e-02
3.321648e-01 2.478009e-02
3.340197e-01 2.658921e-02
3.358711e-01 2.859934e-02
3.377204e-01 3.084285e-02
3.395668e-01 3.335598e-02
3.414096e-01 3.618211e-02
3.432503e-01 3.937734e-02
3.450880e-01 4.300657e-02
3.469222e-01 4.714923e-02
3.487540e-01 5.190893e-02
3.505830e-01 5.740984e-02
3.524082e-01 6.380760e-02
3.542285e-01 7.129563e-02
3.560512e-01 8.016501e-02
3.578675e-01 9.070464e-02
3.596814e-01 1.033589e-01
3.614923e-01 1.186683e-01
3.632995e-01 1.373142e-01
3.651042e-01 1.601602e-01
3.669059e-01 1.881992e-01
3.687038e-01 2.224970e-01
3.704993e-01 2.640757e-01
3.722916e-01 3.135416e-01
3.740801e-01 3.706856e-01
3.758661e-01 4.340698e-01
3.776489e-01 5.005051e-01
3.794278e-01 5.650403e-01
3.812042e-01 6.214962e-01
3.829774e-01 6.633466e-01
3.847467e-01 6.852088e-01
3.865134e-01 6.841651e-01
3.882768e-01 6.604747e-01
3.900363e-01 6.175383e-01
3.917931e-01 5.609056e-01
3.935466e-01 4.970194e-01
3.952961e-01 4.318631e-01
3.970430e-01 3.699760e-01
3.987864e-01 3.142611e-01
4.005259e-01 2.660336e-01
4.022626e-01 2.253720e-01
4.039959e-01 1.916869e-01
4.057252e-01 1.640416e-01
4.074516e-01 1.413969e-01
4.091746e-01 1.228206e-01
4.108935e-01 1.075113e-01
4.126096e-01 9.479945e-02
4.143222e-01 8.416786e-02
4.160306e-01 7.520877e-02
4.177361e-01 6.759444e-02
4.194381e-01 6.107725e-02
4.211360e-01 5.546168e-02
4.228309e-01 5.058741e-02
4.245222e-01 4.633232e-02
4.262093e-01 4.259787e-02
4.278934e-01 3.930054e-02
4.295739e-01 3.637601e-02
4.312502e-01 3.377122e-02
4.329234e-01 3.143957e-02
4.345929e-01 2.934499e-02
4.362582e-01 2.745708e-02
4.379204e-01 2.574825e-02
4.395788e-01 2.419710e-02
4.412330e-01 2.278530e-02
4.428840e-01 2.149568e-02
4.445313e-01 2.031493e-02
4.461742e-01 1.923151e-02
4.478139e-01 1.823423e-02
4.494499e-01 1.731453e-02
4.510814e-01 1.646483e-02
4.527097e-01 1.567761e-02
4.543342e-01 1.494714e-02
4.559543e-01 1.426832e-02
4.575698e-01 1.363636e-02
4.591840e-01 1.304596e-02
4.607924e-01 1.249496e-02
4.623975e-01 1.197914e-02
4.639988e-01 1.149574e-02
4.655954e-01 1.104225e-02
4.671888e-01 1.061593e-02
4.687782e-01 1.021479e-02
4.703630e-01 9.837006e-03
4.719445e-01 9.480534e-03
4.735220e-01 9.143914e-03
4.750948e-01 8.825806e-03
4.766642e-01 8.524650e-03
4.782296e-01 8.239359e-03
4.797904e-01 7.968932e-03
4.813477e-01 7.712157e-03
4.829009e-01 7.468217e-03
4.844495e-01 7.236349e-03
,
2.752873e-01 5.437778e-03
2.772196e-01 5.635792e-03
2.791489e-01 5.844479e-03
2.810765e-01 6.064778e-03
2.830017e-01 6.297473e-03
2.849238e-01 6.543408e-03
2.868443e-01 6.803794e-03
2.887623e-01 7.079674e-03
2.906771e-01 7.372175e-03
2.925902e-01 7.682887e-03
2.945008e-01 8.013214e-03
2.964082e-01 8.364692e-03
2.983139e-01 8.739437e-03
3.002170e-01 9.139380e-03
3.021168e-01 9.566647e-03
3.040148e-01 1.002411e-02
3.059102e-01 1.051449e-02
3.078024e-01 1.104077e-02
3.096926e-01 1.160695e-02
3.115802e-01 1.221692e-02
3.134645e-01 1.287501e-02
3.153468e-01 1.358692e-02
3.172265e-01 1.435835e-02
3.191027e-01 1.519575e-02
3.209770e-01 1.610749e-02
3.228486e-01 1.710219e-02
3.247167e-01 1.818973e-02
3.265828e-01 1.938285e-02
3.284461e-01 2.069505e-02
3.303059e-01 2.214202e-02
3.321636e-01 2.374394e-02
3.340186e-01 2.552285e-02
3.358700e-01 2.750478e-02
3.377192e-01 2.972324e-02
3.395656e-01 3.221601e-02
3.414084e-01 3.502857e-02
3.432491e-01 3.821973e-02
3.450868e-01 4.185812e-02
3.469209e-01 4.602809e-02
3.487528e-01 5.083983e-02
3.505817e-01 5.642623e-02
3.524070e-01 6.295429e-02
3.542300e-01 7.064438e-02
3.560499e-01 7.976897e-02
3.578662e-01 9.067391e-02
3.596802e-01 1.038113e-01
3.614911e-01 1.197317e-01
3.632982e-01 1.390998e-01
3.651030e-01 1.627051e-01
3.669046e-01 1.913600e-01
3.687025e-01 2.257842e-01
3.704980e-01 2.664330e-01
3.722903e-01 3.131142e-01
3.740787e-01 3.646742e-01
3.758647e-01 4.187919e-01
3.776475e-01 4.718045e-01
3.794265e-01 5.190626e-01
3.812029e-01 5.556646e-01
3.829761e-01 5.773026e-01
3.847453e-01 5.812995e-01
3.865120e-01 5.672294e-01
3.882754e-01 5.369999e-01
3.900349e-01 4.943957e-01
3.917917e-01 4.441230e-01
3.935452e-01 3.909404e-01
3.952947e-01 3.388474e-01
3.970416e-01 2.906078e-01
3.987850e-01 2.478161e-01
4.005245e-01 2.110294e-01
4.022612e-01 1.800471e-01
4.039945e-01 1.543017e-01
4.057237e-01 1.330501e-01
4.074502e-01 1.155147e-01
4.091732e-01 1.010140e-01
4.108921e-01 8.896650e-02
4.126081e-01 7.888456e-02
4.143207e-01 7.039038e-02
4.160291e-01 6.318368e-02
4.177347e-01 5.702037e-02
4.194367e-01 5.171490e-02
4.211345e-01 4.711948e-02
4.228294e-01 4.311156e-02
4.245207e-01 3.959738e-02
4.262078e-01 3.650070e-02
4.278919e-01 3.375630e-02
4.295724e-01 3.131381e-02
4.312486e-01 2.913140e-02
4.329218e-01 2.717205e-02
4.345914e-01 2.540706e-02
4.362566e-01 2.381211e-02
4.379188e-01 2.236498e-02
4.395773e-01 2.104842e-02
4.412314e-01 1.984759e-02
4.428824e-01 1.874848e-02
4.445297e-01 1.774028e-02
4.461726e-01 1.681354e-02
4.478123e-01 1.595905e-02
4.494483e-01 1.516978e-02
4.510798e-01 1.443949e-02
4.527081e-01 1.376193e-02
4.543326e-01 1.313235e-02
4.559526e-01 1.254654e-02
4.575694e-01 1.200009e-02
4.591823e-01 1.148975e-02
4.607908e-01 1.101255e-02
4.623959e-01 1.056535e-02
4.639971e-01 1.014582e-02
4.655938e-01 9.751868e-03
4.671872e-01 9.381164e-03
4.687766e-01 9.032037e-03
4.703614e-01 8.702955e-03
4.719428e-01 8.392176e-03
4.735203e-01 8.098468e-03
4.750931e-01 7.820698e-03
4.766626e-01 7.557534e-03
4.782280e-01 7.308054e-03
4.797887e-01 7.071408e-03
4.813460e-01 6.846560e-03
4.828992e-01 6.632811e-03
4.844478e-01 6.429514e-03
,
2.752877e-01 5.038310e-03
2.772200e-01 5.224485e-03
2.791492e-01 5.420850e-03
2.810769e-01 5.628313e-03
2.830021e-01 5.847636e-03
2.849242e-01 6.079642e-03
2.868447e-01 6.325508e-03
2.887627e-01 6.586250e-03
2.906775e-01 6.862976e-03
2.925906e-01 7.157234e-03
2.945012e-01 7.470404e-03
2.964087e-01 7.803998e-03
2.983143e-01 8.160091e-03
3.002174e-01 8.540590e-03
3.021172e-01 8.947601e-03
3.040152e-01 9.383959e-03
3.059107e-01 9.852354e-03
3.078028e-01 1.035578e-02
3.096930e-01 1.089820e-02
3.115807e-01 1.148351e-02
3.134649e-01 1.211605e-02
3.153473e-01 1.280155e-02
3.172269e-01 1.354573e-02
3.191032e-01 1.435514e-02
3.209775e-01 1.523824e-02
3.228490e-01 1.620381e-02
3.247171e-01 1.726194e-02
3.265832e-01 1.842565e-02
3.284465e-01 1.970885e-02
3.303064e-01 2.112776e-02
3.321641e-01 2.270324e-02
3.340190e-01 2.445827e-02
3.358704e-01 2.642012e-02
3.377197e-01 2.862390e-02
3.395661e-01 3.110954e-02
3.414089e-01 3.392532e-02
3.432496e-01 3.713376e-02
3.450873e-01 4.080829e-02
3.469214e-01 4.503947e-02
3.487533e-01 4.994550e-02
3.505822e-01 5.566909e-02
3.524075e-01 6.238880e-02
3.542305e-01 7.033752e-02
3.560504e-01 7.979810e-02
3.578667e-01 9.111834e-02
3.596807e-01 1.047322e-01
3.614916e-01 1.211301e-01
3.632987e-01 1.408413e-01
3.651035e-01 1.644025e-01
3.669051e-01 1.922096e-01
3.687030e-01 2.243778e-01
3.704985e-01 2.605931e-01
3.722908e-01 2.998475e-01
3.740793e-01 3.403443e-01
3.758653e-01 3.795646e-01
3.776481e-01 4.143920e-01
3.794270e-01 4.415892e-01
3.812034e-01 4.583782e-01
3.829766e-01 4.629283e-01
3.847459e-01 4.547879e-01
3.865126e-01 4.349458e-01
3.882760e-01 4.056234e-01
3.900354e-01 3.698134e-01
3.917923e-01 3.306634e-01
3.935458e-01 2.910580e-01
3.952953e-01 2.532492e-01
3.970421e-01 2.186845e-01
3.987856e-01 1.881359e-01
4.005250e-01 1.617995e-01
4.022618e-01 1.394572e-01
4.039951e-01 1.207061e-01
4.057243e-01 1.050528e-01
4.074507e-01 9.198638e-02
4.091738e-01 8.105927e-02
4.108926e-01 7.188473e-02
4.126087e-01 6.413259e-02
4.143213e-01 5.754391e-02
4.160297e-01 5.190955e-02
4.177353e-01 4.705645e-02
4.194373e-01 4.285180e-02
4.211351e-01 3.918850e-02
4.228300e-01 3.597646e-02
4.245213e-01 3.314636e-02
4.262084e-01 3.064132e-02
4.278925e-01 2.841210e-02
4.295730e-01 2.642055e-02
4.312492e-01 2.463480e-02
4.329225e-01 2.302631e-02
4.345920e-01 2.157295e-02
4.362573e-01 2.025586e-02
4.379194e-01 1.905765e-02
4.395779e-01 1.796483e-02
4.412320e-01 1.696572e-02
4.428831e-01 1.604923e-02
4.445303e-01 1.520678e-02
4.461732e-01 1.443086e-02
4.478130e-01 1.371412e-02
4.494489e-01 1.305090e-02
4.510804e-01 1.243620e-02
4.527088e-01 1.186499e-02
4.543332e-01 1.133342e-02
4.559533e-01 1.083808e-02
4.575701e-01 1.037540e-02
4.591830e-01 9.942713e-03
4.607914e-01 9.537619e-03
4.623966e-01 9.157530e-03
4.639978e-01 8.800552e-03
4.655945e-01 8.464963e-03
4.671878e-01 8.148844e-03
4.687772e-01 7.850822e-03
4.703620e-01 7.569636e-03
4.719435e-01 7.303839e-03
4.735210e-01 7.052414e-03
4.750938e-01 6.814426e-03
4.766632e-01 6.588761e-03
4.782286e-01 6.374658e-03
4.797894e-01 6.171410e-03
4.813467e-01 5.978148e-03
4.828999e-01 5.794293e-03
4.844484e-01 5.619304e-03
,
2.752859e-01 4.219021e-03
2.772182e-01 4.378777e-03
2.791475e-01 4.547517e-03
2.810751e-01 4.726057e-03
2.830003e-01 4.915095e-03
2.849224e-01 5.115386e-03
2.868428e-01 5.327997e-03
2.887608e-01 5.553868e-03
2.906757e-01 5.794023e-03
2.925888e-01 6.049881e-03
2.944994e-01 6.322729e-03
2.964068e-01 6.613982e-03
2.983124e-01 6.925563e-03
3.002155e-01 7.259269e-03
3.021153e-01 7.617096e-03
3.040133e-01 8.001707e-03
3.059087e-01 8.415671e-03
3.078008e-01 8.861863e-03
3.096911e-01 9.344071e-03
3.115787e-01 9.866058e-03
3.134629e-01 1.043208e-02
3.153453e-01 1.104768e-02
3.172249e-01 1.171855e-02
3.191012e-01 1.245118e-02
3.209754e-01 1.325396e-02
3.228470e-01 1.413578e-02
3.247151e-01 1.510692e-02
3.265811e-01 1.618063e-02
3.284444e-01 1.737132e-02
3.303043e-01 1.869599e-02
3.321620e-01 2.017650e-02
3.340169e-01 2.183741e-02
3.358683e-01 2.370815e-02
3.377175e-01 2.582671e-02
3.395639e-01 2.823703e-02
3.414068e-01 3.099267e-02
3.432474e-01 3.416286e-02
3.450851e-01 3.782943e-02
3.469192e-01 4.209260e-02
3.487511e-01 4.708049e-02
3.505800e-01 5.294334e-02
3.524053e-01 5.985946e-02
3.542282e-01 6.804450e-02
3.560482e-01 7.773120e-02
3.578645e-01 8.916186e-02
3.596784e-01 1.025801e-01
3.614893e-01 1.181682e-01
3.632964e-01 1.360057e-01
3.651012e-01 1.560320e-01
3.669028e-01 1.779441e-01
3.687007e-01 2.011629e-01
3.704961e-01 2.248419e-01
3.722884e-01 2.478382e-01
3.740769e-01 2.688191e-01
3.758629e-01 2.864161e-01
3.776457e-01 2.993445e-01
3.794246e-01 3.066091e-01
3.812010e-01 3.076499e-01
3.829742e-01 3.024098e-01
3.847434e-01 2.913579e-01
3.865101e-01 2.753908e-01
3.882735e-01 2.557209e-01
3.900330e-01 2.337009e-01
3.917898e-01 2.106289e-01
3.935433e-01 1.876657e-01
3.952928e-01 1.657256e-01
3.970396e-01 1.454206e-01
3.987831e-01 1.271216e-01
4.005225e-01 1.109724e-01
4.022592e-01 9.693061e-02
4.039925e-01 8.486141e-02
4.057217e-01 7.456531e-02
4.074482e-01 6.580796e-02
4.091712e-01 5.836901e-02
4.108900e-01 5.204351e-02
4.126061e-01 4.664438e-02
4.143187e-01 4.201845e-02
4.160271e-01 3.803689e-02
4.177326e-01 3.458921e-02
4.194346e-01 3.158889e-02
4.211324e-01 2.896482e-02
4.228273e-01 2.665618e-02
4.245186e-01 2.461581e-02
4.262057e-01 2.280471e-02
4.278898e-01 2.118879e-02
4.295703e-01 1.974160e-02
4.312465e-01 1.844092e-02
4.329197e-01 1.726677e-02
4.345893e-01 1.620362e-02
4.362545e-01 1.523822e-02
4.379167e-01 1.435826e-02
4.395751e-01 1.355422e-02
4.412292e-01 1.281783e-02
4.428803e-01 1.214119e-02
4.445275e-01 1.151819e-02
4.461704e-01 1.094350e-02
4.478101e-01 1.041183e-02
4.494461e-01 9.919148e-03
4.510776e-01 9.461880e-03
4.527059e-01 9.036379e-03
4.543304e-01 8.639898e-03
4.559504e-01 8.269976e-03
4.575672e-01 7.924022e-03
4.591801e-01 7.600119e-03
4.607885e-01 7.296527e-03
4.623936e-01 7.011365e-03
4.639948e-01 6.743259e-03
4.655915e-01 6.490958e-03
4.671849e-01 6.253061e-03
4.687742e-01 6.028568e-03
4.703591e-01 5.816559e-03
4.719405e-01 5.615974e-03
4.735180e-01 5.426069e-03
4.750908e-01 5.246161e-03
4.766602e-01 5.075429e-03
4.782256e-01 4.913315e-03
4.797864e-01 4.759301e-03
4.813436e-01 4.612744e-03
4.828968e-01 4.473218e-03
4.844454e-01 4.340327e-03
,
2.752886e-01 3.269579e-03
2.772210e-01 3.399340e-03
2.791502e-01 3.536812e-03
2.810779e-01 3.682730e-03
2.830031e-01 3.837741e-03
2.849252e-01 4.002553e-03
2.868457e-01 4.178146e-03
2.887637e-01 4.365411e-03
2.906785e-01 4.565330e-03
2.925916e-01 4.779237e-03
2.945023e-01 5.008385e-03
2.964097e-01 5.254166e-03
2.983153e-01 5.518440e-03
3.002184e-01 5.803012e-03
3.021183e-01 6.109908e-03
3.040163e-01 6.441796e-03
3.059117e-01 6.801348e-03
3.078039e-01 7.191598e-03
3.096941e-01 7.616503e-03
3.115818e-01 8.080152e-03
3.134660e-01 8.587251e-03
3.153484e-01 9.143894e-03
3.172280e-01 9.756585e-03
3.191043e-01 1.043292e-02
3.209786e-01 1.118270e-02
3.228501e-01 1.201670e-02
3.247183e-01 1.294773e-02
3.265844e-01 1.399221e-02
3.284477e-01 1.516874e-02
3.303075e-01 1.649953e-02
3.321653e-01 1.801296e-02
3.340202e-01 1.974143e-02
3.358716e-01 2.172344e-02
3.377209e-01 2.400707e-02
3.395673e-01 2.664622e-02
3.414101e-01 2.970257e-02
3.432508e-01 3.324930e-02
3.450885e-01 3.736292e-02
3.469226e-01 4.212301e-02
3.487545e-01 4.761415e-02
3.505835e-01 5.390877e-02
3.524087e-01 6.106266e-02
3.542317e-01 6.911403e-02
3.560517e-01 7.805581e-02
3.578680e-01 8.783051e-02
3.596819e-01 9.833237e-02
3.614928e-01 1.093780e-01
3.633000e-01 1.207144e-01
3.651048e-01 1.320365e-01
3.669064e-01 1.429736e-01
3.687043e-01 1.531218e-01
3.704998e-01 1.620803e-01
3.722921e-01 1.694582e-01
3.740806e-01 1.749191e-01
3.758666e-01 1.782129e-01
3.776494e-01 1.791853e-01
3.794284e-01 1.778009e-01
3.812048e-01 1.741402e-01
3.829780e-01 1.683944e-01
3.847472e-01 1.608495e-01
3.865139e-01 1.518489e-01
3.882773e-01 1.417817e-01
3.900368e-01 1.310470e-01
3.917936e-01 1.200131e-01
3.935472e-01 1.090205e-01
3.952967e-01 9.835496e-02
3.970435e-01 8.822798e-02
3.987870e-01 7.879923e-02
4.005265e-01 7.016744e-02
4.022632e-01 6.236949e-02
4.039965e-01 5.540957e-02
4.057257e-01 4.925859e-02
4.074522e-01 4.385862e-02
4.091752e-01 3.914553e-02
4.108941e-01 3.504810e-02
4.126102e-01 3.148995e-02
4.143227e-01 2.840251e-02
4.160312e-01 2.572197e-02
4.177367e-01 2.338830e-02
4.194387e-01 2.135165e-02
4.211366e-01 1.956866e-02
4.228315e-01 1.800049e-02
4.245228e-01 1.661609e-02
4.262099e-01 1.538917e-02
4.278940e-01 1.429639e-02
4.295745e-01 1.331943e-02
4.312508e-01 1.244283e-02
4.329240e-01 1.165268e-02
4.345935e-01 1.093815e-02
4.362588e-01 1.029002e-02
4.379210e-01 9.699788e-03
4.395795e-01 9.160851e-03
4.412336e-01 8.667525e-03
4.428846e-01 8.214397e-03
4.445319e-01 7.797303e-03
4.461748e-01 7.412599e-03
4.478145e-01 7.056706e-03
4.494505e-01 6.726895e-03
4.510820e-01 6.420750e-03
4.527104e-01 6.135818e-03
4.543348e-01 5.870253e-03
4.559549e-01 5.622403e-03
4.575717e-01 5.390534e-03
4.591846e-01 5.173364e-03
4.607930e-01 4.969731e-03
4.623982e-01 4.778379e-03
4.639994e-01 4.598392e-03
4.655961e-01 4.428937e-03
4.671895e-01 4.269082e-03
4.687789e-01 4.118160e-03
4.703637e-01 3.975561e-03
4.719452e-01 3.840579e-03
4.735226e-01 3.712719e-03
4.750955e-01 3.591529e-03
4.766649e-01 3.476462e-03
4.782303e-01 3.367148e-03
4.797911e-01 3.263243e-03
4.813484e-01 3.164318e-03
4.829016e-01 3.070093e-03
4.844502e-01 2.980302e-03
,
2.752842e-01 2.315034e-03
2.772165e-01 2.415545e-03
2.791457e-01 2.522761e-03
2.810733e-01 2.637396e-03
2.829985e-01 2.760125e-03
2.849206e-01 2.891700e-03
2.868410e-01 3.033130e-03
2.887590e-01 3.185404e-03
2.906738e-01 3.349638e-03
2.925869e-01 3.527308e-03
2.944975e-01 3.719911e-03
2.964049e-01 3.929166e-03
2.983105e-01 4.157316e-03
3.002136e-01 4.406719e-03
3.021134e-01 4.680111e-03
3.040114e-01 4.981038e-03
3.059068e-01 5.313330e-03
3.077989e-01 5.681478e-03
3.096891e-01 6.091226e-03
3.115767e-01 6.548903e-03
3.134610e-01 7.061918e-03
3.153433e-01 7.639601e-03
3.172229e-01 8.292239e-03
3.190991e-01 9.031711e-03
3.209734e-01 9.872610e-03
3.228449e-01 1.083071e-02
3.247130e-01 1.192364e-02
3.265791e-01 1.317231e-02
3.284424e-01 1.459824e-02
3.303022e-01 1.622417e-02
3.321599e-01 1.807564e-02
3.340148e-01 2.017653e-02
3.358662e-01 2.254942e-02
3.377154e-01 2.521741e-02
3.395618e-01 2.819717e-02
3.414046e-01 3.149938e-02
3.432452e-01 3.513107e-02
3.450829e-01 3.908627e-02
3.469170e-01 4.334743e-02
3.487489e-01 4.788925e-02
3.505778e-01 5.266790e-02
3.524030e-01 5.762502e-02
3.542260e-01 6.269383e-02
3.560459e-01 6.778904e-02
3.578622e-01 7.281427e-02
3.596761e-01 7.767055e-02
3.614870e-01 8.224852e-02
3.632941e-01 8.643864e-02
3.650988e-01 9.014004e-02
3.669005e-01 9.325562e-02
3.686984e-01 9.570219e-02
3.704938e-01 9.741620e-02
3.722861e-01 9.835134e-02
3.740745e-01 9.848474e-02
3.758605e-01 9.781686e-02
3.776433e-01 9.637095e-02
3.794222e-01 9.419314e-02
3.811986e-01 9.134621e-02
3.829718e-01 8.791121e-02
3.847410e-01 8.398200e-02
3.865077e-01 7.965556e-02
3.882711e-01 7.503653e-02
3.900305e-01 7.022906e-02
3.917873e-01 6.532720e-02
3.935408e-01 6.042268e-02
3.952903e-01 5.559702e-02
3.970371e-01 5.091458e-02
3.987805e-01 4.643248e-02
4.005200e-01 4.219475e-02
4.022567e-01 3.822833e-02
4.039899e-01 3.455355e-02
4.057191e-01 3.118014e-02
4.074456e-01 2.810545e-02
4.091686e-01 2.532363e-02
4.108874e-01 2.282294e-02
4.126035e-01 2.058492e-02
4.143160e-01 1.859133e-02
4.160244e-01 1.682218e-02
4.177300e-01 1.525499e-02
4.194319e-01 1.386963e-02
4.211297e-01 1.264651e-02
4.228246e-01 1.156595e-02
4.245159e-01 1.061114e-02
4.262030e-01 9.766690e-03
4.278871e-01 9.017937e-03
4.295676e-01 8.352776e-03
4.312438e-01 7.760500e-03
4.329170e-01 7.231151e-03
4.345865e-01 6.756719e-03
4.362517e-01 6.330243e-03
4.379139e-01 5.945288e-03
4.395723e-01 5.596774e-03
4.412264e-01 5.280313e-03
4.428774e-01 4.991810e-03
4.445247e-01 4.728076e-03
4.461676e-01 4.486353e-03
4.478073e-01 4.264009e-03
4.494432e-01 4.059021e-03
4.510747e-01 3.869624e-03
4.527030e-01 3.694083e-03
4.543275e-01 3.531082e-03
4.559475e-01 3.379460e-03
4.575643e-01 3.238037e-03
4.591772e-01 3.105930e-03
4.607856e-01 2.982352e-03
4.623907e-01 2.866473e-03
4.639919e-01 2.757682e-03
4.655886e-01 2.655432e-03
4.671819e-01 2.559120e-03
4.687713e-01 2.468313e-03
4.703561e-01 2.382618e-03
4.719375e-01 2.301588e-03
4.735150e-01 2.224908e-03
4.750878e-01 2.152290e-03
4.766572e-01 2.083395e-03
4.782226e-01 2.017989e-03
4.797833e-01 1.955857e-03
4.813406e-01 1.896735e-03
4.828938e-01 1.840448e-03
4.844423e-01 1.786834e-03
,
2.752842e-01 1.256817e-03
2.772165e-01 1.331851e-03
2.791457e-01 1.414889e-03
2.810733e-01 1.507214e-03
2.829985e-01 1.610221e-03
2.849206e-01 1.725519e-03
2.868410e-01 1.855111e-03
2.887590e-01 2.001166e-03
2.906738e-01 2.166154e-03
2.925869e-01 2.353086e-03
2.944975e-01 2.565175e-03
2.964049e-01 2.806001e-03
2.983105e-01 3.079843e-03
3.002136e-01 3.391145e-03
3.021134e-01 3.744721e-03
3.040114e-01 4.146198e-03
3.059068e-01 4.601190e-03
3.077989e-01 5.115548e-03
3.096891e-01 5.695953e-03
3.115767e-01 6.348663e-03
3.134610e-01 7.079838e-03
3.153433e-01 7.896341e-03
3.172229e-01 8.803909e-03
3.190991e-01 9.807628e-03
3.209734e-01 1.091299e-02
3.228449e-01 1.212341e-02
3.247130e-01 1.344090e-02
3.265791e-01 1.486755e-02
3.284424e-01 1.640225e-02
3.303022e-01 1.804178e-02
3.321599e-01 1.978271e-02
3.340148e-01 2.161744e-02
3.358662e-01 2.353588e-02
3.377154e-01 2.552764e-02
3.395618e-01 2.757776e-02
3.414046e-01 2.966886e-02
3.432452e-01 3.178371e-02
3.450829e-01 3.390081e-02
3.469170e-01 3.599702e-02
3.487489e-01 3.805033e-02
3.505778e-01 4.003553e-02
3.524030e-01 4.192724e-02
3.542260e-01 4.370241e-02
3.560459e-01 4.533663e-02
3.578622e-01 4.680703e-02
3.596761e-01 4.809421e-02
3.614870e-01 4.917947e-02
3.632941e-01 5.004720e-02
3.650988e-01 5.068595e-02
3.669005e-01 5.108668e-02
3.686984e-01 5.124442e-02
3.704938e-01 5.115811e-02
3.722861e-01 5.083023e-02
3.740745e-01 5.026733e-02
3.758605e-01 4.947875e-02
3.776433e-01 4.847763e-02
3.794222e-01 4.728028e-02
3.811986e-01 4.590404e-02
3.829718e-01 4.436952e-02
3.847410e-01 4.269903e-02
3.865077e-01 4.091391e-02
3.882711e-01 3.903783e-02
3.900305e-01 3.709453e-02
3.917873e-01 3.510507e-02
3.935408e-01 3.309177e-02
3.952903e-01 3.107575e-02
3.970371e-01 2.907427e-02
3.987805e-01 2.710512e-02
4.005200e-01 2.518406e-02
4.022567e-01 2.332263e-02
4.039899e-01 2.153246e-02
4.057191e-01 1.982298e-02
4.074456e-01 1.819967e-02
4.091686e-01 1.666803e-02
4.108874e-01 1.523162e-02
4.126035e-01 1.389078e-02
4.143160e-01 1.264600e-02
4.160244e-01 1.149639e-02
4.177300e-01 1.043870e-02
4.194319e-01 9.470095e-03
4.211297e-01 8.586927e-03
4.228246e-01 7.784027e-03
4.245159e-01 7.056867e-03
4.262030e-01 6.400578e-03
4.278871e-01 5.809461e-03
4.295676e-01 5.278568e-03
4.312438e-01 4.802953e-03
4.329170e-01 4.377306e-03
4.345865e-01 3.997078e-03
4.362517e-01 3.657910e-03
4.379139e-01 3.355358e-03
4.395723e-01 3.085667e-03
4.412264e-01 2.845346e-03
4.428774e-01 2.630948e-03
4.445247e-01 2.439604e-03
4.461676e-01 2.268704e-03
4.478073e-01 2.115726e-03
4.494432e-01 1.978599e-03
4.510747e-01 1.855473e-03
4.527030e-01 1.744577e-03
4.543275e-01 1.644484e-03
4.559475e-01 1.553927e-03
4.575643e-01 1.471703e-03
4.591772e-01 1.396854e-03
4.607856e-01 1.328540e-03
4.623907e-01 1.265953e-03
4.639919e-01 1.208466e-03
4.655886e-01 1.155524e-03
4.671819e-01 1.106592e-03
4.687713e-01 1.061258e-03
4.703561e-01 1.019160e-03
4.719375e-01 9.799381e-04
4.735150e-01 9.433222e-04
4.750878e-01 9.090732e-04
4.766572e-01 8.769451e-04
4.782226e-01 8.467575e-04
4.797833e-01 8.183498e-04
4.813406e-01 7.915496e-04
4.828938e-01 7.662339e-04
4.844423e-01 7.422920e-04
,
2.752842e-01 -7.005498e-04
2.772165e-01 -4.890010e-04
2.791457e-01 -2.489905e-04
2.810733e-01 2.122164e-05
2.829985e-01 3.230194e-04
2.849206e-01 6.576252e-04
2.868410e-01 1.026506e-03
2.887590e-01 1.430599e-03
2.906738e-01 1.870603e-03
2.925869e-01 2.347511e-03
2.944975e-01 2.861598e-03
2.964049e-01 3.412834e-03
2.983105e-01 4.001546e-03
3.002136e-01 4.627159e-03
3.021134e-01 5.288741e-03
3.040114e-01 5.985797e-03
3.059068e-01 6.716769e-03
3.077989e-01 7.479714e-03
3.096891e-01 8.273225e-03
3.115767e-01 9.094703e-03
3.134610e-01 9.941183e-03
3.153433e-01 1.081034e-02
3.172229e-01 1.169858e-02
3.190991e-01 1.260200e-02
3.209734e-01 1.351746e-02
3.228449e-01 1.444054e-02
3.247130e-01 1.536659e-02
3.265791e-01 1.629185e-02
3.284424e-01 1.721132e-02
3.303022e-01 1.811994e-02
3.321599e-01 1.901357e-02
3.340148e-01 1.988702e-02
3.358662e-01 2.073515e-02
3.377154e-01 2.155382e-02
3.395618e-01 2.233801e-02
3.414046e-01 2.308292e-02
3.432452e-01 2.378476e-02
3.450829e-01 2.443911e-02
3.469170e-01 2.504189e-02
3.487489e-01 2.558999e-02
3.505778e-01 2.607994e-02
3.524030e-01 2.650874e-02
3.542260e-01 2.687424e-02
3.560459e-01 2.717421e-02
3.578622e-01 2.740694e-02
3.596761e-01 2.757143e-02
3.614870e-01 2.766684e-02
3.632941e-01 2.769291e-02
3.650988e-01 2.764985e-02
3.669005e-01 2.753825e-02
3.686984e-01 2.735927e-02
3.704938e-01 2.711427e-02
3.722861e-01 2.680521e-02
3.740745e-01 2.643451e-02
3.758605e-01 2.600454e-02
3.776433e-01 2.551839e-02
3.794222e-01 2.497953e-02
3.811986e-01 2.439108e-02
3.829718e-01 2.375698e-02
3.847410e-01 2.308143e-02
3.865077e-01 2.236800e-02
3.882711e-01 2.162114e-02
3.900305e-01 2.084542e-02
3.917873e-01 2.004457e-02
3.935408e-01 1.922319e-02
3.952903e-01 1.838587e-02
3.970371e-01 1.753622e-02
3.987805e-01 1.667865e-02
4.005200e-01 1.581748e-02
4.022567e-01 1.495591e-02
4.039899e-01 1.409794e-02
4.057191e-01 1.324735e-02
4.074456e-01 1.240677e-02
4.091686e-01 1.157956e-02
4.108874e-01 1.076881e-02
4.126035e-01 9.976470e-03
4.143160e-01 9.205141e-03
4.160244e-01 8.457143e-03
4.177300e-01 7.733701e-03
4.194319e-01 7.036631e-03
4.211297e-01 6.367461e-03
4.228246e-01 5.726726e-03
4.245159e-01 5.115484e-03
4.262030e-01 4.534526e-03
4.278871e-01 3.983775e-03
4.295676e-01 3.463615e-03
4.312438e-01 2.974193e-03
4.329170e-01 2.514938e-03
4.345865e-01 2.085674e-03
4.362517e-01 1.686034e-03
4.379139e-01 1.315077e-03
4.395723e-01 9.722019e-04
4.412264e-01 6.566643e-04
4.428774e-01 3.672847e-04
4.445247e-01 1.031711e-04
4.461676e-01 -1.366648e-04
4.478073e-01 -3.535217e-04
4.494432e-01 -5.484582e-04
4.510747e-01 -7.225876e-04
4.527030e-01 -8.772269e-04
4.543275e-01 -1.013496e-03
4.559475e-01 -1.132534e-03
4.575643e-01 -1.235598e-03
4.591772e-01 -1.323786e-03
4.607856e-01 -1.398191e-03
4.623907e-01 -1.459954e-03
4.639919e-01 -1.510092e-03
4.655886e-01 -1.549599e-03
4.671819e-01 -1.579468e-03
4.687713e-01 -1.600599e-03
4.703561e-01 -1.613857e-03
4.719375e-01 -1.620072e-03
4.735150e-01 -1.620010e-03
4.750878e-01 -1.614394e-03
4.766572e-01 -1.603892e-03
4.782226e-01 -1.589130e-03
4.797833e-01 -1.570692e-03
4.813406e-01 -1.549096e-03
4.828938e-01 -1.524835e-03
4.844423e-01 -1.498363e-03
,
2.752910e-01 1.084492e-04
2.772233e-01 4.903898e-04
2.791526e-01 8.896485e-04
2.810802e-01 1.305916e-03
2.830055e-01 1.738349e-03
2.849276e-01 2.185988e-03
2.868481e-01 2.648296e-03
2.887661e-01 3.124149e-03
2.906810e-01 3.612319e-03
2.925941e-01 4.112052e-03
2.945048e-01 4.621970e-03
2.964122e-01 5.140609e-03
2.983179e-01 5.667024e-03
3.002210e-01 6.199626e-03
3.021209e-01 6.736762e-03
3.040189e-01 7.277332e-03
3.059143e-01 7.819593e-03
3.078065e-01 8.361760e-03
3.096967e-01 8.902629e-03
3.115844e-01 9.440366e-03
3.134687e-01 9.973126e-03
3.153510e-01 1.049966e-02
3.172307e-01 1.101810e-02
3.191070e-01 1.152664e-02
3.209813e-01 1.202401e-02
3.228529e-01 1.250844e-02
3.247210e-01 1.297818e-02
3.265871e-01 1.343205e-02
3.284505e-01 1.386840e-02
3.303103e-01 1.428565e-02
3.321681e-01 1.468276e-02
3.340230e-01 1.505826e-02
3.358745e-01 1.541081e-02
3.377237e-01 1.573954e-02
3.395702e-01 1.604325e-02
3.414130e-01 1.632090e-02
3.432537e-01 1.657181e-02
3.450914e-01 1.679510e-02
3.469256e-01 1.699006e-02
3.487575e-01 1.715625e-02
3.505864e-01 1.729315e-02
3.524117e-01 1.740037e-02
3.542347e-01 1.747776e-02
3.560547e-01 1.752513e-02
3.578710e-01 1.754248e-02
3.596850e-01 1.752989e-02
3.614959e-01 1.748756e-02
3.633031e-01 1.741580e-02
3.651078e-01 1.731498e-02
3.669095e-01 1.718561e-02
3.687074e-01 1.702836e-02
3.705029e-01 1.684378e-02
3.722952e-01 1.663271e-02
3.740838e-01 1.639611e-02
3.758698e-01 1.613472e-02
3.776526e-01 1.584964e-02
3.794316e-01 1.554206e-02
3.812080e-01 1.521288e-02
3.829812e-01 1.486341e-02
3.847505e-01 1.449501e-02
3.865172e-01 1.410870e-02
3.882806e-01 1.370591e-02
3.900401e-01 1.328816e-02
3.917970e-01 1.285649e-02
3.935505e-01 1.241243e-02
3.953000e-01 1.195756e-02
3.970469e-01 1.149292e-02
3.987904e-01 1.102009e-02
4.005298e-01 1.054062e-02
4.022666e-01 1.005552e-02
4.039999e-01 9.566343e-03
4.057292e-01 9.074586e-03
4.074556e-01 8.581187e-03
4.091787e-01 8.087599e-03
4.108976e-01 7.595236e-03
4.126137e-01 7.104919e-03
4.143262e-01 6.617978e-03
4.160347e-01 6.135692e-03
4.177403e-01 5.658744e-03
4.194423e-01 5.188310e-03
4.211401e-01 4.725502e-03
4.228350e-01 4.270852e-03
4.245264e-01 3.825360e-03
4.262135e-01 3.389950e-03
4.278976e-01 2.964999e-03
4.295782e-01 2.551314e-03
4.312544e-01 2.149626e-03
4.329276e-01 1.760153e-03
4.345972e-01 1.383509e-03
4.362625e-01 1.020230e-03
4.379247e-01 6.703850e-04
4.395832e-01 3.343976e-04
4.412373e-01 1.261513e-05
4.428884e-01 -2.950292e-04
4.445357e-01 -5.882899e-04
4.461786e-01 -8.669940e-04
4.478183e-01 -1.131328e-03
4.494543e-01 -1.381207e-03
4.510858e-01 -1.616615e-03
4.527142e-01 -1.837836e-03
4.543387e-01 -2.044929e-03
4.559587e-01 -2.238009e-03
4.575756e-01 -2.417439e-03
4.591885e-01 -2.583397e-03
4.607969e-01 -2.736106e-03
4.624021e-01 -2.875989e-03
4.640033e-01 -3.003314e-03
4.656000e-01 -3.118393e-03
4.671934e-01 -3.221682e-03
4.687828e-01 -3.313522e-03
4.703677e-01 -3.394285e-03
4.719492e-01 -3.464446e-03
4.735266e-01 -3.524393e-03
4.750995e-01 -3.574539e-03
4.766690e-01 -3.615356e-03
4.782344e-01 -3.647263e-03
4.797951e-01 -3.670692e-03
4.813525e-01 -3.686100e-03
4.829057e-01 -3.693916e-03
4.844542e-01 -3.694576e-03
,
