2.999993360995850722e+01 1.000000000000000000e+00
3.500017427385892432e+01 9.809938382425213987e-01
4.499992116182572488e+01 9.272435918060815130e-01
5.500008713692946571e+01 8.885130441867749029e-01
6.499997510373444243e+01 8.050858692682858475e-01
6.999980082987552521e+01 7.275466143112362394e-01
7.500002904564314576e+01 6.386438451909817182e-01
7.999999170124480941e+01 5.397506792719194424e-01
8.500002904564314576e+01 4.025480332699688524e-01
8.999977178423236523e+01 2.759456632183407976e-01
9.499992116182572488e+01 1.803995251409527822e-01
9.999945643153527897e+01 1.132497409974922709e-01
1.049999585062240612e+02 7.244370391905090301e-02
1.100000000000000000e+02 5.007724091499322905e-02
