2.327267e-01 2.687168e-04
2.339138e-01 8.200532e-04
2.351001e-01 -5.447459e-04
2.362857e-01 -1.543949e-03
2.374706e-01 -2.308952e-04
2.386547e-01 -1.126246e-03
2.398381e-01 1.925302e-03
2.410208e-01 3.422713e-04
2.422028e-01 -2.849516e-04
2.433840e-01 1.195659e-04
2.445645e-01 -1.310995e-03
2.457443e-01 1.102035e-03
2.469232e-01 3.364829e-05
2.481015e-01 4.961683e-04
2.492790e-01 5.067216e-04
2.504557e-01 -1.189890e-03
2.516317e-01 -7.902582e-04
2.528068e-01 5.612668e-05
2.539813e-01 1.575633e-03
2.551549e-01 -9.237562e-05
2.563278e-01 9.184364e-04
2.574999e-01 -8.533026e-04
2.586712e-01 2.128479e-03
2.598417e-01 -8.432350e-04
2.610115e-01 -1.842714e-03
2.621804e-01 -2.676929e-03
2.633485e-01 -6.691956e-04
2.645159e-01 8.504686e-06
2.656824e-01 -2.381528e-03
2.668481e-01 1.572060e-03
2.680130e-01 -2.565436e-03
2.691771e-01 7.275152e-04
2.703404e-01 -3.507703e-04
2.715028e-01 -2.879018e-03
2.726644e-01 -2.549281e-04
2.738252e-01 1.775794e-03
2.749852e-01 -1.356569e-03
2.761443e-01 -1.152540e-03
2.773026e-01 -2.104975e-03
2.784600e-01 -1.987930e-03
2.796166e-01 -5.826127e-04
2.807723e-01 7.458989e-04
2.819272e-01 -1.824554e-03
2.830812e-01 -1.279073e-03
2.842343e-01 9.893979e-04
2.853866e-01 -9.202149e-04
2.865380e-01 -6.996853e-04
2.876886e-01 1.508585e-03
2.888383e-01 6.428921e-04
2.899871e-01 -4.455765e-04
2.911350e-01 6.613625e-04
2.922820e-01 -1.142187e-03
2.934281e-01 -2.016441e-04
2.945733e-01 -5.552032e-04
2.957177e-01 6.756578e-04
2.968611e-01 1.640454e-04
2.980036e-01 -8.873413e-04
2.991453e-01 9.152033e-05
3.002860e-01 -1.421477e-03
3.014258e-01 8.830002e-04
3.025647e-01 9.566871e-04
3.037026e-01 -2.352931e-04
3.048397e-01 -1.139626e-03
3.059758e-01 4.196452e-04
3.071109e-01 1.384331e-03
3.082452e-01 3.435104e-03
3.093785e-01 5.156390e-04
3.105108e-01 -5.480432e-04
3.116422e-01 -9.756985e-05
3.127727e-01 -8.883790e-04
3.139022e-01 -9.650546e-04
3.150308e-01 1.502272e-03
3.161584e-01 1.402781e-03
3.172850e-01 -1.968447e-03
3.184106e-01 -5.169391e-04
3.195353e-01 2.402001e-03
3.206591e-01 1.524089e-04
3.217818e-01 -1.295023e-04
3.229036e-01 1.847602e-03
3.240243e-01 2.496218e-03
3.251441e-01 -1.443295e-03
3.262629e-01 2.089020e-03
3.273807e-01 1.109879e-03
3.284976e-01 2.872807e-03
3.296134e-01 8.123812e-04
3.307282e-01 2.029368e-03
3.318420e-01 4.182271e-03
3.329548e-01 1.881224e-03
3.340665e-01 2.003528e-03
3.351773e-01 4.321769e-03
3.362870e-01 3.851108e-03
3.373957e-01 4.097020e-03
3.385034e-01 3.474030e-03
3.396101e-01 2.412025e-03
3.407157e-01 4.653625e-03
3.418203e-01 5.080096e-03
3.429238e-01 4.453111e-03
3.440263e-01 4.402371e-03
3.451277e-01 5.379667e-03
3.462281e-01 5.993850e-03
3.473275e-01 6.126883e-03
3.484258e-01 8.520560e-03
3.495230e-01 8.702014e-03
3.506191e-01 1.079462e-02
3.517142e-01 1.450546e-02
3.528082e-01 1.779118e-02
3.539012e-01 2.238249e-02
3.549930e-01 2.439341e-02
3.560838e-01 3.159706e-02
3.571735e-01 3.683942e-02
3.582621e-01 4.594166e-02
3.593496e-01 6.673187e-02
3.604361e-01 8.520424e-02
3.615214e-01 1.233264e-01
3.626056e-01 1.691675e-01
3.636887e-01 2.373602e-01
3.647707e-01 3.202016e-01
3.658516e-01 4.250715e-01
3.669314e-01 5.535059e-01
3.680101e-01 6.745633e-01
3.690876e-01 7.870405e-01
3.701641e-01 8.801680e-01
3.712394e-01 9.402223e-01
3.723135e-01 9.627814e-01
3.733866e-01 9.341494e-01
3.744584e-01 8.683128e-01
3.755292e-01 7.767124e-01
3.765988e-01 6.851120e-01
3.776673e-01 5.670300e-01
3.787346e-01 4.488961e-01
3.798007e-01 3.553711e-01
3.808657e-01 2.728675e-01
3.819296e-01 2.131549e-01
3.829922e-01 1.631312e-01
3.840538e-01 1.307850e-01
3.851141e-01 1.038358e-01
3.861733e-01 8.159871e-02
3.872313e-01 6.413771e-02
3.882881e-01 5.241903e-02
3.893437e-01 4.308969e-02
3.903981e-01 3.695481e-02
3.914514e-01 3.286291e-02
3.925034e-01 2.484752e-02
3.935543e-01 2.388718e-02
3.946040e-01 2.204999e-02
3.956524e-01 1.642443e-02
3.966997e-01 1.624306e-02
3.977457e-01 1.328256e-02
3.987906e-01 1.517300e-02
3.998342e-01 1.274159e-02
4.008766e-01 8.432378e-03
4.019178e-01 1.070317e-02
4.029578e-01 8.513959e-03
4.039965e-01 7.799379e-03
4.050340e-01 9.674246e-03
4.060703e-01 7.732588e-03
4.071053e-01 9.340316e-03
4.081391e-01 5.614699e-03
4.091716e-01 6.685568e-03
4.102029e-01 5.581191e-03
4.112330e-01 6.172538e-03
4.122618e-01 5.018346e-03
4.132893e-01 4.498948e-03
4.143156e-01 3.719175e-03
4.153406e-01 4.172942e-03
4.163644e-01 4.864326e-03
4.173869e-01 6.891775e-06
4.184081e-01 3.101268e-03
4.194280e-01 1.392700e-03
4.204467e-01 3.683278e-03
4.214641e-01 2.633177e-03
4.224802e-01 3.053155e-03
4.234950e-01 4.105281e-03
4.245085e-01 1.689161e-04
4.255208e-01 1.555545e-03
4.265317e-01 1.701888e-03
4.275413e-01 4.446248e-04
4.285497e-01 2.418452e-03
4.295567e-01 2.681816e-03
4.305624e-01 2.838891e-03
4.315668e-01 3.447519e-03
4.325699e-01 2.214459e-03
4.335717e-01 1.228936e-03
4.345721e-01 2.272074e-03
4.355713e-01 2.739257e-03
4.365691e-01 2.680438e-03
4.375655e-01 6.445859e-04
4.385607e-01 2.405202e-03
4.395545e-01 5.478244e-04
4.405470e-01 5.956610e-04
4.415381e-01 3.289930e-03
4.425279e-01 4.876712e-04
4.435163e-01 2.372157e-03
4.445034e-01 9.385486e-04
4.454891e-01 1.768794e-03
4.464735e-01 2.287691e-03
4.474565e-01 1.250919e-03
4.484381e-01 2.158589e-03
4.494184e-01 1.615017e-03
4.503973e-01 9.927787e-04
4.513748e-01 1.522001e-03
4.523510e-01 9.508110e-04
4.533258e-01 1.712188e-03
4.542992e-01 2.247094e-03
4.552712e-01 -8.811395e-05
4.562419e-01 1.334684e-03
4.572111e-01 5.748430e-04
4.581789e-01 1.455364e-03
4.591454e-01 6.985601e-04
4.601105e-01 2.554514e-04
4.610741e-01 2.066246e-03
4.620364e-01 9.444198e-04
4.629972e-01 2.517126e-03
4.639566e-01 1.043772e-03
4.649147e-01 8.633015e-04
4.658713e-01 1.600276e-03
4.668265e-01 -1.447402e-03
4.677802e-01 5.704257e-04
4.687326e-01 1.596827e-04
4.696835e-01 -3.536571e-04
4.706329e-01 -2.916129e-04
4.715810e-01 -1.113103e-03
4.725276e-01 9.700962e-04
4.734728e-01 2.475200e-03
4.744165e-01 2.429044e-03
4.753588e-01 -4.732807e-05
4.762996e-01 1.106925e-03
4.772390e-01 1.009225e-03
4.781769e-01 1.381933e-03
4.791134e-01 2.199188e-06
4.800484e-01 -8.805687e-04
4.809820e-01 -6.542707e-04
4.819140e-01 -4.463413e-04
4.828447e-01 9.839729e-04
4.837738e-01 -3.428797e-05
4.847015e-01 1.367485e-03
4.856277e-01 -1.829240e-04
4.865524e-01 -1.992331e-04
4.874756e-01 1.508140e-03
4.883974e-01 5.314335e-04
4.893176e-01 -4.265960e-04
,
2.327267e-01 9.358046e-04
2.339138e-01 -1.072454e-03
2.351001e-01 -6.136718e-04
2.362857e-01 5.310467e-04
2.374706e-01 -1.236115e-03
2.386547e-01 1.805124e-04
2.398381e-01 9.434149e-04
2.410208e-01 -1.765900e-03
2.422028e-01 -8.834934e-04
2.433840e-01 4.709691e-04
2.445645e-01 -4.359669e-04
2.457443e-01 5.321102e-04
2.469232e-01 -1.445777e-03
2.481015e-01 6.866955e-04
2.492790e-01 1.168747e-03
2.504557e-01 1.151822e-03
2.516317e-01 -6.340636e-04
2.528068e-01 6.525602e-05
2.539813e-01 9.181813e-04
2.551549e-01 5.640943e-05
2.563278e-01 -7.722799e-04
2.574999e-01 1.278123e-03
2.586712e-01 -2.425269e-03
2.598417e-01 -8.191652e-04
2.610115e-01 -4.719897e-04
2.621804e-01 8.122484e-04
2.633485e-01 1.385635e-03
2.645159e-01 4.082278e-04
2.656824e-01 8.970769e-04
2.668481e-01 -1.091439e-03
2.680130e-01 5.488299e-04
2.691771e-01 -1.251343e-03
2.703404e-01 1.150608e-03
2.715028e-01 -1.902779e-03
2.726644e-01 -3.781977e-04
2.738252e-01 5.556409e-04
2.749852e-01 3.297431e-04
2.761443e-01 1.614478e-03
2.773026e-01 -4.202570e-04
2.784600e-01 5.540325e-04
2.796166e-01 -1.843977e-05
2.807723e-01 3.080368e-03
2.819272e-01 1.223240e-03
2.830812e-01 5.295389e-04
2.842343e-01 4.892471e-04
2.853866e-01 -1.628286e-03
2.865380e-01 -9.116335e-05
2.876886e-01 3.386017e-04
2.888383e-01 -7.878849e-04
2.899871e-01 -8.042700e-04
2.911350e-01 3.020691e-05
2.922820e-01 1.953407e-03
2.934281e-01 -2.410500e-04
2.945733e-01 6.579152e-04
2.957177e-01 3.260797e-04
2.968611e-01 -3.712360e-04
2.980036e-01 1.451372e-03
2.991453e-01 5.774381e-04
3.002860e-01 -1.530821e-03
3.014258e-01 -1.237627e-03
3.025647e-01 1.005268e-03
3.037026e-01 -1.684728e-03
3.048397e-01 -1.615639e-03
3.059758e-01 9.201773e-04
3.071109e-01 2.782183e-04
3.082452e-01 2.544731e-04
3.093785e-01 -6.960362e-04
3.105108e-01 1.415214e-03
3.116422e-01 8.334373e-04
3.127727e-01 5.890893e-04
3.139022e-01 9.254760e-05
3.150308e-01 4.491542e-04
3.161584e-01 5.482170e-04
3.172850e-01 1.967708e-03
3.184106e-01 4.674307e-05
3.195353e-01 2.773045e-03
3.206591e-01 1.517744e-03
3.217818e-01 1.730270e-03
3.229036e-01 2.535479e-03
3.240243e-01 1.205812e-03
3.251441e-01 9.414811e-04
3.262629e-01 1.955696e-03
3.273807e-01 2.948187e-03
3.284976e-01 3.261259e-03
3.296134e-01 1.943511e-03
3.307282e-01 3.656419e-03
3.318420e-01 2.836034e-03
3.329548e-01 2.359530e-03
3.340665e-01 4.382833e-03
3.351773e-01 4.071304e-03
3.362870e-01 3.128683e-03
3.373957e-01 2.933901e-03
3.385034e-01 3.523018e-03
3.396101e-01 3.744682e-03
3.407157e-01 4.673386e-03
3.418203e-01 4.719955e-03
3.429238e-01 4.186007e-03
3.440263e-01 6.190079e-03
3.451277e-01 7.230690e-03
3.462281e-01 7.121500e-03
3.473275e-01 7.832378e-03
3.484258e-01 9.245033e-03
3.495230e-01 9.466171e-03
3.506191e-01 1.138043e-02
3.517142e-01 1.503790e-02
3.528082e-01 1.692603e-02
3.539012e-01 1.931722e-02
3.549930e-01 2.357228e-02
3.560838e-01 2.754332e-02
3.571735e-01 3.392194e-02
3.582621e-01 4.342823e-02
3.593496e-01 5.716081e-02
3.604361e-01 7.487425e-02
3.615214e-01 1.064986e-01
3.626056e-01 1.431035e-01
3.636887e-01 2.024972e-01
3.647707e-01 2.747530e-01
3.658516e-01 3.731906e-01
3.669314e-01 4.913756e-01
3.680101e-01 6.179713e-01
3.690876e-01 7.452296e-01
3.701641e-01 8.495334e-01
3.712394e-01 9.312959e-01
3.723135e-01 9.795366e-01
3.733866e-01 9.803385e-01
3.744584e-01 9.370783e-01
3.755292e-01 8.629301e-01
3.765988e-01 7.636287e-01
3.776673e-01 6.643273e-01
3.787346e-01 5.382258e-01
3.798007e-01 4.323084e-01
3.808657e-01 3.323341e-01
3.819296e-01 2.580851e-01
3.829922e-01 1.971739e-01
3.840538e-01 1.543597e-01
3.851141e-01 1.202221e-01
3.861733e-01 9.308587e-02
3.872313e-01 7.315212e-02
3.882881e-01 6.067548e-02
3.893437e-01 4.664419e-02
3.903981e-01 4.073774e-02
3.914514e-01 3.435250e-02
3.925034e-01 2.925588e-02
3.935543e-01 2.417407e-02
3.946040e-01 2.180591e-02
3.956524e-01 1.869193e-02
3.966997e-01 1.778497e-02
3.977457e-01 1.617662e-02
3.987906e-01 1.338828e-02
3.998342e-01 1.211027e-02
4.008766e-01 1.039350e-02
4.019178e-01 1.081597e-02
4.029578e-01 1.066164e-02
4.039965e-01 8.170962e-03
4.050340e-01 8.348190e-03
4.060703e-01 7.435286e-03
4.071053e-01 5.986871e-03
4.081391e-01 5.184263e-03
4.091716e-01 5.815483e-03
4.102029e-01 7.115166e-03
4.112330e-01 7.252324e-03
4.122618e-01 3.010292e-03
4.132893e-01 6.351536e-03
4.143156e-01 3.312011e-03
4.153406e-01 3.453696e-03
4.163644e-01 3.656261e-03
4.173869e-01 3.935493e-03
4.184081e-01 2.152915e-03
4.194280e-01 2.958602e-03
4.204467e-01 4.125449e-03
4.214641e-01 3.987755e-03
4.224802e-01 1.883239e-03
4.234950e-01 1.768876e-03
4.245085e-01 1.231324e-03
4.255208e-01 2.375776e-03
4.265317e-01 2.593576e-03
4.275413e-01 1.602863e-03
4.285497e-01 1.447073e-03
4.295567e-01 1.627829e-03
4.305624e-01 7.232037e-04
4.315668e-01 2.725121e-04
4.325699e-01 5.082474e-04
4.335717e-01 2.502165e-03
4.345721e-01 1.914217e-03
4.355713e-01 3.618477e-04
4.365691e-01 2.716287e-03
4.375655e-01 9.779946e-04
4.385607e-01 1.485721e-03
4.395545e-01 7.869478e-04
4.405470e-01 6.815148e-04
4.415381e-01 4.296635e-05
4.425279e-01 -2.037742e-04
4.435163e-01 2.175605e-03
4.445034e-01 2.049927e-03
4.454891e-01 6.036045e-04
4.464735e-01 4.190692e-04
4.474565e-01 2.517906e-03
4.484381e-01 2.016803e-03
4.494184e-01 1.485616e-03
4.503973e-01 1.180571e-03
4.513748e-01 1.088286e-04
4.523510e-01 1.546350e-03
4.533258e-01 -5.123486e-04
4.542992e-01 4.630231e-05
4.552712e-01 -1.312725e-04
4.562419e-01 2.305890e-03
4.572111e-01 -3.858608e-04
4.581789e-01 2.440288e-03
4.591454e-01 1.796395e-03
4.601105e-01 1.409342e-04
4.610741e-01 7.876887e-04
4.620364e-01 1.446001e-03
4.629972e-01 1.386768e-03
4.639566e-01 1.470603e-03
4.649147e-01 5.926522e-04
4.658713e-01 2.556485e-03
4.668265e-01 5.915285e-05
4.677802e-01 7.465006e-04
4.687326e-01 -1.508404e-03
4.696835e-01 -7.819276e-04
4.706329e-01 -6.693369e-05
4.715810e-01 -2.698777e-04
4.725276e-01 5.778497e-04
4.734728e-01 -7.163816e-04
4.744165e-01 1.492832e-03
4.753588e-01 1.027680e-03
4.762996e-01 -7.640761e-04
4.772390e-01 1.439407e-03
4.781769e-01 -4.659089e-04
4.791134e-01 1.212885e-03
4.800484e-01 2.573486e-04
4.809820e-01 5.061699e-04
4.819140e-01 1.431274e-04
4.828447e-01 8.468925e-04
4.837738e-01 -4.080657e-04
4.847015e-01 3.205480e-04
4.856277e-01 -2.726180e-04
4.865524e-01 -8.085378e-04
4.874756e-01 3.892843e-04
4.883974e-01 8.738302e-04
4.893176e-01 1.273430e-03
,
2.327267e-01 -1.807161e-03
2.339138e-01 -6.631420e-04
2.351001e-01 -1.084242e-03
2.362857e-01 -1.279455e-03
2.374706e-01 1.465037e-04
2.386547e-01 -1.256685e-03
2.398381e-01 -2.495411e-04
2.410208e-01 1.720256e-04
2.422028e-01 2.524098e-04
2.433840e-01 2.006140e-04
2.445645e-01 -1.058391e-04
2.457443e-01 -8.291080e-04
2.469232e-01 4.592002e-04
2.481015e-01 5.666926e-04
2.492790e-01 -4.856993e-04
2.504557e-01 4.989460e-04
2.516317e-01 -1.367665e-03
2.528068e-01 -8.982020e-04
2.539813e-01 -2.279546e-04
2.551549e-01 3.717634e-04
2.563278e-01 -8.148680e-04
2.574999e-01 -1.083296e-03
2.586712e-01 -1.209367e-03
2.598417e-01 3.530927e-05
2.610115e-01 7.172304e-05
2.621804e-01 3.441464e-04
2.633485e-01 3.914773e-04
2.645159e-01 6.119575e-04
2.656824e-01 -5.935383e-04
2.668481e-01 4.225115e-04
2.680130e-01 -7.620761e-04
2.691771e-01 1.866278e-04
2.703404e-01 2.416448e-03
2.715028e-01 5.757774e-04
2.726644e-01 1.547986e-03
2.738252e-01 5.307670e-04
2.749852e-01 1.263983e-03
2.761443e-01 -5.229897e-04
2.773026e-01 1.118256e-03
2.784571e-01 -6.555676e-04
2.796166e-01 -5.102122e-05
2.807723e-01 4.296970e-04
2.819272e-01 3.174905e-04
2.830812e-01 2.206786e-04
2.842343e-01 1.530456e-03
2.853866e-01 -4.866826e-04
2.865380e-01 1.759449e-03
2.876886e-01 1.867411e-03
2.888383e-01 1.149129e-03
2.899871e-01 6.695070e-04
2.911350e-01 7.325289e-04
2.922820e-01 1.118136e-03
2.934281e-01 -9.968600e-05
2.945733e-01 1.201953e-03
2.957177e-01 6.617969e-04
2.968611e-01 -3.983897e-04
2.980036e-01 -6.541808e-05
2.991453e-01 8.855272e-05
3.002860e-01 1.985602e-03
3.014258e-01 4.076854e-04
3.025647e-01 3.154690e-04
3.037026e-01 8.324417e-04
3.048397e-01 -1.636832e-04
3.059758e-01 -9.724130e-04
3.071109e-01 1.133120e-03
3.082452e-01 -5.166150e-04
3.093785e-01 3.028731e-03
3.105108e-01 -3.704677e-04
3.116422e-01 1.432127e-04
3.127727e-01 1.611793e-03
3.139022e-01 -6.900299e-04
3.150308e-01 2.210637e-03
3.161584e-01 2.209632e-03
3.172850e-01 -1.142627e-04
3.184106e-01 1.637718e-03
3.195353e-01 2.315846e-03
3.206591e-01 3.058551e-03
3.217818e-01 2.418397e-03
3.229036e-01 -7.107271e-04
3.240243e-01 1.965918e-03
3.251441e-01 6.007701e-04
3.262629e-01 1.167117e-03
3.273807e-01 1.030510e-03
3.284976e-01 1.349009e-03
3.296134e-01 2.760815e-03
3.307282e-01 3.602500e-03
3.318420e-01 3.500993e-03
3.329548e-01 3.989175e-03
3.340665e-01 2.642104e-03
3.351773e-01 4.557316e-03
3.362870e-01 3.486513e-03
3.373957e-01 3.773187e-03
3.385034e-01 4.991019e-03
3.396101e-01 4.163095e-03
3.407157e-01 6.152801e-03
3.418203e-01 5.793152e-03
3.429238e-01 5.663428e-03
3.440263e-01 6.743692e-03
3.451277e-01 7.748564e-03
3.462281e-01 8.493003e-03
3.473275e-01 8.791417e-03
3.484258e-01 1.013601e-02
3.495230e-01 1.312356e-02
3.506191e-01 1.220102e-02
3.517142e-01 1.532550e-02
3.528082e-01 1.903935e-02
3.539012e-01 2.029290e-02
3.549930e-01 2.403082e-02
3.560838e-01 2.827063e-02
3.571735e-01 3.462732e-02
3.582621e-01 4.444306e-02
3.593496e-01 5.611856e-02
3.604361e-01 7.324176e-02
3.615214e-01 1.006530e-01
3.626056e-01 1.368534e-01
3.636887e-01 1.911041e-01
3.647707e-01 2.583873e-01
3.658516e-01 3.517421e-01
3.669314e-01 4.658078e-01
3.680101e-01 5.861587e-01
3.690876e-01 7.154776e-01
3.701641e-01 8.254617e-01
3.712394e-01 9.123451e-01
3.723135e-01 9.658239e-01
3.733866e-01 9.776876e-01
3.744584e-01 9.469332e-01
3.755292e-01 8.812526e-01
3.765988e-01 7.881135e-01
3.776646e-01 6.949745e-01
3.787346e-01 5.648744e-01
3.798007e-01 4.512655e-01
3.808657e-01 3.480893e-01
3.819296e-01 2.667645e-01
3.829922e-01 2.058028e-01
3.840538e-01 1.598998e-01
3.851141e-01 1.229379e-01
3.861733e-01 9.475978e-02
3.872313e-01 7.301248e-02
3.882881e-01 6.037770e-02
3.893437e-01 5.008418e-02
3.903981e-01 4.213292e-02
3.914514e-01 3.374073e-02
3.925034e-01 2.950319e-02
3.935543e-01 2.676234e-02
3.946040e-01 2.368001e-02
3.956524e-01 1.970369e-02
3.966997e-01 1.679261e-02
3.977457e-01 1.687265e-02
3.987906e-01 1.266493e-02
3.998342e-01 1.200036e-02
4.008766e-01 -2.211377e-04
4.019178e-01 1.108587e-02
4.029578e-01 1.031916e-02
4.039965e-01 1.058302e-02
4.050340e-01 8.678954e-03
4.060703e-01 7.602065e-03
4.071053e-01 8.729700e-03
4.081391e-01 6.768940e-03
4.091716e-01 5.853263e-03
4.102029e-01 6.092502e-03
4.112330e-01 6.816044e-03
4.122618e-01 4.908381e-03
4.132893e-01 5.210782e-03
4.143156e-01 4.131330e-03
4.153406e-01 4.308695e-03
4.163644e-01 3.245201e-03
4.173869e-01 4.190172e-03
4.184081e-01 4.903446e-03
4.194280e-01 4.117825e-03
4.204467e-01 2.673586e-03
4.214641e-01 4.920853e-03
4.224802e-01 3.480587e-03
4.234950e-01 3.578088e-03
4.245085e-01 4.611893e-03
4.255208e-01 4.102463e-03
4.265317e-01 2.712731e-03
4.275413e-01 2.685795e-03
4.285497e-01 2.069380e-03
4.295567e-01 1.564063e-03
4.305624e-01 3.532429e-03
4.315668e-01 7.003957e-04
4.325699e-01 1.183445e-03
4.335717e-01 3.586887e-03
4.345721e-01 2.842701e-03
4.355713e-01 1.193000e-03
4.365691e-01 1.592302e-03
4.375655e-01 1.642133e-03
4.385607e-01 1.689082e-03
4.395545e-01 2.723866e-03
4.405470e-01 1.495774e-03
4.415381e-01 9.603662e-04
4.425279e-01 2.981667e-03
4.435163e-01 8.495891e-04
4.445034e-01 3.090927e-03
4.454891e-01 8.015361e-04
4.464735e-01 1.579575e-03
4.474565e-01 -8.056396e-05
4.484381e-01 1.199995e-03
4.494184e-01 8.622907e-04
4.503973e-01 1.072025e-03
4.513748e-01 2.525635e-03
4.523510e-01 1.266839e-03
4.533258e-01 1.246563e-03
4.542992e-01 -3.249348e-04
4.552712e-01 9.755284e-04
4.562419e-01 1.993648e-03
4.572111e-01 1.662440e-03
4.581789e-01 1.886090e-03
4.591454e-01 -2.599382e-04
4.601105e-01 -8.916308e-05
4.610741e-01 -3.054749e-04
4.620364e-01 2.526555e-03
4.629972e-01 1.611895e-04
4.639566e-01 2.783634e-03
4.649147e-01 1.223343e-03
4.658713e-01 1.788452e-03
4.668265e-01 1.223773e-03
4.677802e-01 1.875591e-04
4.687326e-01 1.460960e-03
4.696835e-01 1.423861e-04
4.706329e-01 8.984268e-04
4.715810e-01 1.497730e-03
4.725276e-01 -1.533756e-04
4.734728e-01 1.128493e-03
4.744165e-01 -1.116497e-04
4.753588e-01 5.939823e-04
4.762996e-01 8.981221e-04
4.772390e-01 9.515971e-04
4.781769e-01 2.764408e-04
4.791134e-01 7.945961e-04
4.800484e-01 -9.310175e-04
4.809820e-01 2.336921e-05
4.819140e-01 3.901629e-04
4.828447e-01 -5.433438e-04
4.837738e-01 -1.407404e-03
4.847015e-01 7.791419e-04
4.856277e-01 -4.007675e-04
4.865524e-01 9.985742e-04
4.874756e-01 7.500817e-04
4.883974e-01 1.440558e-03
4.893176e-01 1.899050e-03
,
2.327267e-01 7.611932e-04
2.339138e-01 -8.526086e-04
2.351001e-01 8.761006e-04
2.362857e-01 1.229961e-03
2.374706e-01 -7.267754e-04
2.386547e-01 -7.468232e-04
2.398381e-01 -1.050000e-03
2.410208e-01 1.357598e-04
2.422028e-01 3.331726e-04
2.433840e-01 -8.387417e-04
2.445645e-01 2.601091e-04
2.457443e-01 2.956181e-04
2.469232e-01 1.214091e-03
2.481015e-01 7.028231e-04
2.492790e-01 5.991864e-04
2.504557e-01 1.714090e-03
2.516317e-01 -3.597327e-04
2.528068e-01 4.941035e-04
2.539813e-01 1.545640e-03
2.551549e-01 7.365117e-04
2.563278e-01 -6.917804e-04
2.574999e-01 4.788789e-04
2.586712e-01 1.939727e-04
2.598417e-01 6.846697e-04
2.610115e-01 -5.551462e-05
2.621804e-01 2.138509e-05
2.633485e-01 7.335080e-04
2.645159e-01 -1.354840e-03
2.656824e-01 7.762272e-04
2.668481e-01 -1.990699e-03
2.680130e-01 7.030099e-04
2.691771e-01 -1.326362e-03
2.703404e-01 -6.844091e-04
2.715028e-01 4.834024e-04
2.726644e-01 6.497912e-04
2.738252e-01 3.745679e-04
2.749852e-01 -1.156054e-03
2.761443e-01 9.335512e-05
2.773026e-01 1.468083e-04
2.784600e-01 -8.523099e-04
2.796166e-01 1.368144e-03
2.807723e-01 1.862734e-03
2.819272e-01 -6.922274e-04
2.830812e-01 -2.380470e-04
2.842343e-01 -1.219176e-05
2.853866e-01 2.037379e-03
2.865380e-01 1.289521e-03
2.876886e-01 5.352948e-04
2.888383e-01 1.145555e-03
2.899871e-01 1.432268e-03
2.911350e-01 1.869724e-03
2.922820e-01 1.658399e-03
2.934281e-01 2.784717e-04
2.945733e-01 1.122178e-03
2.957177e-01 2.331582e-03
2.968611e-01 7.668943e-04
2.980036e-01 1.340365e-03
2.991453e-01 1.453882e-03
3.002860e-01 -2.725022e-04
3.014258e-01 6.341839e-04
3.025647e-01 8.081194e-04
3.037026e-01 1.711745e-03
3.048397e-01 5.408371e-04
3.059758e-01 1.202527e-03
3.071109e-01 5.426487e-04
3.082452e-01 1.992268e-03
3.093785e-01 7.102615e-04
3.105108e-01 1.209119e-03
3.116422e-01 1.552330e-03
3.127727e-01 -8.522928e-05
3.139022e-01 1.348619e-03
3.150308e-01 1.083418e-03
3.161584e-01 1.144359e-03
3.172850e-01 1.044247e-03
3.184106e-01 8.885693e-04
3.195353e-01 -4.918839e-04
3.206591e-01 2.303698e-03
3.217818e-01 8.450774e-04
3.229036e-01 2.567533e-03
3.240243e-01 1.525555e-03
3.251441e-01 -1.334980e-04
3.262629e-01 2.960335e-03
3.273807e-01 1.780680e-03
3.284976e-01 7.570750e-04
3.296134e-01 2.463234e-03
3.307282e-01 1.507149e-03
3.318420e-01 1.677331e-03
3.329548e-01 3.667035e-03
3.340665e-01 4.178864e-03
3.351773e-01 3.160290e-03
3.362870e-01 2.160942e-03
3.373957e-01 3.485957e-03
3.385034e-01 2.365787e-03
3.396101e-01 4.871588e-03
3.407157e-01 3.873258e-03
3.418203e-01 4.759624e-03
3.429238e-01 5.466411e-03
3.440263e-01 6.180768e-03
3.451277e-01 6.681165e-03
3.462281e-01 8.625047e-03
3.473275e-01 8.810242e-03
3.484258e-01 1.080660e-02
3.495230e-01 1.038729e-02
3.506191e-01 1.235552e-02
3.517142e-01 1.568890e-02
3.528082e-01 1.687558e-02
3.539012e-01 1.989102e-02
3.549930e-01 2.180347e-02
3.560838e-01 2.613068e-02
3.571735e-01 3.452335e-02
3.582621e-01 4.243043e-02
3.593496e-01 5.545092e-02
3.604361e-01 6.953538e-02
3.615214e-01 9.503768e-02
3.626056e-01 1.293568e-01
3.636887e-01 1.778634e-01
3.647707e-01 2.426974e-01
3.658516e-01 3.314299e-01
3.669314e-01 4.382908e-01
3.680101e-01 5.552801e-01
3.690876e-01 6.797557e-01
3.701641e-01 7.925688e-01
3.712394e-01 8.824267e-01
3.723135e-01 9.425541e-01
3.733866e-01 9.613888e-01
3.744584e-01 9.386809e-01
3.755292e-01 8.792537e-01
3.765988e-01 7.912847e-01
3.776673e-01 7.033158e-01
3.787346e-01 5.709654e-01
3.798007e-01 4.559733e-01
3.808657e-01 3.504197e-01
3.819296e-01 2.680380e-01
3.829922e-01 2.023692e-01
3.840538e-01 1.533754e-01
3.851141e-01 1.174562e-01
3.861733e-01 8.844522e-02
3.872313e-01 6.924738e-02
3.882881e-01 5.331452e-02
3.893437e-01 4.286589e-02
3.903981e-01 3.477803e-02
3.914514e-01 2.997664e-02
3.925034e-01 2.434759e-02
3.935543e-01 2.182940e-02
3.946040e-01 1.817417e-02
3.956524e-01 1.398795e-02
3.966997e-01 1.457787e-02
3.977457e-01 1.134491e-02
3.987906e-01 1.168390e-02
3.998342e-01 9.185576e-03
4.008766e-01 8.828897e-03
4.019178e-01 9.110294e-03
4.029578e-01 7.621499e-03
4.039965e-01 7.052329e-03
4.050340e-01 6.750370e-03
4.060703e-01 6.839054e-03
4.071053e-01 3.547457e-03
4.081391e-01 5.161638e-03
4.091716e-01 5.388648e-03
4.102029e-01 4.148456e-03
4.112330e-01 4.398262e-03
4.122618e-01 2.078974e-03
4.132893e-01 3.963302e-03
4.143156e-01 2.127795e-03
4.153406e-01 3.866813e-03
4.163644e-01 3.404886e-03
4.173869e-01 3.081273e-03
4.184081e-01 3.173669e-03
4.194280e-01 1.833460e-03
4.204467e-01 1.979500e-03
4.214641e-01 1.407621e-03
4.224802e-01 1.982035e-03
4.234950e-01 9.210068e-04
4.245085e-01 1.367891e-03
4.255208e-01 2.297351e-03
4.265317e-01 2.817513e-03
4.275413e-01 1.517551e-03
4.285497e-01 1.046777e-03
4.295567e-01 2.658870e-03
4.305624e-01 2.172069e-03
4.315668e-01 2.290010e-03
4.325699e-01 2.127749e-03
4.335717e-01 1.340237e-03
4.345721e-01 1.379534e-03
4.355713e-01 2.148809e-03
4.365691e-01 1.861314e-03
4.375655e-01 1.795131e-03
4.385607e-01 2.087716e-03
4.395545e-01 -1.391416e-04
4.405470e-01 2.415450e-03
4.415381e-01 3.719603e-04
4.425279e-01 9.543901e-04
4.435163e-01 1.336383e-03
4.445034e-01 7.284479e-04
4.454891e-01 1.426615e-03
4.464735e-01 -4.097291e-04
4.474565e-01 4.200241e-04
4.484381e-01 9.534172e-04
4.494184e-01 1.553107e-03
4.503973e-01 4.409586e-04
4.513748e-01 -1.428717e-03
4.523510e-01 1.702311e-04
4.533258e-01 5.475440e-04
4.542992e-01 -6.723634e-04
4.552712e-01 -4.570585e-04
4.562419e-01 1.709626e-03
4.572111e-01 9.043315e-04
4.581789e-01 3.331793e-04
4.591454e-01 -1.234057e-03
4.601105e-01 -1.946882e-04
4.610741e-01 1.207761e-03
4.620364e-01 9.330610e-04
4.629972e-01 3.011657e-04
4.639566e-01 -2.743092e-04
4.649147e-01 -3.996010e-04
4.658713e-01 1.061990e-04
4.668265e-01 -2.861505e-04
4.677802e-01 -1.140405e-03
4.687326e-01 6.470921e-04
4.696835e-01 -7.713720e-04
4.706329e-01 2.549764e-04
4.715810e-01 -7.084700e-04
4.725276e-01 1.208937e-03
4.734728e-01 -1.112836e-03
4.744165e-01 4.451417e-04
4.753588e-01 2.145630e-04
4.762996e-01 -2.483924e-04
4.772390e-01 -7.608946e-05
4.781769e-01 -1.356472e-03
4.791134e-01 -1.286445e-03
4.800484e-01 -7.461964e-04
4.809820e-01 -4.456483e-04
4.819140e-01 4.100730e-04
4.828447e-01 -4.949410e-04
4.837738e-01 -4.918242e-04
4.847015e-01 2.870486e-04
4.856277e-01 -7.091284e-04
4.865524e-01 -3.029005e-04
4.874756e-01 8.969526e-04
4.883974e-01 -1.520135e-03
4.893176e-01 3.473399e-04
,
2.327267e-01 -1.400528e-03
2.339138e-01 1.841661e-04
2.351001e-01 8.173449e-04
2.362857e-01 9.038436e-04
2.374706e-01 2.608986e-04
2.386547e-01 1.118305e-03
2.398381e-01 -1.722885e-04
2.410208e-01 1.407488e-03
2.422028e-01 8.141060e-04
2.433840e-01 -7.899343e-04
2.445645e-01 1.077307e-03
2.457443e-01 9.215658e-04
2.469232e-01 1.108114e-03
2.481015e-01 1.521165e-03
2.492790e-01 1.189039e-03
2.504557e-01 9.631564e-04
2.516317e-01 7.301248e-04
2.528068e-01 -1.060386e-03
2.539813e-01 7.334627e-04
2.551549e-01 8.433059e-04
2.563278e-01 1.336080e-03
2.574999e-01 4.155971e-04
2.586712e-01 1.319227e-03
2.598417e-01 4.936415e-04
2.610115e-01 2.757306e-04
2.621804e-01 1.986583e-03
2.633485e-01 9.678432e-04
2.645159e-01 9.218301e-04
2.656824e-01 -7.068359e-04
2.668481e-01 7.337725e-04
2.680130e-01 -3.171546e-04
2.691771e-01 -1.385753e-04
2.703404e-01 7.617253e-05
2.715028e-01 7.885245e-04
2.726644e-01 5.706540e-04
2.738252e-01 -4.479333e-04
2.749852e-01 -6.221377e-04
2.761443e-01 1.727874e-03
2.773026e-01 -8.943588e-04
2.784600e-01 -3.718528e-04
2.796166e-01 1.375190e-03
2.807723e-01 -3.778487e-04
2.819272e-01 5.519535e-05
2.830812e-01 1.145208e-03
2.842343e-01 -6.169529e-04
2.853866e-01 1.607924e-03
2.865380e-01 -6.966210e-05
2.876886e-01 -1.499088e-03
2.888383e-01 5.779154e-05
2.899871e-01 -5.220617e-04
2.911350e-01 -5.940283e-04
2.922820e-01 5.550951e-04
2.934281e-01 8.286278e-05
2.945733e-01 -7.890989e-04
2.957177e-01 1.311447e-03
2.968611e-01 -5.510535e-04
2.980036e-01 -2.979275e-04
2.991453e-01 -5.650687e-05
3.002860e-01 -5.540083e-04
3.014258e-01 -1.513949e-03
3.025647e-01 1.436642e-04
3.037026e-01 -1.145535e-03
3.048397e-01 1.290770e-04
3.059758e-01 2.553301e-04
3.071109e-01 1.059418e-03
3.082452e-01 1.558582e-03
3.093785e-01 -3.120035e-04
3.105108e-01 -7.903703e-05
3.116422e-01 1.575276e-03
3.127727e-01 6.583633e-04
3.139022e-01 5.104130e-04
3.150308e-01 -1.414910e-03
3.161584e-01 2.235294e-04
3.172850e-01 2.215338e-03
3.184106e-01 2.124908e-03
3.195353e-01 2.279133e-03
3.206591e-01 1.155475e-03
3.217818e-01 1.495751e-03
3.229036e-01 8.990438e-04
3.240243e-01 1.442504e-03
3.251441e-01 2.808670e-03
3.262629e-01 1.843188e-03
3.273807e-01 5.360829e-04
3.284976e-01 2.621527e-03
3.296134e-01 1.677084e-03
3.307282e-01 2.255414e-03
3.318420e-01 2.660739e-03
3.329548e-01 1.639865e-03
3.340665e-01 2.759818e-03
3.351773e-01 4.104272e-03
3.362870e-01 4.566257e-03
3.373957e-01 3.541495e-03
3.385034e-01 5.424080e-03
3.396101e-01 5.120750e-03
3.407157e-01 4.738693e-03
3.418203e-01 4.315756e-03
3.429238e-01 5.326797e-03
3.440263e-01 4.738355e-03
3.451277e-01 6.702878e-03
3.462281e-01 7.218621e-03
3.473275e-01 8.288559e-03
3.484258e-01 8.575891e-03
3.495230e-01 1.130602e-02
3.506191e-01 1.176588e-02
3.517142e-01 1.389487e-02
3.528082e-01 1.675760e-02
3.539012e-01 2.037004e-02
3.549930e-01 2.264235e-02
3.560838e-01 2.754599e-02
3.571735e-01 3.501346e-02
3.582621e-01 4.279335e-02
3.593496e-01 5.388876e-02
3.604361e-01 6.955535e-02
3.615214e-01 9.657967e-02
3.626056e-01 1.303791e-01
3.636887e-01 1.788478e-01
3.647707e-01 2.407707e-01
3.658516e-01 3.254586e-01
3.669314e-01 4.355616e-01
3.680101e-01 5.454962e-01
3.690876e-01 6.634438e-01
3.701641e-01 7.669371e-01
3.712394e-01 8.496856e-01
3.723135e-01 9.032101e-01
3.733866e-01 9.172360e-01
3.744584e-01 8.888465e-01
3.755292e-01 8.270400e-01
3.765988e-01 7.364460e-01
3.776673e-01 6.458520e-01
3.787346e-01 5.133235e-01
3.798007e-01 4.041765e-01
3.808657e-01 3.017107e-01
3.819296e-01 2.255349e-01
3.829922e-01 1.669400e-01
3.840538e-01 1.251493e-01
3.851141e-01 9.339113e-02
3.861733e-01 7.087370e-02
3.872313e-01 5.469002e-02
3.882881e-01 4.416465e-02
3.893437e-01 3.538747e-02
3.903981e-01 3.045392e-02
3.914514e-01 2.598137e-02
3.925034e-01 2.009529e-02
3.935543e-01 1.774460e-02
3.946040e-01 1.474648e-02
3.956524e-01 1.386665e-02
3.966997e-01 1.071584e-02
3.977457e-01 1.091269e-02
3.987906e-01 1.095833e-02
3.998342e-01 8.471065e-03
4.008766e-01 8.687364e-03
4.019178e-01 7.219219e-03
4.029578e-01 6.274126e-03
4.039965e-01 5.359707e-03
4.050340e-01 5.399001e-03
4.060703e-01 6.528695e-03
4.071053e-01 4.457092e-03
4.081391e-01 3.748830e-03
4.091716e-01 4.190065e-03
4.102029e-01 3.862930e-03
4.112330e-01 3.486312e-03
4.122618e-01 4.495808e-03
4.132893e-01 2.402976e-03
4.143156e-01 3.702041e-03
4.153406e-01 2.260852e-03
4.163644e-01 2.214769e-03
4.173869e-01 2.764283e-03
4.184081e-01 1.541256e-03
4.194280e-01 3.478311e-03
4.204467e-01 7.759827e-04
4.214641e-01 2.120859e-03
4.224802e-01 1.758613e-03
4.234950e-01 8.919566e-04
4.245085e-01 2.075039e-03
4.255208e-01 1.180150e-03
4.265317e-01 3.688415e-03
4.275413e-01 4.919255e-04
4.285497e-01 1.422259e-03
4.295567e-01 1.429123e-03
4.305624e-01 1.022962e-03
4.315668e-01 2.354471e-03
4.325699e-01 3.648825e-05
4.335717e-01 1.138966e-03
4.345721e-01 -1.611437e-03
4.355713e-01 4.444208e-04
4.365691e-01 1.839772e-03
4.375655e-01 1.887539e-03
4.385607e-01 1.697950e-03
4.395545e-01 8.474826e-04
4.405470e-01 8.077884e-04
4.415381e-01 -4.060356e-04
4.425279e-01 -3.517485e-04
4.435163e-01 8.976160e-04
4.445034e-01 -5.163560e-04
4.454891e-01 5.266202e-04
4.464735e-01 -2.411350e-04
4.474565e-01 8.849939e-04
4.484381e-01 -1.019124e-03
4.494184e-01 -1.923946e-04
4.503973e-01 -9.661660e-04
4.513748e-01 5.165239e-04
4.523510e-01 -2.799608e-04
4.533258e-01 -7.782852e-04
4.542992e-01 1.895576e-03
4.552712e-01 -1.858803e-04
4.562419e-01 9.410738e-04
4.572111e-01 7.257630e-04
4.581789e-01 -1.183669e-03
4.591454e-01 8.230697e-04
4.601105e-01 -1.920403e-03
4.610741e-01 1.126244e-03
4.620364e-01 -7.710586e-04
4.629972e-01 -8.129220e-04
4.639566e-01 -9.425521e-04
4.649147e-01 1.107026e-03
4.658713e-01 1.155560e-03
4.668265e-01 -1.908530e-03
4.677802e-01 1.268206e-04
4.687326e-01 -1.564939e-04
4.696835e-01 6.982227e-05
4.706329e-01 5.835721e-04
4.715810e-01 -1.016614e-03
4.725276e-01 -1.946728e-04
4.734728e-01 -9.455372e-04
4.744165e-01 1.954992e-04
4.753588e-01 -2.290458e-03
4.762996e-01 2.504141e-04
4.772390e-01 -8.874700e-05
4.781769e-01 5.359057e-04
4.791134e-01 -1.977346e-03
4.800484e-01 -1.071203e-04
4.809820e-01 3.599114e-04
4.819140e-01 -8.083229e-04
4.828447e-01 -7.420213e-05
4.837738e-01 -5.949693e-04
4.847015e-01 -5.331837e-04
4.856277e-01 1.218181e-03
4.865524e-01 -7.381713e-04
4.874756e-01 -2.776177e-05
4.883974e-01 -2.218382e-03
4.893176e-01 1.000408e-03
,
2.327267e-01 1.792309e-04
2.339138e-01 -1.349440e-03
2.351001e-01 3.863746e-04
2.362857e-01 -8.752361e-04
2.374706e-01 8.820308e-04
2.386547e-01 2.251438e-03
2.398381e-01 2.014784e-03
2.410208e-01 5.814192e-04
2.422028e-01 2.436140e-03
2.433840e-01 8.640735e-04
2.445645e-01 -2.685637e-04
2.457443e-01 1.150799e-03
2.469232e-01 1.498877e-03
2.481015e-01 1.902647e-03
2.492790e-01 1.380719e-03
2.504557e-01 5.069406e-04
2.516317e-01 1.421668e-03
2.528068e-01 -1.886922e-04
2.539813e-01 -7.329909e-05
2.551549e-01 -2.990896e-04
2.563263e-01 1.669619e-03
2.574999e-01 -1.009528e-03
2.586712e-01 1.148895e-03
2.598417e-01 9.310256e-04
2.610115e-01 1.990448e-03
2.621804e-01 3.306487e-04
2.633485e-01 -1.132016e-03
2.645159e-01 -2.068055e-04
2.656824e-01 1.242574e-03
2.668481e-01 -1.388675e-03
2.680130e-01 5.071636e-04
2.691771e-01 -7.433861e-04
2.703404e-01 -2.694775e-04
2.715028e-01 2.747542e-04
2.726644e-01 -9.069247e-04
2.738252e-01 4.202870e-04
2.749852e-01 6.967802e-04
2.761443e-01 -1.839696e-05
2.773026e-01 -2.353069e-04
2.784600e-01 1.016783e-04
2.796166e-01 1.091605e-03
2.807723e-01 2.410079e-04
2.819272e-01 1.091409e-03
2.830812e-01 -1.099915e-04
2.842343e-01 -7.689165e-04
2.853866e-01 1.186375e-03
2.865380e-01 1.757395e-03
2.876886e-01 -3.717330e-04
2.888383e-01 -2.639669e-04
2.899871e-01 3.399285e-04
2.911350e-01 -3.771252e-04
2.922820e-01 2.114406e-05
2.934281e-01 1.777951e-04
2.945733e-01 8.175070e-05
2.957177e-01 -1.873586e-05
2.968611e-01 -2.103216e-03
2.980036e-01 2.351014e-04
2.991453e-01 1.183319e-03
3.002860e-01 6.440535e-04
3.014258e-01 -3.225807e-04
3.025647e-01 1.159162e-03
3.037026e-01 1.362339e-03
3.048397e-01 -8.576582e-04
3.059758e-01 9.749830e-04
3.071109e-01 1.655440e-03
3.082452e-01 -4.653348e-04
3.093785e-01 1.272345e-03
3.105108e-01 3.233781e-04
3.116422e-01 4.063524e-03
3.127727e-01 2.003474e-04
3.139022e-01 1.344607e-03
3.150308e-01 2.685518e-03
3.161584e-01 8.461911e-04
3.172850e-01 2.400101e-03
3.184106e-01 2.963957e-03
3.195353e-01 1.761681e-03
3.206591e-01 1.453891e-03
3.217818e-01 2.039858e-03
3.229036e-01 1.784416e-03
3.240243e-01 1.302515e-03
3.251441e-01 3.605456e-03
3.262629e-01 1.910160e-03
3.273807e-01 3.467223e-03
3.284976e-01 3.919380e-03
3.296134e-01 3.116707e-03
3.307282e-01 3.323454e-03
3.318420e-01 2.970409e-03
3.329548e-01 3.138768e-03
3.340665e-01 3.730657e-03
3.351773e-01 3.195857e-03
3.362870e-01 5.639906e-03
3.373957e-01 5.721481e-03
3.385034e-01 4.081105e-03
3.396101e-01 6.580927e-03
3.407157e-01 4.836286e-03
3.418203e-01 8.026743e-03
3.429238e-01 7.406315e-03
3.440263e-01 7.498043e-03
3.451277e-01 1.051184e-02
3.462281e-01 1.034766e-02
3.473275e-01 1.110647e-02
3.484258e-01 1.236562e-02
3.495230e-01 1.259170e-02
3.506191e-01 1.573369e-02
3.517142e-01 1.575684e-02
3.528082e-01 1.911605e-02
3.539012e-01 2.303942e-02
3.549930e-01 2.509752e-02
3.560838e-01 2.907520e-02
3.571735e-01 3.584747e-02
3.582621e-01 4.705803e-02
3.593496e-01 5.836034e-02
3.604361e-01 7.477445e-02
3.615214e-01 1.013539e-01
3.626056e-01 1.355198e-01
3.636887e-01 1.846300e-01
3.647707e-01 2.465347e-01
3.658516e-01 3.316440e-01
3.669314e-01 4.365635e-01
3.680101e-01 5.438862e-01
3.690876e-01 6.549209e-01
3.701641e-01 7.499834e-01
3.712394e-01 8.225684e-01
3.723135e-01 8.658120e-01
3.733866e-01 8.678228e-01
3.744584e-01 8.297403e-01
3.755292e-01 7.611280e-01
3.765988e-01 6.639375e-01
3.776673e-01 5.667469e-01
3.787346e-01 4.400639e-01
3.798007e-01 3.322828e-01
3.808657e-01 2.426029e-01
3.819296e-01 1.744009e-01
3.829922e-01 1.291914e-01
3.840538e-01 9.539443e-02
3.851141e-01 7.062735e-02
3.861733e-01 5.373986e-02
3.872313e-01 4.258782e-02
3.882881e-01 3.339553e-02
3.893437e-01 2.832102e-02
3.903981e-01 2.356953e-02
3.914514e-01 1.885644e-02
3.925034e-01 1.623606e-02
3.935543e-01 1.628456e-02
3.946040e-01 1.399619e-02
3.956524e-01 1.091875e-02
3.966997e-01 1.174043e-02
3.977457e-01 1.075606e-02
3.987906e-01 9.472567e-03
3.998342e-01 7.757491e-03
4.008766e-01 5.212114e-03
4.019178e-01 5.967324e-03
4.029578e-01 5.280694e-03
4.039965e-01 6.290241e-03
4.050340e-01 5.459962e-03
4.060703e-01 6.333718e-03
4.071053e-01 3.015110e-03
4.081391e-01 4.813638e-03
4.091716e-01 5.995606e-03
4.102029e-01 2.670957e-03
4.112330e-01 3.407112e-03
4.122618e-01 2.851429e-03
4.132893e-01 1.326195e-03
4.143156e-01 4.247305e-03
4.153406e-01 2.500867e-03
4.163644e-01 3.228193e-03
4.173869e-01 3.264927e-03
4.184081e-01 3.248604e-03
4.194280e-01 1.943118e-03
4.204467e-01 1.354638e-03
4.214641e-01 2.613960e-03
4.224802e-01 1.165014e-03
4.234950e-01 1.574251e-03
4.245085e-01 1.111043e-03
4.255208e-01 1.551853e-03
4.265317e-01 1.979871e-03
4.275413e-01 4.804818e-04
4.285497e-01 2.701970e-03
4.295567e-01 1.537816e-03
4.305624e-01 1.623176e-03
4.315668e-01 -7.995410e-05
4.325699e-01 1.930296e-03
4.335717e-01 2.936013e-04
4.345721e-01 -2.938602e-04
4.355713e-01 1.895321e-03
4.365691e-01 2.591998e-03
4.375655e-01 9.272514e-04
4.385607e-01 1.106494e-03
4.395545e-01 1.793660e-03
4.405470e-01 7.608785e-04
4.415381e-01 -3.727325e-04
4.425279e-01 -1.098651e-03
4.435163e-01 -1.717310e-03
4.445034e-01 6.124383e-04
4.454891e-01 -6.353433e-04
4.464735e-01 -1.086230e-03
4.474565e-01 3.211097e-04
4.484381e-01 2.620745e-04
4.494184e-01 1.245192e-03
4.503973e-01 3.118020e-03
4.513748e-01 5.257660e-04
4.523510e-01 -1.483321e-04
4.533258e-01 1.832914e-03
4.542992e-01 2.238719e-04
4.552712e-01 2.305600e-03
4.562419e-01 7.110533e-04
4.572111e-01 -1.514448e-03
4.581789e-01 6.839643e-04
4.591454e-01 1.571172e-04
4.601105e-01 -6.347727e-04
4.610741e-01 8.234035e-04
4.620364e-01 -1.534088e-03
4.629972e-01 -3.189903e-05
4.639566e-01 3.435345e-04
4.649147e-01 -5.599328e-04
4.658713e-01 -1.232380e-03
4.668265e-01 1.846408e-03
4.677802e-01 1.084853e-03
4.687326e-01 -8.061350e-04
4.696835e-01 5.092448e-04
4.706329e-01 -2.916175e-05
4.715810e-01 1.031852e-03
4.725276e-01 4.127843e-04
4.734728e-01 -9.971805e-04
4.744165e-01 1.109141e-03
4.753588e-01 -1.133233e-03
4.762996e-01 6.350378e-04
4.772390e-01 -4.928027e-04
4.781769e-01 -6.497568e-04
4.791134e-01 2.267517e-03
4.800484e-01 1.219594e-03
4.809820e-01 1.864789e-03
4.819140e-01 1.595494e-04
4.828447e-01 4.741486e-04
4.837738e-01 -6.954957e-04
4.847015e-01 9.303067e-04
4.856277e-01 -2.040491e-04
4.865524e-01 7.779532e-04
4.874756e-01 2.160409e-04
4.883974e-01 6.382658e-04
4.893176e-01 -6.511707e-04
,
2.327267e-01 -2.801482e-04
2.339138e-01 2.496338e-04
2.351001e-01 6.208207e-04
2.362857e-01 3.329897e-04
2.374706e-01 4.598235e-04
2.386547e-01 1.061275e-03
2.398381e-01 1.340622e-03
2.410208e-01 8.002766e-04
2.422028e-01 2.759984e-04
2.433840e-01 -4.343105e-04
2.445645e-01 -1.889980e-03
2.457443e-01 -6.311774e-04
2.469232e-01 1.990601e-04
2.481015e-01 -1.935609e-04
2.492790e-01 -8.131116e-04
2.504557e-01 -1.942955e-03
2.516317e-01 1.426437e-04
2.528068e-01 1.644960e-03
2.539813e-01 -1.005184e-03
2.551549e-01 -1.097354e-03
2.563278e-01 8.008937e-05
2.574999e-01 2.096535e-03
2.586712e-01 2.570553e-04
2.598417e-01 1.187560e-03
2.610115e-01 4.898799e-04
2.621804e-01 2.924045e-04
2.633485e-01 8.558588e-04
2.645159e-01 -1.115980e-03
2.656824e-01 1.115481e-03
2.668481e-01 4.568424e-04
2.680130e-01 -6.108403e-04
2.691771e-01 4.680683e-04
2.703404e-01 -4.497222e-04
2.715028e-01 3.465658e-04
2.726644e-01 1.560037e-03
2.738252e-01 1.554896e-03
2.749852e-01 -4.451339e-04
2.761443e-01 1.333939e-04
2.773026e-01 7.188930e-04
2.784600e-01 -6.475012e-04
2.796166e-01 -1.037975e-03
2.807723e-01 7.943361e-04
2.819272e-01 1.187643e-03
2.830812e-01 -6.763657e-04
2.842343e-01 3.871767e-04
2.853866e-01 -5.278556e-04
2.865380e-01 1.381335e-03
2.876886e-01 3.996783e-04
2.888383e-01 -7.490761e-04
2.899871e-01 6.185065e-04
2.911350e-01 5.450543e-04
2.922820e-01 -7.066281e-04
2.934281e-01 -8.206435e-04
2.945733e-01 -4.081239e-04
2.957177e-01 -1.043029e-03
2.968611e-01 1.400087e-03
2.980036e-01 -5.041425e-04
2.991453e-01 -9.951464e-05
3.002860e-01 -1.337714e-04
3.014258e-01 -8.832012e-04
3.025647e-01 2.459928e-03
3.037026e-01 1.175677e-03
3.048397e-01 1.922291e-03
3.059758e-01 2.043124e-03
3.071109e-01 1.280132e-03
3.082452e-01 2.130471e-03
3.093785e-01 1.236707e-03
3.105108e-01 1.928575e-03
3.116422e-01 2.158235e-03
3.127727e-01 6.032094e-04
3.139022e-01 2.693043e-03
3.150308e-01 1.286504e-03
3.161584e-01 1.723123e-03
3.172850e-01 1.818375e-03
3.184106e-01 1.045979e-03
3.195353e-01 2.195907e-03
3.206591e-01 2.573271e-03
3.217818e-01 1.537336e-03
3.229036e-01 1.328189e-03
3.240243e-01 2.055941e-03
3.251441e-01 1.652952e-03
3.262629e-01 2.913342e-03
3.273807e-01 1.373140e-03
3.284976e-01 1.854840e-03
3.296134e-01 2.049713e-03
3.307282e-01 3.256968e-03
3.318420e-01 3.818547e-03
3.329548e-01 3.765648e-03
3.340665e-01 5.065676e-03
3.351773e-01 2.943225e-03
3.362870e-01 4.302724e-03
3.373957e-01 4.464443e-03
3.385034e-01 4.366289e-03
3.396101e-01 4.798892e-03
3.407157e-01 6.034920e-03
3.418203e-01 6.831615e-03
3.429238e-01 6.379655e-03
3.440263e-01 6.829784e-03
3.451277e-01 9.107269e-03
3.462281e-01 8.441174e-03
3.473275e-01 9.965489e-03
3.484258e-01 1.142796e-02
3.495230e-01 1.166759e-02
3.506191e-01 1.506049e-02
3.517142e-01 1.520578e-02
3.528082e-01 1.867252e-02
3.539012e-01 2.173395e-02
3.549930e-01 2.615037e-02
3.560838e-01 3.224257e-02
3.571735e-01 3.910529e-02
3.582621e-01 4.929548e-02
3.593496e-01 6.251033e-02
3.604361e-01 8.228682e-02
3.615214e-01 1.101645e-01
3.626056e-01 1.468550e-01
3.636887e-01 1.983001e-01
3.647707e-01 2.608910e-01
3.658516e-01 3.473769e-01
3.669314e-01 4.459018e-01
3.680101e-01 5.517612e-01
3.690876e-01 6.475379e-01
3.701641e-01 7.298271e-01
3.712394e-01 7.874875e-01
3.723135e-01 8.155774e-01
3.733866e-01 8.029769e-01
3.744584e-01 7.506734e-01
3.755292e-01 6.683371e-01
3.765988e-01 5.860007e-01
3.776673e-01 4.622741e-01
3.787346e-01 3.449073e-01
3.798007e-01 2.507597e-01
3.808657e-01 1.782131e-01
3.819296e-01 1.263636e-01
3.829922e-01 9.101702e-02
3.840538e-01 6.867606e-02
3.851141e-01 5.014930e-02
3.861733e-01 4.060405e-02
3.872313e-01 3.137864e-02
3.882881e-01 2.685317e-02
3.893437e-01 2.158856e-02
3.903981e-01 1.997829e-02
3.914514e-01 1.596486e-02
3.925034e-01 1.468387e-02
3.935543e-01 1.003167e-02
3.946040e-01 1.010509e-02
3.956524e-01 1.017427e-02
3.966997e-01 1.017473e-02
3.977457e-01 6.505528e-03
3.987906e-01 7.164402e-03
3.998342e-01 5.416485e-03
4.008766e-01 6.401068e-03
4.019178e-01 6.142063e-03
4.029578e-01 4.700809e-03
4.039965e-01 4.578372e-03
4.050340e-01 4.023116e-03
4.060703e-01 3.765737e-03
4.071053e-01 3.015690e-03
4.081391e-01 5.723179e-03
4.091716e-01 4.583554e-03
4.102029e-01 3.967334e-03
4.112330e-01 3.684949e-03
4.122618e-01 3.461369e-03
4.132893e-01 3.169841e-03
4.143156e-01 2.745152e-03
4.153406e-01 2.797292e-03
4.163644e-01 3.354693e-03
4.173869e-01 4.651698e-04
4.184081e-01 1.954424e-03
4.194280e-01 3.100337e-03
4.204467e-01 1.519396e-03
4.214641e-01 2.472319e-03
4.224802e-01 9.008377e-04
4.234950e-01 2.530656e-03
4.245085e-01 2.892308e-03
4.255208e-01 3.592856e-03
4.265317e-01 -8.197769e-04
4.275413e-01 1.524044e-03
4.285497e-01 2.382267e-03
4.295567e-01 2.856884e-03
4.305624e-01 2.201113e-03
4.315668e-01 3.513305e-03
4.325699e-01 2.221401e-03
4.335717e-01 1.234084e-03
4.345721e-01 1.044157e-03
4.355713e-01 -1.392983e-03
4.365691e-01 -2.429251e-04
4.375655e-01 -1.121613e-03
4.385607e-01 -3.599208e-04
4.395545e-01 -7.628922e-04
4.405470e-01 2.124451e-03
4.415381e-01 -1.034187e-04
4.425279e-01 -3.484108e-04
4.435163e-01 -1.074688e-03
4.445034e-01 -4.037834e-04
4.454891e-01 8.107524e-04
4.464735e-01 6.006362e-04
4.474565e-01 -5.988231e-04
4.484381e-01 7.146608e-04
4.494184e-01 8.852075e-04
4.503973e-01 6.333073e-04
4.513748e-01 3.198066e-03
4.523510e-01 -7.500858e-04
4.533258e-01 1.789813e-03
4.542992e-01 1.653342e-04
4.552712e-01 -8.237178e-04
4.562419e-01 -1.155728e-03
4.572111e-01 2.544910e-03
4.581789e-01 1.358538e-03
4.591454e-01 -3.334907e-04
4.601105e-01 -3.971022e-04
4.610741e-01 6.870862e-05
4.620364e-01 -6.730132e-04
4.629972e-01 8.206874e-04
4.639566e-01 1.011781e-03
4.649147e-01 -6.477675e-05
4.658713e-01 -1.116344e-03
4.668265e-01 -6.987535e-04
4.677802e-01 4.080644e-04
4.687326e-01 -9.560634e-04
4.696835e-01 -4.362703e-04
4.706329e-01 -1.727393e-03
4.715810e-01 8.645377e-04
4.725276e-01 1.609063e-04
4.734728e-01 2.631378e-04
4.744165e-01 -1.490303e-03
4.753588e-01 1.759849e-03
4.762996e-01 -2.747992e-05
4.772390e-01 -8.673993e-05
4.781769e-01 -1.465093e-03
4.791134e-01 6.343663e-04
4.800484e-01 1.524449e-03
4.809820e-01 -1.484188e-04
4.819140e-01 -1.546122e-04
4.828447e-01 -1.181291e-03
4.837738e-01 -4.923580e-04
4.847015e-01 -1.042574e-03
4.856277e-01 -4.951929e-04
4.865524e-01 -1.001640e-04
4.874756e-01 -8.032295e-04
4.883974e-01 -2.072902e-04
4.893176e-01 2.227570e-04
,
2.327267e-01 1.011887e-03
2.339138e-01 -8.513201e-04
2.351001e-01 -5.364904e-04
2.362857e-01 1.099466e-03
2.374706e-01 -2.677817e-04
2.386547e-01 -8.985819e-04
2.398381e-01 1.839636e-03
2.410208e-01 -2.343412e-04
2.422028e-01 1.093451e-03
2.433840e-01 -1.253883e-03
2.445645e-01 -8.841803e-04
2.457443e-01 -6.418177e-05
2.469232e-01 -1.174867e-03
2.481015e-01 -4.491211e-04
2.492790e-01 -7.930355e-04
2.504557e-01 -1.053692e-05
2.516317e-01 1.966977e-03
2.528068e-01 -1.340290e-03
2.539813e-01 1.099491e-03
2.551549e-01 3.205852e-04
2.563278e-01 -4.685990e-04
2.574999e-01 -2.368270e-03
2.586712e-01 6.767771e-04
2.598417e-01 2.779026e-04
2.610115e-01 -6.958373e-04
2.621804e-01 -2.177453e-04
2.633485e-01 -4.866394e-05
2.645159e-01 2.367878e-04
2.656824e-01 -6.028424e-04
2.668481e-01 1.431081e-03
2.680130e-01 -8.626360e-04
2.691771e-01 -1.325835e-03
2.703404e-01 -2.608068e-04
2.715028e-01 -5.095400e-04
2.726644e-01 -1.879343e-03
2.738252e-01 1.943781e-03
2.749852e-01 1.185040e-03
2.761443e-01 -1.001101e-03
2.773026e-01 -1.720124e-04
2.784600e-01 5.517400e-04
2.796166e-01 3.175178e-04
2.807723e-01 -1.583345e-04
2.819272e-01 -1.938760e-03
2.830812e-01 -1.988326e-03
2.842343e-01 1.295579e-03
2.853866e-01 5.130334e-04
2.865380e-01 4.653068e-04
2.876886e-01 -9.664127e-04
2.888383e-01 8.621640e-05
2.899871e-01 1.632893e-03
2.911350e-01 -2.355900e-04
2.922820e-01 -1.067246e-03
2.934281e-01 1.040812e-03
2.945733e-01 1.999723e-03
2.957177e-01 1.298050e-03
2.968611e-01 7.246409e-04
2.980036e-01 1.810701e-03
2.991453e-01 -1.866624e-04
3.002860e-01 -6.768828e-04
3.014258e-01 8.206226e-04
3.025647e-01 8.282930e-04
3.037026e-01 1.992183e-03
3.048397e-01 4.027643e-05
3.059758e-01 2.385557e-04
3.071109e-01 1.388259e-03
3.082452e-01 2.437404e-04
3.093785e-01 3.718017e-04
3.105108e-01 1.744701e-03
3.116422e-01 2.102584e-03
3.127727e-01 3.588682e-03
3.139022e-01 3.331411e-03
3.150308e-01 1.682184e-03
3.161584e-01 5.555165e-05
3.172850e-01 1.187102e-03
3.184106e-01 1.927738e-03
3.195353e-01 2.389895e-03
3.206591e-01 4.030206e-03
3.217818e-01 1.993019e-03
3.229036e-01 1.721789e-03
3.240243e-01 2.011684e-03
3.251441e-01 3.382596e-03
3.262629e-01 2.584993e-03
3.273807e-01 2.200447e-03
3.284976e-01 2.336190e-03
3.296134e-01 3.614423e-03
3.307282e-01 2.324656e-03
3.318420e-01 3.019417e-03
3.329548e-01 4.546623e-03
3.340665e-01 5.653727e-03
3.351773e-01 4.478960e-03
3.362870e-01 5.692391e-03
3.373957e-01 4.776450e-03
3.385034e-01 5.368285e-03
3.396101e-01 4.538041e-03
3.407157e-01 6.027281e-03
3.418203e-01 6.717973e-03
3.429238e-01 6.422445e-03
3.440263e-01 7.224676e-03
3.451277e-01 8.392069e-03
3.462281e-01 1.055661e-02
3.473275e-01 1.146532e-02
3.484258e-01 1.247692e-02
3.495230e-01 1.383053e-02
3.506191e-01 1.542913e-02
3.517142e-01 1.792428e-02
3.528082e-01 2.064138e-02
3.539012e-01 2.298064e-02
3.549930e-01 2.745037e-02
3.560838e-01 3.450388e-02
3.571735e-01 4.346728e-02
3.582621e-01 5.579311e-02
3.593496e-01 7.171445e-02
3.604361e-01 9.140370e-02
3.615214e-01 1.240750e-01
3.626056e-01 1.656072e-01
3.636887e-01 2.245058e-01
3.647707e-01 2.885802e-01
3.658516e-01 3.778775e-01
3.669314e-01 4.763301e-01
3.680101e-01 5.699527e-01
3.690876e-01 6.485318e-01
3.701641e-01 7.103324e-01
3.712394e-01 7.420145e-01
3.723135e-01 7.423693e-01
3.733866e-01 7.024333e-01
3.744584e-01 6.327678e-01
3.755292e-01 5.631022e-01
3.765988e-01 4.444537e-01
3.776673e-01 3.340360e-01
3.787346e-01 2.383485e-01
3.798007e-01 1.669585e-01
3.808657e-01 1.141075e-01
3.819296e-01 7.972946e-02
3.829922e-01 5.820293e-02
3.840538e-01 4.608418e-02
3.851141e-01 3.382824e-02
3.861733e-01 2.915620e-02
3.872313e-01 2.203099e-02
3.882881e-01 1.932067e-02
3.893437e-01 1.482385e-02
3.903981e-01 1.552122e-02
3.914514e-01 1.207191e-02
3.925034e-01 1.129481e-02
3.935543e-01 9.342428e-03
3.946040e-01 7.570537e-03
3.956524e-01 7.265465e-03
3.966997e-01 6.995160e-03
3.977457e-01 6.562280e-03
3.987906e-01 5.758283e-03
3.998342e-01 7.334787e-03
4.008766e-01 3.640926e-03
4.019178e-01 6.335989e-03
4.029578e-01 4.631616e-03
4.039965e-01 3.350299e-03
4.050340e-01 3.022194e-03
4.060703e-01 3.085279e-03
4.071053e-01 1.640081e-03
4.081391e-01 2.412365e-03
4.091716e-01 2.506330e-03
4.102029e-01 1.534773e-03
4.112330e-01 3.552193e-03
4.122618e-01 9.805177e-04
4.132893e-01 2.138853e-03
4.143156e-01 1.822929e-03
4.153406e-01 -1.072441e-03
4.163644e-01 -5.741071e-04
4.173869e-01 4.109663e-03
4.184081e-01 1.334973e-03
4.194280e-01 2.449785e-03
4.204467e-01 3.963549e-03
4.214641e-01 7.068962e-04
4.224802e-01 1.436426e-03
4.234950e-01 1.141257e-03
4.245085e-01 9.843868e-04
4.255208e-01 1.876187e-03
4.265317e-01 2.664415e-03
4.275413e-01 1.463842e-03
4.285497e-01 2.030059e-03
4.295567e-01 2.715452e-03
4.305624e-01 1.106359e-03
4.315668e-01 1.497796e-03
4.325699e-01 -1.444711e-03
4.335717e-01 -7.034878e-04
4.345721e-01 1.016747e-03
4.355713e-01 3.843112e-04
4.365691e-01 6.054366e-04
4.375655e-01 7.040455e-04
4.385607e-01 -3.042292e-04
4.395545e-01 1.341721e-03
4.405470e-01 -3.742097e-04
4.415381e-01 1.112538e-03
4.425279e-01 -7.259122e-04
4.435163e-01 1.075382e-03
4.445034e-01 -3.194083e-06
4.454891e-01 4.151179e-04
4.464735e-01 -1.111062e-06
4.474565e-01 -5.541135e-04
4.484381e-01 8.306816e-04
4.494184e-01 1.864313e-03
4.503973e-01 -1.011867e-03
4.513748e-01 -2.396337e-03
4.523510e-01 -3.688539e-04
4.533258e-01 -1.397393e-03
4.542992e-01 -1.931359e-03
4.552712e-01 -1.571655e-04
4.562419e-01 -1.442238e-03
4.572111e-01 6.913632e-04
4.581789e-01 -6.499187e-04
4.591454e-01 -2.164350e-03
4.601105e-01 -4.532325e-04
4.610741e-01 -9.094935e-04
4.620364e-01 -1.251413e-03
4.629972e-01 -1.638390e-03
4.639566e-01 -7.854653e-04
4.649147e-01 2.223351e-04
4.658713e-01 -1.226092e-03
4.668265e-01 7.632800e-04
4.677802e-01 -8.426351e-04
4.687326e-01 -8.259491e-04
4.696835e-01 -1.248436e-03
4.706329e-01 -6.660134e-04
4.715810e-01 2.664407e-04
4.725276e-01 -8.358375e-04
4.734728e-01 -6.190662e-04
4.744165e-01 7.492794e-04
4.753588e-01 -8.121006e-04
4.762996e-01 -2.153228e-03
4.772390e-01 8.259506e-05
4.781769e-01 1.540677e-04
4.791134e-01 -1.461752e-03
4.800484e-01 -4.989723e-05
4.809820e-01 -1.345998e-03
4.819140e-01 4.404638e-05
4.828447e-01 1.493926e-03
4.837738e-01 -2.605157e-03
4.847015e-01 1.398816e-03
4.856277e-01 2.504217e-04
4.865524e-01 1.643095e-03
4.874756e-01 -1.294753e-03
4.883974e-01 -1.082514e-03
4.893176e-01 2.798896e-05
,
2.327267e-01 -1.311994e-03
2.339138e-01 1.632951e-04
2.351001e-01 -1.962338e-03
2.362857e-01 -7.105099e-05
2.374706e-01 -3.140304e-04
2.386547e-01 -1.101756e-03
2.398381e-01 -2.426872e-03
2.410208e-01 -6.987638e-04
2.422028e-01 1.548307e-04
2.433840e-01 1.162314e-03
2.445645e-01 1.019793e-05
2.457443e-01 -1.356790e-03
2.469232e-01 5.574945e-05
2.481015e-01 -2.253417e-03
2.492790e-01 8.510073e-05
2.504557e-01 -9.515261e-04
2.516317e-01 -1.230586e-03
2.528068e-01 -8.239758e-04
2.539813e-01 -6.250273e-05
2.551549e-01 -1.338786e-03
2.563278e-01 1.259333e-03
2.574999e-01 -1.064442e-03
2.586712e-01 -1.138545e-03
2.598417e-01 -4.475633e-04
2.610115e-01 -8.745371e-04
2.621804e-01 -7.537557e-04
2.633485e-01 -1.097612e-03
2.645159e-01 -1.945374e-03
2.656824e-01 -6.000373e-04
2.668481e-01 -2.716208e-03
2.680130e-01 -9.010825e-04
2.691771e-01 -9.134235e-04
2.703404e-01 -6.439902e-04
2.715028e-01 -6.136358e-05
2.726644e-01 2.803608e-04
2.738252e-01 -2.571437e-03
2.749852e-01 -7.708801e-04
2.761443e-01 -1.701053e-03
2.773026e-01 -2.943242e-03
2.784600e-01 -9.839120e-04
2.796166e-01 1.115108e-03
2.807723e-01 -1.642867e-04
2.819272e-01 -4.262672e-04
2.830812e-01 -1.820452e-03
2.842343e-01 -1.077500e-03
2.853866e-01 2.111284e-03
2.865380e-01 -1.447096e-04
2.876886e-01 -4.473929e-05
2.888383e-01 -8.651751e-04
2.899871e-01 1.985107e-05
2.911350e-01 -2.048745e-03
2.922820e-01 -3.179227e-04
2.934281e-01 -8.023879e-04
2.945733e-01 5.347903e-04
2.957177e-01 6.053507e-04
2.968611e-01 1.539726e-03
2.980036e-01 -5.209863e-04
2.991453e-01 -1.442348e-03
3.002860e-01 1.244328e-03
3.014258e-01 9.960854e-04
3.025647e-01 -1.947214e-03
3.037026e-01 -7.893476e-04
3.048397e-01 -3.203938e-04
3.059758e-01 -6.155269e-04
3.071109e-01 1.020337e-04
3.082452e-01 -1.615230e-03
3.093785e-01 -8.961230e-05
3.105108e-01 -1.894720e-03
3.116422e-01 7.374474e-04
3.127727e-01 8.243787e-04
3.139022e-01 -1.310435e-03
3.150308e-01 -2.855333e-04
3.161584e-01 -3.677286e-04
3.172850e-01 3.949553e-04
3.184106e-01 8.428030e-04
3.195353e-01 1.706256e-03
3.206591e-01 7.521603e-04
3.217818e-01 2.923317e-04
3.229036e-01 2.546158e-04
3.240243e-01 4.689706e-04
3.251441e-01 7.879196e-04
3.262629e-01 1.087037e-03
3.273807e-01 1.489516e-03
3.284976e-01 1.596047e-03
3.296134e-01 1.576824e-03
3.307282e-01 3.997162e-03
3.318420e-01 1.151624e-03
3.329548e-01 2.917260e-03
3.340665e-01 3.446624e-03
3.351773e-01 2.062778e-03
3.362870e-01 2.519080e-03
3.373957e-01 3.740060e-03
3.385034e-01 4.977254e-03
3.396101e-01 4.808501e-03
3.407157e-01 5.255862e-03
3.418203e-01 4.356714e-03
3.429238e-01 5.946002e-03
3.440263e-01 8.497070e-03
3.451277e-01 7.824189e-03
3.462281e-01 1.048209e-02
3.473275e-01 1.024326e-02
3.484258e-01 1.253099e-02
3.495230e-01 1.496821e-02
3.506191e-01 1.610986e-02
3.517142e-01 1.797263e-02
3.528082e-01 2.274948e-02
3.539012e-01 2.589273e-02
3.549930e-01 3.218227e-02
3.560838e-01 3.900299e-02
3.571735e-01 4.709133e-02
3.582621e-01 6.145945e-02
3.593496e-01 8.065872e-02
3.604361e-01 1.074387e-01
3.615214e-01 1.453247e-01
3.626056e-01 1.924334e-01
3.636887e-01 2.514247e-01
3.647707e-01 3.192893e-01
3.658516e-01 3.980977e-01
3.669314e-01 4.857843e-01
3.680101e-01 5.533675e-01
3.690876e-01 6.059464e-01
3.701641e-01 6.359233e-01
3.712394e-01 6.348691e-01
3.723135e-01 6.038515e-01
3.733866e-01 5.414782e-01
3.744584e-01 4.791049e-01
3.755292e-01 3.717997e-01
3.765988e-01 2.766292e-01
3.776673e-01 1.957050e-01
3.787346e-01 1.325121e-01
3.798007e-01 9.354348e-02
3.808657e-01 6.417984e-02
3.819296e-01 4.932009e-02
3.829922e-01 3.725027e-02
3.840538e-01 2.962093e-02
3.851141e-01 2.366384e-02
3.861733e-01 1.911971e-02
3.872313e-01 1.713261e-02
3.882881e-01 1.335159e-02
3.893437e-01 1.082477e-02
3.903981e-01 1.245565e-02
3.914514e-01 9.918496e-03
3.925034e-01 1.102036e-02
3.935543e-01 6.734909e-03
3.946040e-01 5.946409e-03
3.956524e-01 6.612233e-03
3.966997e-01 6.979953e-03
3.977457e-01 6.099698e-03
3.987906e-01 6.078691e-03
3.998342e-01 3.785702e-03
4.008766e-01 4.189869e-03
4.019178e-01 3.358867e-03
4.029578e-01 4.536458e-03
4.039965e-01 3.765428e-03
4.050340e-01 4.398684e-03
4.060703e-01 2.666346e-03
4.071053e-01 4.388123e-03
4.081391e-01 1.334853e-03
4.091716e-01 2.137510e-03
4.102029e-01 4.541152e-04
4.112330e-01 -4.665108e-04
4.122618e-01 -1.420153e-04
4.132893e-01 1.451994e-03
4.143156e-01 2.719299e-03
4.153406e-01 8.882230e-04
4.163644e-01 8.176432e-04
4.173869e-01 1.228064e-03
4.184081e-01 1.686686e-03
4.194280e-01 -1.071042e-03
4.204467e-01 6.060695e-04
4.214641e-01 6.767261e-04
4.224802e-01 6.022308e-04
4.234950e-01 2.513569e-03
4.245085e-01 1.195896e-03
4.255208e-01 -1.052739e-03
4.265317e-01 1.329795e-03
4.275413e-01 1.634361e-03
4.285497e-01 2.889210e-04
4.295567e-01 1.501736e-03
4.305624e-01 6.254943e-04
4.315668e-01 -1.185587e-04
4.325699e-01 2.885961e-05
4.335717e-01 -1.243991e-03
4.345721e-01 1.912557e-03
4.355713e-01 1.690271e-03
4.365691e-01 -7.277051e-04
4.375655e-01 1.956932e-03
4.385607e-01 -2.156416e-04
4.395545e-01 2.932140e-03
4.405470e-01 -9.967694e-04
4.415381e-01 7.696152e-04
4.425279e-01 1.464926e-03
4.435163e-01 -2.061929e-04
4.445034e-01 3.706730e-04
4.454891e-01 -1.230389e-03
4.464735e-01 5.506298e-04
4.474565e-01 7.557293e-04
4.484381e-01 3.954178e-04
4.494184e-01 1.226270e-03
4.503973e-01 1.664354e-03
4.513748e-01 -7.997818e-05
4.523510e-01 -1.594019e-04
4.533258e-01 -2.373800e-04
4.542992e-01 1.533293e-04
4.552712e-01 -9.774404e-04
4.562419e-01 -1.804945e-04
4.572111e-01 -7.955375e-04
4.581789e-01 -1.279340e-03
4.591454e-01 7.563209e-04
4.601105e-01 5.279192e-04
4.610741e-01 3.375570e-04
4.620364e-01 4.679783e-04
4.629972e-01 1.333927e-04
4.639566e-01 8.627657e-04
4.649147e-01 1.055943e-03
4.658713e-01 2.645362e-04
4.668265e-01 1.131151e-03
4.677802e-01 2.832558e-03
4.687326e-01 6.584710e-04
4.696835e-01 7.941511e-04
4.706329e-01 1.555045e-03
4.715810e-01 1.300366e-03
4.725276e-01 -1.075554e-04
4.734728e-01 9.928336e-04
4.744165e-01 -1.078969e-03
4.753588e-01 6.629922e-04
4.762996e-01 -1.590663e-03
4.772390e-01 1.166889e-03
4.781769e-01 -2.223609e-04
4.791134e-01 -8.337960e-04
4.800484e-01 4.241228e-04
4.809820e-01 1.029025e-03
4.819140e-01 1.210086e-03
4.828447e-01 4.997144e-04
4.837738e-01 1.023051e-03
4.847015e-01 1.274124e-03
4.856277e-01 2.731579e-03
4.865524e-01 -1.592140e-03
4.874756e-01 1.298782e-04
4.883974e-01 3.582833e-04
4.893176e-01 1.868518e-03
,
2.327267e-01 -3.950797e-04
2.339138e-01 -1.227985e-05
2.351001e-01 1.657160e-03
2.362857e-01 -1.729653e-03
2.374706e-01 -5.006392e-04
2.386547e-01 -1.155567e-03
2.398381e-01 -6.252605e-06
2.410208e-01 -4.934465e-04
2.422028e-01 -2.004653e-03
2.433840e-01 8.869644e-04
2.445645e-01 -5.181263e-05
2.457443e-01 2.336474e-05
2.469232e-01 -5.896473e-04
2.481015e-01 4.398316e-05
2.492790e-01 -8.052495e-04
2.504557e-01 -1.031257e-03
2.516317e-01 1.779109e-04
2.528068e-01 6.801185e-04
2.539813e-01 2.220486e-04
2.551549e-01 1.198952e-03
2.563278e-01 -7.520556e-04
2.574999e-01 -2.420396e-04
2.586712e-01 1.287599e-04
2.598417e-01 -2.149466e-03
2.610115e-01 7.434325e-04
2.621804e-01 -1.129748e-04
2.633485e-01 -5.240635e-05
2.645159e-01 -1.619226e-03
2.656824e-01 -3.798363e-04
2.668481e-01 1.093988e-03
2.680130e-01 4.201198e-04
2.691771e-01 2.225021e-03
2.703404e-01 -9.736772e-04
2.715028e-01 -8.353084e-04
2.726644e-01 -9.948392e-04
2.738252e-01 2.537321e-04
2.749852e-01 4.286116e-04
2.761443e-01 -2.087914e-03
2.773026e-01 4.730796e-04
2.784600e-01 4.329553e-05
2.796166e-01 -8.425962e-04
2.807723e-01 6.573764e-04
2.819272e-01 -5.191502e-04
2.830812e-01 -7.799972e-04
2.842343e-01 -1.717182e-03
2.853866e-01 1.287105e-03
2.865380e-01 -4.115612e-04
2.876886e-01 2.404935e-04
2.888383e-01 -8.674615e-04
2.899871e-01 -1.194938e-03
2.911350e-01 -2.968782e-04
2.922820e-01 -2.086609e-03
2.934281e-01 6.485968e-04
2.945733e-01 -2.442140e-04
2.957177e-01 7.271905e-04
2.968611e-01 -4.653909e-04
2.980036e-01 -4.434174e-05
2.991453e-01 9.433045e-04
3.002860e-01 -3.629053e-04
3.014258e-01 2.755156e-04
3.025647e-01 7.264253e-04
3.037026e-01 1.675995e-04
3.048397e-01 -2.045619e-04
3.059758e-01 -4.668590e-04
3.071109e-01 4.452816e-04
3.082452e-01 2.318277e-03
3.093785e-01 1.176846e-03
3.105108e-01 2.206428e-03
3.116422e-01 1.898633e-03
3.127727e-01 4.550397e-04
3.139022e-01 6.231906e-04
3.150308e-01 2.098993e-04
3.161584e-01 1.382218e-03
3.172850e-01 1.943141e-03
3.184106e-01 -4.814188e-04
3.195353e-01 2.788850e-04
3.206591e-01 2.679680e-03
3.217818e-01 3.260290e-03
3.229036e-01 8.961660e-04
3.240243e-01 3.555300e-04
3.251441e-01 1.376582e-03
3.262629e-01 9.741088e-04
3.273807e-01 2.017567e-03
3.284976e-01 4.145635e-03
3.296134e-01 3.150264e-03
3.307282e-01 2.401354e-03
3.318420e-01 1.859440e-03
3.329548e-01 2.360875e-03
3.340665e-01 3.654205e-03
3.351773e-01 4.341442e-03
3.362870e-01 5.284904e-03
3.373957e-01 5.701512e-03
3.385034e-01 5.561269e-03
3.396101e-01 5.282931e-03
3.407157e-01 6.201830e-03
3.418203e-01 6.968388e-03
3.429238e-01 5.737909e-03
3.440263e-01 9.134065e-03
3.451277e-01 8.804396e-03
3.462281e-01 1.051531e-02
3.473275e-01 1.179939e-02
3.484258e-01 1.445325e-02
3.495230e-01 1.414402e-02
3.506191e-01 1.841158e-02
3.517142e-01 1.963014e-02
3.528082e-01 2.426716e-02
3.539012e-01 2.926089e-02
3.549930e-01 3.657069e-02
3.560838e-01 4.448083e-02
3.571735e-01 5.755344e-02
3.582621e-01 7.599742e-02
3.593496e-01 9.871773e-02
3.604361e-01 1.287774e-01
3.615214e-01 1.655277e-01
3.626056e-01 2.134371e-01
3.636887e-01 2.670134e-01
3.647707e-01 3.247318e-01
3.658516e-01 3.854374e-01
3.669314e-01 4.344552e-01
3.680101e-01 4.710803e-01
3.690876e-01 4.887939e-01
3.701641e-01 4.836278e-01
3.712394e-01 4.525955e-01
3.723135e-01 4.000028e-01
3.733866e-01 3.474100e-01
3.744584e-01 2.630962e-01
3.755292e-01 1.914457e-01
3.765988e-01 1.363850e-01
3.776673e-01 9.781537e-02
3.787346e-01 6.699058e-02
3.798007e-01 5.106653e-02
3.808657e-01 3.630247e-02
3.819296e-01 3.205606e-02
3.829922e-01 2.544403e-02
3.840538e-01 2.046838e-02
3.851141e-01 1.691093e-02
3.861733e-01 1.504431e-02
3.872313e-01 1.391257e-02
3.882881e-01 1.100638e-02
3.893437e-01 1.026393e-02
3.903981e-01 8.564710e-03
3.914514e-01 9.163676e-03
3.925034e-01 7.414671e-03
3.935543e-01 7.416961e-03
3.946040e-01 6.040115e-03
3.956524e-01 6.059342e-03
3.966997e-01 4.620129e-03
3.977457e-01 6.588422e-03
3.987906e-01 3.864177e-03
3.998342e-01 2.023963e-03
4.008766e-01 4.320087e-03
4.019178e-01 4.046984e-03
4.029578e-01 3.275201e-03
4.039965e-01 3.780896e-03
4.050340e-01 3.410838e-03
4.060703e-01 4.911738e-05
4.071053e-01 5.858684e-04
4.081391e-01 1.363462e-03
4.091716e-01 2.235656e-03
4.102029e-01 1.275597e-03
4.112330e-01 3.458694e-04
4.122618e-01 1.774071e-03
4.132893e-01 2.055098e-03
4.143156e-01 8.282011e-04
4.153406e-01 1.298719e-04
4.163644e-01 1.478339e-03
4.173869e-01 -1.126315e-04
4.184081e-01 1.492046e-04
4.194280e-01 -1.224001e-03
4.204467e-01 1.750268e-03
4.214641e-01 6.183217e-04
4.224802e-01 -1.567184e-04
4.234950e-01 -1.540223e-03
4.245085e-01 6.473954e-04
4.255208e-01 6.373266e-04
4.265317e-01 2.831911e-04
4.275413e-01 -7.724641e-04
4.285497e-01 -5.453734e-04
4.295567e-01 1.117006e-03
4.305624e-01 -6.379488e-04
4.315668e-01 1.357207e-03
4.325699e-01 2.234568e-04
4.335717e-01 -1.196852e-03
4.345721e-01 5.599777e-04
4.355713e-01 9.398023e-04
4.365691e-01 -4.867774e-04
4.375655e-01 9.638762e-04
4.385607e-01 8.409234e-04
4.395545e-01 5.179959e-04
4.405470e-01 -1.347806e-03
4.415381e-01 -6.349737e-05
4.425279e-01 5.640455e-04
4.435163e-01 5.563145e-04
4.445034e-01 -1.050289e-03
4.454891e-01 7.239989e-04
4.464735e-01 1.227775e-03
4.474565e-01 5.699462e-04
4.484381e-01 -2.431885e-03
4.494184e-01 -9.079418e-04
4.503973e-01 1.259218e-03
4.513748e-01 -2.017947e-03
4.523510e-01 9.408594e-04
4.533258e-01 6.129998e-04
4.542992e-01 1.106627e-03
4.552712e-01 2.538531e-04
4.562419e-01 8.429432e-04
4.572111e-01 -1.098165e-03
4.581789e-01 1.156374e-03
4.591454e-01 1.840622e-04
4.601105e-01 1.582365e-03
4.610741e-01 -1.224892e-04
4.620364e-01 3.499326e-04
4.629972e-01 5.996553e-04
4.639566e-01 -1.553103e-03
4.649147e-01 -1.012324e-04
4.658713e-01 7.160723e-04
4.668265e-01 -1.176467e-03
4.677802e-01 -3.956102e-04
4.687326e-01 6.476129e-04
4.696835e-01 -6.139780e-04
4.706329e-01 -1.704622e-03
4.715810e-01 -1.657745e-03
4.725276e-01 -1.637070e-03
4.734728e-01 -1.044975e-03
4.744165e-01 -5.955749e-04
4.753588e-01 -1.415691e-03
4.762996e-01 -4.135649e-04
4.772390e-01 -1.138946e-04
4.781769e-01 -1.651324e-03
4.791134e-01 -3.567466e-04
4.800484e-01 -2.049067e-04
4.809820e-01 2.095932e-04
4.819140e-01 -1.054714e-03
4.828447e-01 -9.769402e-04
4.837738e-01 -2.006910e-04
4.847015e-01 1.729186e-04
4.856277e-01 6.757309e-04
4.865524e-01 -7.536859e-04
4.874756e-01 -1.561731e-03
4.883974e-01 1.361305e-03
4.893176e-01 1.258872e-03
,
2.327267e-01 2.377902e-04
2.339138e-01 1.015179e-03
2.351001e-01 2.825966e-03
2.362857e-01 -8.785764e-05
2.374706e-01 2.293913e-03
2.386547e-01 4.710991e-04
2.398381e-01 3.189606e-05
2.410208e-01 1.699349e-03
2.422028e-01 -2.112981e-04
2.433840e-01 2.045880e-03
2.445645e-01 8.051612e-05
2.457443e-01 -4.523065e-05
2.469232e-01 2.076327e-03
2.481015e-01 8.122043e-04
2.492790e-01 7.448763e-04
2.504557e-01 2.476592e-03
2.516317e-01 5.258956e-04
2.528068e-01 2.354922e-03
2.539813e-01 2.103273e-03
2.551549e-01 1.159085e-03
2.563278e-01 1.226037e-03
2.574999e-01 1.172767e-03
2.586712e-01 6.237075e-04
2.598417e-01 6.294785e-04
2.610115e-01 -3.485302e-04
2.621804e-01 1.051672e-03
2.633485e-01 2.812588e-04
2.645159e-01 9.157667e-04
2.656824e-01 4.535253e-05
2.668481e-01 2.820864e-04
2.680130e-01 4.886109e-04
2.691771e-01 2.564687e-03
2.703404e-01 5.495937e-04
2.715028e-01 -1.534196e-04
2.726644e-01 9.237674e-04
2.738252e-01 5.022178e-04
2.749852e-01 2.088838e-03
2.761443e-01 -4.817730e-04
2.773026e-01 -2.844722e-04
2.784600e-01 5.220423e-04
2.796166e-01 -1.357611e-05
2.807723e-01 1.498414e-03
2.819272e-01 1.883603e-04
2.830812e-01 1.011735e-03
2.842343e-01 -3.134086e-04
2.853866e-01 1.892421e-03
2.865380e-01 -1.492078e-03
2.876886e-01 1.820336e-03
2.888383e-01 5.936485e-05
2.899871e-01 6.018002e-04
2.911350e-01 5.402562e-04
2.922820e-01 -3.755497e-04
2.934281e-01 7.542514e-04
2.945733e-01 1.264166e-03
2.957177e-01 2.927896e-03
2.968611e-01 2.942805e-04
2.980036e-01 -7.701989e-05
2.991453e-01 4.519365e-04
3.002860e-01 -4.815340e-04
3.014258e-01 8.675397e-04
3.025647e-01 1.821063e-03
3.037026e-01 -2.892352e-05
3.048397e-01 -5.715347e-05
3.059758e-01 1.366782e-03
3.071109e-01 -2.098360e-04
3.082452e-01 2.359963e-04
3.093785e-01 1.650420e-03
3.105108e-01 1.786264e-03
3.116422e-01 2.545108e-03
3.127727e-01 2.244297e-03
3.139022e-01 1.057506e-03
3.150308e-01 3.155288e-03
3.161584e-01 2.847438e-03
3.172850e-01 3.685416e-03
3.184106e-01 3.650006e-03
3.195353e-01 2.990302e-03
3.206591e-01 4.049802e-03
3.217818e-01 9.565673e-04
3.229036e-01 3.262230e-03
3.240243e-01 2.703457e-03
3.251441e-01 1.590658e-03
3.262629e-01 3.469531e-03
3.273807e-01 4.037200e-03
3.284976e-01 2.372105e-03
3.296134e-01 3.981452e-03
3.307282e-01 2.317909e-03
3.318420e-01 2.617164e-03
3.329548e-01 3.813350e-03
3.340665e-01 4.787357e-03
3.351773e-01 5.592049e-03
3.362870e-01 4.428623e-03
3.373957e-01 5.666569e-03
3.385034e-01 6.571050e-03
3.396101e-01 4.815907e-03
3.407157e-01 8.572648e-03
3.418203e-01 8.765992e-03
3.429238e-01 8.199976e-03
3.440263e-01 8.500237e-03
3.451277e-01 9.414275e-03
3.462281e-01 1.199565e-02
3.473275e-01 1.308661e-02
3.484258e-01 1.455422e-02
3.495230e-01 1.644266e-02
3.506191e-01 2.136834e-02
3.517142e-01 2.604092e-02
3.528082e-01 3.142444e-02
3.539012e-01 3.478934e-02
3.549930e-01 4.387432e-02
3.560838e-01 5.263739e-02
3.571735e-01 6.659993e-02
3.582621e-01 8.521862e-02
3.593496e-01 1.086616e-01
3.604361e-01 1.332148e-01
3.615214e-01 1.654387e-01
3.626056e-01 2.012275e-01
3.636887e-01 2.357889e-01
3.647707e-01 2.629750e-01
3.658516e-01 2.865248e-01
3.669314e-01 2.988292e-01
3.680101e-01 3.009702e-01
3.690876e-01 2.883988e-01
3.701641e-01 2.625906e-01
3.712394e-01 2.367825e-01
3.723135e-01 1.912952e-01
3.733866e-01 1.490409e-01
3.744584e-01 1.107545e-01
3.755292e-01 7.959937e-02
3.765988e-01 6.122504e-02
3.776673e-01 4.708455e-02
3.787346e-01 3.654940e-02
3.798007e-01 2.998523e-02
3.808657e-01 2.287280e-02
3.819296e-01 2.109323e-02
3.829922e-01 1.643822e-02
3.840538e-01 1.591675e-02
3.851141e-01 1.291761e-02
3.861733e-01 1.280530e-02
3.872313e-01 9.843489e-03
3.882881e-01 9.594006e-03
3.893437e-01 9.788066e-03
3.903981e-01 7.163021e-03
3.914514e-01 8.977227e-03
3.925034e-01 5.963489e-03
3.935543e-01 7.330552e-03
3.946040e-01 4.896428e-03
3.956524e-01 6.919926e-03
3.966997e-01 4.446984e-03
3.977457e-01 3.569909e-03
3.987906e-01 4.916689e-03
3.998342e-01 4.845186e-03
4.008766e-01 4.377308e-03
4.019178e-01 5.334333e-03
4.029578e-01 3.749964e-03
4.039965e-01 4.388658e-03
4.050340e-01 2.345783e-03
4.060703e-01 2.889062e-03
4.071053e-01 3.135206e-03
4.081391e-01 2.952862e-03
4.091716e-01 5.000194e-03
4.102029e-01 3.019006e-03
4.112330e-01 2.383235e-03
4.122618e-01 2.910301e-03
4.132893e-01 2.510345e-03
4.143156e-01 3.218544e-03
4.153406e-01 2.008831e-03
4.163644e-01 3.912541e-03
4.173869e-01 5.659126e-04
4.184081e-01 2.789669e-03
4.194280e-01 8.151604e-04
4.204467e-01 2.561155e-03
4.214641e-01 1.312055e-03
4.224802e-01 1.087481e-03
4.234950e-01 9.545722e-04
4.245085e-01 2.769184e-03
4.255208e-01 2.613694e-03
4.265317e-01 1.721091e-03
4.275413e-01 2.532163e-03
4.285497e-01 9.120429e-04
4.295567e-01 -3.334367e-04
4.305624e-01 1.338409e-03
4.315668e-01 2.456460e-03
4.325699e-01 1.235408e-03
4.335717e-01 1.843293e-03
4.345721e-01 8.966400e-04
4.355713e-01 8.701802e-04
4.365691e-01 7.104837e-04
4.375655e-01 1.820016e-03
4.385607e-01 6.471530e-04
4.395545e-01 2.982782e-03
4.405470e-01 1.460908e-03
4.415381e-01 9.150200e-04
4.425279e-01 2.025739e-03
4.435163e-01 9.528509e-05
4.445034e-01 1.588827e-03
4.454891e-01 8.125564e-04
4.464735e-01 -1.240507e-03
4.474565e-01 -6.821805e-04
4.484381e-01 4.390196e-04
4.494184e-01 1.762977e-03
4.503973e-01 1.136862e-03
4.513748e-01 2.649879e-03
4.523510e-01 5.578634e-04
4.533258e-01 4.349467e-04
4.542992e-01 -3.046877e-04
4.552712e-01 -9.661868e-04
4.562419e-01 7.881264e-04
4.572111e-01 9.202447e-04
4.581789e-01 8.363317e-04
4.591454e-01 6.430191e-05
4.601105e-01 2.832848e-03
4.610741e-01 -4.269533e-04
4.620364e-01 8.386885e-04
4.629972e-01 1.342551e-04
4.639566e-01 2.544727e-03
4.649147e-01 1.570904e-03
4.658713e-01 2.864597e-04
4.668265e-01 -1.426519e-03
4.677802e-01 -4.037005e-04
4.687326e-01 1.645531e-03
4.696835e-01 2.026353e-03
4.706329e-01 2.211748e-03
4.715810e-01 -2.618901e-05
4.725276e-01 1.003600e-03
4.734728e-01 7.179139e-04
4.744165e-01 7.363259e-04
4.753588e-01 1.702474e-03
4.762996e-01 -4.346506e-04
4.772390e-01 5.379210e-04
4.781769e-01 1.959990e-03
4.791134e-01 1.903609e-03
4.800484e-01 1.358766e-04
4.809820e-01 8.717751e-04
4.819140e-01 4.654354e-04
4.828447e-01 1.670630e-03
4.837738e-01 5.044796e-04
4.847015e-01 -7.910667e-05
4.856277e-01 -7.914942e-04
4.865524e-01 -1.205260e-03
4.874756e-01 -1.298159e-03
4.883974e-01 -1.401167e-03
4.893176e-01 -1.588911e-03
,
2.327267e-01 -6.080371e-04
2.339138e-01 -8.993974e-04
2.351001e-01 -4.520910e-04
2.362857e-01 -1.344018e-03
2.374706e-01 4.096237e-04
2.386547e-01 -8.638468e-04
2.398381e-01 -2.149448e-03
2.410208e-01 2.133349e-03
2.422028e-01 -3.344597e-05
2.433840e-01 3.386964e-04
2.445645e-01 8.048851e-04
2.457443e-01 -1.354238e-03
2.469232e-01 -1.320673e-03
2.481015e-01 -7.669133e-04
2.492790e-01 -1.677730e-03
2.504557e-01 1.935011e-04
2.516317e-01 1.462775e-03
2.528068e-01 -1.837204e-03
2.539813e-01 1.036413e-03
2.551549e-01 -1.866838e-03
2.563278e-01 -4.304406e-04
2.574999e-01 3.706342e-04
2.586712e-01 -1.321033e-03
2.598417e-01 1.175853e-03
2.610115e-01 6.699502e-04
2.621804e-01 1.192269e-04
2.633485e-01 -1.271182e-03
2.645159e-01 -1.197199e-03
2.656824e-01 -1.410332e-03
2.668481e-01 -1.797743e-03
2.680130e-01 3.895062e-04
2.691771e-01 1.253011e-03
2.703404e-01 -3.348048e-04
2.715028e-01 1.618467e-03
2.726644e-01 -3.064381e-04
2.738252e-01 2.499099e-04
2.749852e-01 3.198925e-05
2.761443e-01 -1.460907e-03
2.773026e-01 9.061831e-04
2.784600e-01 -5.883120e-04
2.796166e-01 -1.900836e-03
2.807723e-01 -7.311524e-04
2.819272e-01 -6.767536e-04
2.830812e-01 -2.050361e-04
2.842343e-01 4.243492e-04
2.853866e-01 1.110680e-03
2.865380e-01 3.630953e-04
2.876886e-01 5.784130e-04
2.888383e-01 -9.993294e-04
2.899871e-01 -9.092798e-04
2.911350e-01 1.078648e-03
2.922820e-01 1.566905e-03
2.934281e-01 -1.334661e-03
2.945733e-01 5.023811e-04
2.957177e-01 8.161930e-04
2.968611e-01 7.253913e-04
2.980036e-01 -1.140862e-03
2.991453e-01 9.565683e-04
3.002860e-01 -2.090831e-04
3.014258e-01 -5.835082e-04
3.025647e-01 1.342567e-03
3.037026e-01 5.521390e-04
3.048397e-01 9.848401e-04
3.059758e-01 4.002963e-04
3.071109e-01 1.833369e-03
3.082452e-01 1.204574e-03
3.093785e-01 2.252528e-03
3.105108e-01 6.491436e-04
3.116422e-01 -5.305190e-04
3.127727e-01 2.028903e-03
3.139022e-01 2.187384e-03
3.150308e-01 8.331167e-04
3.161584e-01 1.623818e-03
3.172850e-01 1.246321e-03
3.184106e-01 -8.398445e-05
3.195353e-01 2.236661e-03
3.206591e-01 1.294194e-03
3.217818e-01 1.968152e-03
3.229036e-01 3.737191e-03
3.240243e-01 3.492259e-03
3.251441e-01 1.550277e-03
3.262629e-01 2.694805e-03
3.273807e-01 2.155861e-03
3.284976e-01 1.950664e-03
3.296134e-01 3.888817e-03
3.307282e-01 3.483364e-03
3.318420e-01 3.444949e-03
3.329548e-01 8.662990e-04
3.340665e-01 3.026109e-03
3.351773e-01 4.482881e-03
3.362870e-01 4.206482e-03
3.373957e-01 4.162304e-03
3.385034e-01 6.332481e-03
3.396101e-01 7.020036e-03
3.407157e-01 5.521353e-03
3.418203e-01 7.520169e-03
3.429238e-01 7.248515e-03
3.440263e-01 8.610897e-03
3.451277e-01 1.159241e-02
3.462281e-01 1.317883e-02
3.473275e-01 1.452543e-02
3.484258e-01 1.612776e-02
3.495230e-01 1.726743e-02
3.506191e-01 2.074474e-02
3.517142e-01 2.381769e-02
3.528082e-01 2.855042e-02
3.539012e-01 3.192773e-02
3.549930e-01 3.776581e-02
3.560838e-01 4.574194e-02
3.571735e-01 5.821643e-02
3.582621e-01 6.936998e-02
3.593496e-01 8.002613e-02
3.604361e-01 9.264531e-02
3.615214e-01 1.065905e-01
3.626056e-01 1.161940e-01
3.636887e-01 1.235091e-01
3.647707e-01 1.287605e-01
3.658516e-01 1.296468e-01
3.669314e-01 1.259885e-01
3.680101e-01 1.188265e-01
3.690876e-01 1.116644e-01
3.701641e-01 9.542513e-02
3.712394e-01 8.028903e-02
3.723135e-01 6.529633e-02
3.733866e-01 5.272935e-02
3.744584e-01 3.979108e-02
3.755292e-01 3.310375e-02
3.765988e-01 2.545104e-02
3.776673e-01 2.311495e-02
3.787346e-01 1.763513e-02
3.798007e-01 1.453275e-02
3.808657e-01 1.554202e-02
3.819296e-01 1.134418e-02
3.829922e-01 9.436077e-03
3.840538e-01 9.797858e-03
3.851141e-01 8.615229e-03
3.861733e-01 9.499196e-03
3.872313e-01 6.064187e-03
3.882881e-01 9.196183e-03
3.893437e-01 7.543994e-03
3.903981e-01 7.573285e-03
3.914514e-01 5.199645e-03
3.925034e-01 4.247989e-03
3.935543e-01 4.303125e-03
3.946040e-01 4.652636e-03
3.956524e-01 3.715066e-03
3.966997e-01 3.956978e-03
3.977457e-01 5.367244e-03
3.987906e-01 2.538001e-03
3.998342e-01 4.154427e-03
4.008766e-01 2.042048e-03
4.019178e-01 2.462466e-03
4.029578e-01 2.873752e-03
4.039965e-01 3.756951e-03
4.050340e-01 9.086804e-04
4.060703e-01 2.965915e-03
4.071053e-01 1.750788e-03
4.081391e-01 2.289812e-03
4.091716e-01 2.799385e-03
4.102029e-01 5.964312e-04
4.112330e-01 2.672040e-03
4.122618e-01 3.978535e-04
4.132893e-01 3.377284e-03
4.143156e-01 3.062438e-03
4.153406e-01 2.213762e-03
4.163644e-01 2.426594e-04
4.173869e-01 1.483438e-03
4.184081e-01 3.457933e-03
4.194280e-01 -4.883715e-05
4.204467e-01 3.263463e-05
4.214641e-01 1.339256e-03
4.224802e-01 1.176558e-03
4.234950e-01 9.548057e-04
4.245085e-01 1.069572e-03
4.255208e-01 -4.702398e-04
4.265317e-01 1.367702e-03
4.275413e-01 1.327289e-03
4.285497e-01 7.496142e-04
4.295567e-01 1.399875e-03
4.305624e-01 1.580873e-03
4.315668e-01 -5.835369e-04
4.325699e-01 -2.655294e-04
4.335717e-01 1.744460e-03
4.345721e-01 4.124622e-04
4.355713e-01 1.226862e-03
4.365691e-01 -1.304190e-03
4.375655e-01 -3.061581e-05
4.385607e-01 3.067936e-04
4.395545e-01 -2.625212e-04
4.405470e-01 -9.064324e-04
4.415381e-01 -4.733213e-04
4.425279e-01 -7.695424e-04
4.435163e-01 5.305393e-04
4.445034e-01 2.619002e-04
4.454891e-01 -5.714023e-04
4.464735e-01 6.782247e-04
4.474565e-01 1.979908e-03
4.484381e-01 1.057847e-03
4.494184e-01 -1.291257e-03
4.503973e-01 -1.218117e-03
4.513748e-01 1.023301e-03
4.523510e-01 -3.348977e-04
4.533258e-01 5.580860e-04
4.542992e-01 -7.440151e-04
4.552712e-01 1.139631e-03
4.562419e-01 -2.634983e-03
4.572111e-01 -7.459312e-04
4.581789e-01 5.430492e-04
4.591454e-01 1.309236e-04
4.601105e-01 -1.470628e-03
4.610741e-01 1.214616e-03
4.620364e-01 -1.641677e-03
4.629972e-01 3.575601e-04
4.639566e-01 8.252420e-04
4.649147e-01 -1.269393e-03
4.658713e-01 5.602196e-04
4.668265e-01 -8.924243e-06
4.677802e-01 -1.387959e-03
4.687326e-01 1.802281e-03
4.696835e-01 -1.159956e-03
4.706329e-01 1.417659e-03
4.715810e-01 -6.332782e-04
4.725276e-01 -7.635286e-05
4.734728e-01 -6.873755e-04
4.744165e-01 9.622366e-04
4.753588e-01 7.055114e-04
4.762996e-01 6.900216e-04
4.772390e-01 -1.742996e-03
4.781769e-01 -1.103363e-03
4.791134e-01 2.541043e-05
4.800484e-01 6.876387e-04
4.809820e-01 1.046354e-04
4.819140e-01 7.077339e-04
4.828447e-01 1.192581e-03
4.837738e-01 -1.905417e-03
4.847015e-01 -9.628645e-04
4.856277e-01 1.018134e-03
4.865524e-01 2.159947e-04
4.874756e-01 -2.656408e-05
4.883974e-01 4.980522e-04
4.893176e-01 1.188302e-03
,
2.327233e-01 -1.810477e-03
2.339103e-01 -6.028490e-04
2.350966e-01 -1.028015e-03
2.362822e-01 -1.487688e-04
2.374670e-01 1.013515e-03
2.386512e-01 1.284513e-03
2.398346e-01 -2.022550e-03
2.410173e-01 -1.041665e-03
2.421992e-01 8.115697e-05
2.433804e-01 1.966200e-03
2.445609e-01 -2.517834e-04
2.457406e-01 -2.219615e-03
2.469196e-01 -1.884670e-03
2.480978e-01 -1.654195e-03
2.492753e-01 6.703919e-04
2.504520e-01 1.054210e-03
2.516279e-01 -2.099077e-03
2.528031e-01 5.276455e-05
2.539775e-01 -2.443156e-03
2.551511e-01 -5.741818e-04
2.563240e-01 5.362755e-04
2.574961e-01 -7.272423e-04
2.586674e-01 -3.802066e-03
2.598379e-01 -3.458435e-03
2.610076e-01 -2.783169e-03
2.621765e-01 -3.554697e-04
2.633446e-01 1.842511e-04
2.645119e-01 -1.681714e-03
2.656784e-01 3.771914e-04
2.668441e-01 -4.918845e-04
2.680090e-01 -2.143408e-03
2.691731e-01 1.846257e-03
2.703364e-01 -9.842445e-04
2.714988e-01 -6.698069e-04
2.726604e-01 8.933253e-04
2.738212e-01 -5.735218e-06
2.749811e-01 -2.954314e-03
2.761402e-01 2.105030e-03
2.772985e-01 -4.712784e-05
2.784559e-01 2.655567e-04
2.796124e-01 -3.068154e-04
2.807681e-01 9.441655e-04
2.819230e-01 -1.555324e-03
2.830770e-01 1.842864e-04
2.842301e-01 1.222031e-03
2.853824e-01 -2.339323e-03
2.865338e-01 -4.396731e-04
2.876843e-01 1.666772e-03
2.888340e-01 -7.302382e-04
2.899828e-01 8.574118e-05
2.911307e-01 -3.517548e-05
2.922777e-01 6.816179e-04
2.934238e-01 -1.224621e-04
2.945690e-01 4.594371e-04
2.957133e-01 -4.415393e-05
2.968567e-01 -2.080366e-03
2.979992e-01 2.958742e-04
2.991408e-01 2.114594e-04
3.002815e-01 8.968394e-05
3.014213e-01 -1.464033e-03
3.025602e-01 8.442636e-04
3.036981e-01 1.828938e-03
3.048351e-01 1.048624e-03
3.059712e-01 -1.769652e-04
3.071064e-01 -1.153518e-04
3.082406e-01 2.983816e-03
3.093739e-01 4.977635e-04
3.105062e-01 5.200283e-04
3.116376e-01 -4.999638e-04
3.127681e-01 -8.294883e-04
3.138976e-01 -7.932056e-04
3.150261e-01 3.110842e-03
3.161537e-01 6.160002e-04
3.172803e-01 -1.651841e-03
3.184059e-01 1.369131e-03
3.195306e-01 -2.163174e-04
3.206543e-01 3.047105e-03
3.217770e-01 4.911678e-04
3.228988e-01 3.975395e-03
3.240196e-01 1.495667e-03
3.251393e-01 3.065572e-03
3.262581e-01 2.730340e-03
3.273759e-01 3.150158e-03
3.284927e-01 2.733611e-03
3.296085e-01 4.371671e-03
3.307233e-01 2.886967e-03
3.318371e-01 4.878917e-03
3.329498e-01 1.609581e-03
3.340616e-01 3.081559e-03
3.351723e-01 3.957350e-03
3.362820e-01 5.076291e-03
3.373907e-01 6.433559e-03
3.384984e-01 5.708702e-03
3.396050e-01 7.251561e-03
3.407106e-01 4.897625e-03
3.418152e-01 5.298365e-03
3.429187e-01 8.228132e-03
3.440212e-01 8.006586e-03
3.451226e-01 8.510671e-03
3.462230e-01 8.874795e-03
3.473223e-01 9.433538e-03
3.484206e-01 9.342799e-03
3.495178e-01 9.014938e-03
3.506139e-01 9.972900e-03
3.517090e-01 1.260024e-02
3.528030e-01 1.394254e-02
3.538959e-01 1.553909e-02
3.549878e-01 1.541649e-02
3.560785e-01 1.678889e-02
3.571682e-01 1.740926e-02
3.582568e-01 1.932297e-02
3.593443e-01 1.820032e-02
3.604307e-01 2.003207e-02
3.615160e-01 1.809407e-02
3.626002e-01 1.880032e-02
3.636833e-01 1.892459e-02
3.647653e-01 2.074215e-02
3.658462e-01 1.818293e-02
3.669260e-01 1.800137e-02
3.680046e-01 1.902175e-02
3.690822e-01 1.768968e-02
3.701586e-01 1.540685e-02
3.712339e-01 1.532353e-02
3.723080e-01 1.029252e-02
3.733810e-01 1.128960e-02
3.744529e-01 1.266937e-02
3.755236e-01 9.030617e-03
3.765932e-01 1.050855e-02
3.776617e-01 9.054981e-03
3.787290e-01 8.005567e-03
3.797951e-01 5.471613e-03
3.808601e-01 5.233124e-03
3.819239e-01 5.067271e-03
3.829866e-01 3.730758e-03
3.840481e-01 4.382961e-03
3.851084e-01 3.566386e-03
3.861675e-01 5.009411e-03
3.872255e-01 3.632758e-03
3.882823e-01 2.690097e-03
3.893379e-01 4.030065e-03
3.903924e-01 1.995933e-03
3.914456e-01 2.522571e-03
3.924976e-01 1.536110e-03
3.935485e-01 3.024511e-03
3.945981e-01 3.359332e-03
3.956433e-01 3.388317e-03
3.966938e-01 9.200407e-04
3.977399e-01 2.295862e-03
3.987847e-01 2.703127e-03
3.998283e-01 3.295909e-03
4.008707e-01 -2.055796e-03
4.019118e-01 1.111270e-03
4.029518e-01 -1.386344e-03
4.039905e-01 1.999279e-03
4.050280e-01 -4.653746e-05
4.060643e-01 1.040636e-03
4.070993e-01 1.191992e-03
4.081330e-01 4.254986e-04
4.091656e-01 1.919391e-03
4.101969e-01 7.375034e-04
4.112269e-01 1.428506e-03
4.122557e-01 1.161905e-03
4.132832e-01 -1.186804e-03
4.143095e-01 9.048456e-04
4.153345e-01 -9.541474e-04
4.163582e-01 -1.421632e-03
4.173807e-01 1.609417e-03
4.184019e-01 1.013816e-03
4.194218e-01 8.872116e-04
4.204405e-01 1.504544e-03
4.214579e-01 -5.080766e-04
4.224739e-01 8.823381e-04
4.234887e-01 4.871422e-04
4.245022e-01 -9.408596e-04
4.255145e-01 4.450622e-04
4.265254e-01 -1.198295e-03
4.275350e-01 -1.113649e-03
4.285433e-01 3.593885e-04
4.295503e-01 -1.583666e-03
4.305560e-01 -4.328147e-04
4.315604e-01 -7.674294e-05
4.325635e-01 8.598390e-04
4.335653e-01 -1.590964e-03
4.345657e-01 7.157769e-04
4.355648e-01 -1.364294e-03
4.365626e-01 -3.665060e-04
4.375591e-01 1.625834e-03
4.385542e-01 -4.739623e-04
4.395480e-01 5.766372e-04
4.405404e-01 -9.566395e-05
4.415315e-01 -1.543569e-03
4.425213e-01 8.355088e-04
4.435097e-01 -1.883185e-03
4.444968e-01 -9.396586e-04
4.454825e-01 5.697384e-04
4.464669e-01 4.034354e-04
4.474498e-01 2.652713e-04
4.484315e-01 -1.493079e-03
4.494117e-01 1.457836e-03
4.503906e-01 -1.186224e-03
4.513682e-01 1.427030e-04
4.523443e-01 1.559170e-03
4.533191e-01 -1.124489e-03
4.542925e-01 -2.445563e-03
4.552645e-01 9.915333e-05
4.562351e-01 9.239691e-04
4.572043e-01 1.449830e-03
4.581722e-01 2.826004e-04
4.591386e-01 2.438264e-03
4.601036e-01 -1.437905e-03
4.610673e-01 2.226994e-03
4.620295e-01 2.237352e-03
4.629904e-01 1.127274e-03
4.639498e-01 2.655207e-03
4.649078e-01 -1.048714e-03
4.658644e-01 -9.134157e-04
4.668195e-01 -1.302668e-03
4.677733e-01 4.012967e-04
4.687256e-01 2.712731e-03
4.696765e-01 1.993704e-03
4.706260e-01 1.172683e-03
4.715740e-01 4.585097e-04
4.725206e-01 1.422135e-03
4.734658e-01 -1.866507e-03
4.744095e-01 -2.401202e-03
4.753517e-01 -1.364732e-03
4.762926e-01 -1.421848e-03
4.772319e-01 -6.545284e-04
4.781698e-01 -1.665387e-03
4.791063e-01 7.870141e-04
4.800413e-01 5.952444e-04
4.809748e-01 -9.356774e-04
4.819069e-01 5.931566e-04
4.828375e-01 2.955816e-04
4.837666e-01 1.657797e-03
4.846943e-01 -1.692687e-03
4.856205e-01 -4.992494e-04
4.865452e-01 1.366700e-03
4.874684e-01 -3.474172e-05
4.883902e-01 1.555355e-03
4.893104e-01 1.885312e-04
,
2.327233e-01 -1.205420e-03
2.339103e-01 2.788778e-04
2.350966e-01 -1.705229e-04
2.362822e-01 1.500282e-03
2.374670e-01 -2.253875e-04
2.386512e-01 1.720664e-03
2.398346e-01 -2.032319e-04
2.410173e-01 8.406861e-04
2.421992e-01 1.903538e-04
2.433804e-01 2.750589e-04
2.445609e-01 -6.969081e-04
2.457406e-01 1.076045e-03
2.469196e-01 6.101573e-04
2.480978e-01 3.382894e-04
2.492753e-01 1.783073e-03
2.504520e-01 1.922944e-03
2.516279e-01 -5.976304e-05
2.528031e-01 1.808821e-04
2.539775e-01 -8.359805e-04
2.551511e-01 -3.005773e-04
2.563240e-01 -8.285064e-04
2.574961e-01 1.740058e-03
2.586674e-01 2.894757e-04
2.598379e-01 1.984822e-03
2.610076e-01 3.932658e-04
2.621765e-01 -3.870215e-04
2.633446e-01 1.002352e-03
2.645119e-01 -1.130043e-03
2.656784e-01 1.425314e-03
2.668441e-01 -1.431051e-03
2.680090e-01 1.340158e-03
2.691731e-01 -7.683729e-04
2.703364e-01 1.637321e-04
2.714988e-01 5.470905e-05
2.726604e-01 -3.372965e-04
2.738212e-01 -1.297358e-03
2.749811e-01 8.615345e-04
2.761402e-01 6.272015e-04
2.772985e-01 -4.796870e-04
2.784559e-01 -7.123233e-04
2.796124e-01 -7.506537e-04
2.807681e-01 9.592912e-04
2.819230e-01 2.379656e-05
2.830770e-01 -3.853881e-04
2.842301e-01 1.404034e-03
2.853824e-01 2.449248e-03
2.865338e-01 9.017477e-04
2.876843e-01 8.499735e-04
2.888340e-01 1.721791e-04
2.899828e-01 2.484948e-04
2.911307e-01 2.142876e-03
2.922777e-01 1.644802e-03
2.934238e-01 1.141598e-03
2.945690e-01 1.620449e-03
2.957133e-01 6.598509e-04
2.968567e-01 7.219726e-04
2.979992e-01 2.753024e-03
2.991408e-01 -7.830690e-04
3.002815e-01 8.467421e-04
3.014213e-01 5.346669e-04
3.025602e-01 1.005605e-03
3.036981e-01 3.018504e-04
3.048351e-01 2.075737e-03
3.059712e-01 1.521111e-03
3.071064e-01 2.387228e-03
3.082406e-01 4.025330e-03
3.093739e-01 3.474110e-03
3.105062e-01 1.666954e-03
3.116376e-01 1.719987e-03
3.127681e-01 2.018444e-03
3.138976e-01 4.444528e-03
3.150261e-01 5.460969e-03
3.161537e-01 2.947945e-03
3.172803e-01 1.970372e-03
3.184059e-01 2.637937e-03
3.195306e-01 3.330419e-03
3.206543e-01 1.043680e-03
3.217770e-01 2.398836e-03
3.228988e-01 2.135950e-03
3.240196e-01 5.379044e-04
3.251393e-01 3.028794e-03
3.262581e-01 2.094748e-03
3.273759e-01 4.658151e-04
3.284927e-01 3.636350e-03
3.296085e-01 2.708158e-03
3.307233e-01 3.043361e-03
3.318371e-01 2.828974e-03
3.329498e-01 1.933262e-03
3.340616e-01 4.525255e-03
3.351723e-01 3.736150e-03
3.362820e-01 5.601306e-03
3.373907e-01 3.386249e-03
3.384984e-01 1.856615e-03
3.396050e-01 4.443399e-03
3.407106e-01 2.259349e-03
3.418152e-01 3.737787e-03
3.429187e-01 3.705803e-03
3.440212e-01 5.393687e-03
3.451226e-01 3.464244e-03
3.462230e-01 4.522192e-03
3.473223e-01 4.828312e-03
3.484206e-01 6.843413e-03
3.495178e-01 5.438756e-03
3.506139e-01 5.910018e-03
3.517090e-01 6.902203e-03
3.528010e-01 4.842699e-03
3.538959e-01 6.676066e-03
3.549878e-01 5.534397e-03
3.560785e-01 8.812747e-03
3.571682e-01 6.401669e-03
3.582568e-01 6.572659e-03
3.593443e-01 7.494796e-03
3.604307e-01 7.835747e-03
3.615160e-01 4.248352e-03
3.626002e-01 7.449259e-03
3.636833e-01 6.268969e-03
3.647653e-01 4.575159e-03
3.658462e-01 4.290384e-03
3.669260e-01 7.398481e-03
3.680046e-01 5.750666e-03
3.690822e-01 6.545837e-03
3.701586e-01 5.335102e-03
3.712339e-01 6.494405e-03
3.723080e-01 6.776225e-03
3.733810e-01 8.399175e-03
3.744529e-01 3.925349e-03
3.755236e-01 6.839218e-03
3.765932e-01 3.391667e-03
3.776617e-01 4.045219e-03
3.787290e-01 2.674668e-03
3.797951e-01 9.156835e-04
3.808601e-01 4.706016e-03
3.819239e-01 3.866375e-03
3.829866e-01 2.958491e-03
3.840481e-01 3.384049e-03
3.851084e-01 4.288696e-03
3.861675e-01 2.031855e-03
3.872255e-01 2.009890e-03
3.882823e-01 1.780758e-03
3.893379e-01 2.776173e-03
3.903924e-01 2.196953e-03
3.914456e-01 4.446853e-03
3.924976e-01 1.822040e-03
3.935485e-01 3.655485e-03
3.945981e-01 1.781007e-03
3.956466e-01 3.105046e-03
3.966938e-01 2.046457e-03
3.977399e-01 1.719473e-03
3.987847e-01 1.865662e-03
3.998283e-01 2.137050e-03
4.008707e-01 6.815256e-04
4.019118e-01 1.894175e-03
4.029518e-01 3.105834e-03
4.039905e-01 -7.014016e-04
4.050280e-01 3.527551e-03
4.060643e-01 -6.776354e-04
4.070993e-01 -1.106760e-04
4.081330e-01 1.973896e-03
4.091656e-01 -1.405242e-04
4.101969e-01 4.376411e-03
4.112269e-01 -1.134488e-03
4.122557e-01 1.488260e-03
4.132832e-01 4.348015e-04
4.143095e-01 1.939504e-03
4.153345e-01 6.177252e-04
4.163582e-01 2.468866e-04
4.173807e-01 1.079958e-03
4.184019e-01 -3.073235e-04
4.194218e-01 -4.248513e-04
4.204405e-01 2.698343e-03
4.214579e-01 1.742971e-03
4.224739e-01 1.754629e-03
4.234887e-01 1.804884e-03
4.245022e-01 2.702355e-03
4.255145e-01 2.501493e-03
4.265254e-01 1.176217e-04
4.275350e-01 5.138794e-04
4.285433e-01 2.651335e-03
4.295503e-01 2.060694e-03
4.305560e-01 1.444352e-03
4.315604e-01 8.090840e-04
4.325635e-01 3.803814e-04
4.335653e-01 1.252410e-03
4.345657e-01 2.275361e-03
4.355648e-01 2.467090e-03
4.365626e-01 2.737733e-03
4.375591e-01 9.289586e-04
4.385542e-01 1.743120e-03
4.395480e-01 -9.300314e-04
4.405404e-01 6.589007e-04
4.415315e-01 5.272786e-04
4.425213e-01 -8.963028e-04
4.435097e-01 2.475709e-03
4.444968e-01 -1.924634e-04
4.454825e-01 1.944922e-03
4.464669e-01 -7.746837e-04
4.474498e-01 9.477520e-04
4.484315e-01 -6.102677e-05
4.494117e-01 2.280247e-03
4.503906e-01 -9.722164e-04
4.513682e-01 -1.783282e-04
4.523443e-01 -1.759450e-03
4.533191e-01 -1.116552e-03
4.542925e-01 -1.175382e-03
4.552645e-01 -2.092682e-03
4.562351e-01 1.350034e-03
4.572043e-01 8.828376e-04
4.581722e-01 1.880533e-03
4.591386e-01 -1.557255e-03
4.601036e-01 2.605620e-03
4.610673e-01 1.097797e-03
4.620295e-01 -5.094545e-05
4.629904e-01 -1.307652e-04
4.639498e-01 3.489730e-04
4.649078e-01 -1.195974e-03
4.658644e-01 -7.336649e-04
4.668195e-01 1.465935e-03
4.677733e-01 1.755019e-03
4.687256e-01 -6.626370e-05
4.696765e-01 1.494138e-03
4.706218e-01 1.363622e-03
4.715740e-01 8.341592e-04
4.725206e-01 3.297631e-03
4.734658e-01 -5.375355e-04
4.744095e-01 4.471579e-04
4.753517e-01 -1.537088e-03
4.762926e-01 -2.321409e-04
4.772319e-01 2.165097e-03
4.781698e-01 2.865298e-03
4.791063e-01 1.144389e-03
4.800413e-01 1.656892e-03
4.809748e-01 -3.393574e-04
4.819069e-01 1.252668e-03
4.828375e-01 1.358298e-03
4.837666e-01 3.670499e-04
4.846943e-01 -1.001257e-03
4.856205e-01 -8.207255e-04
4.865452e-01 4.423889e-04
4.874684e-01 2.452469e-03
4.883902e-01 4.921731e-04
4.893104e-01 -2.744134e-03
,
