2.473796e-01 8.114426e-04
2.485575e-01 8.257200e-04
2.497346e-01 8.403684e-04
2.509110e-01 8.554005e-04
2.520865e-01 8.708299e-04
2.532614e-01 8.866704e-04
2.544354e-01 9.029367e-04
2.556087e-01 9.196441e-04
2.567812e-01 9.368084e-04
2.579529e-01 9.544463e-04
2.591238e-01 9.725753e-04
2.602939e-01 9.912135e-04
2.614633e-01 1.010380e-03
2.626318e-01 1.030095e-03
2.637996e-01 1.050379e-03
2.649665e-01 1.071255e-03
2.661326e-01 1.092744e-03
2.672980e-01 1.114872e-03
2.684625e-01 1.137664e-03
2.696262e-01 1.161146e-03
2.707890e-01 1.185346e-03
2.719511e-01 1.210294e-03
2.731123e-01 1.236020e-03
2.742727e-01 1.262557e-03
2.754322e-01 1.289939e-03
2.765909e-01 1.318202e-03
2.777488e-01 1.347384e-03
2.789058e-01 1.377525e-03
2.800620e-01 1.408667e-03
2.812173e-01 1.440855e-03
2.823718e-01 1.474135e-03
2.835254e-01 1.508558e-03
2.846781e-01 1.544175e-03
2.858300e-01 1.581043e-03
2.869810e-01 1.619220e-03
2.881311e-01 1.658769e-03
2.892804e-01 1.699756e-03
2.904287e-01 1.742250e-03
2.915762e-01 1.786327e-03
2.927228e-01 1.832065e-03
2.938685e-01 1.879549e-03
2.950133e-01 1.928867e-03
2.961572e-01 1.980116e-03
2.973002e-01 2.033396e-03
2.984423e-01 2.088816e-03
2.995835e-01 2.146492e-03
3.007238e-01 2.206547e-03
3.018632e-01 2.269113e-03
3.030016e-01 2.334331e-03
3.041391e-01 2.402354e-03
3.052757e-01 2.473342e-03
3.064114e-01 2.547472e-03
3.075461e-01 2.624929e-03
3.086799e-01 2.705916e-03
3.098128e-01 2.790650e-03
3.109447e-01 2.879364e-03
3.120756e-01 2.972311e-03
3.132056e-01 3.069765e-03
3.143347e-01 3.172019e-03
3.154628e-01 3.279395e-03
3.165899e-01 3.392240e-03
3.177161e-01 3.510930e-03
3.188413e-01 3.635876e-03
3.199656e-01 3.767524e-03
3.210888e-01 3.906362e-03
3.222111e-01 4.052924e-03
3.233324e-01 4.207792e-03
3.244527e-01 4.371606e-03
3.255720e-01 4.545068e-03
3.266904e-01 4.728953e-03
3.278077e-01 4.924112e-03
3.289241e-01 5.131488e-03
3.300394e-01 5.352123e-03
3.311537e-01 5.587175e-03
3.322671e-01 5.837931e-03
3.333794e-01 6.105824e-03
3.344907e-01 6.392460e-03
3.356010e-01 6.699633e-03
3.367102e-01 7.029363e-03
3.378185e-01 7.383925e-03
3.389257e-01 7.765890e-03
3.400318e-01 8.178175e-03
3.411370e-01 8.624097e-03
3.422411e-01 9.107448e-03
3.433441e-01 9.632572e-03
3.444461e-01 1.020447e-02
3.455471e-01 1.082893e-02
3.466470e-01 1.151268e-02
3.477458e-01 1.226355e-02
3.488436e-01 1.309077e-02
3.499404e-01 1.400521e-02
3.510360e-01 1.501980e-02
3.521306e-01 1.615003e-02
3.532241e-01 1.741456e-02
3.543166e-01 1.883609e-02
3.554079e-01 2.044248e-02
3.564982e-01 2.226832e-02
3.575874e-01 2.435700e-02
3.586755e-01 2.676375e-02
3.597625e-01 2.955990e-02
3.608484e-01 3.283916e-02
3.619333e-01 3.672697e-02
3.630170e-01 4.139443e-02
3.640996e-01 4.707915e-02
3.651811e-01 5.411570e-02
3.662615e-01 6.297860e-02
3.673408e-01 7.433894e-02
3.684189e-01 8.913153e-02
3.694959e-01 1.086205e-01
3.705719e-01 1.344373e-01
3.716466e-01 1.685502e-01
3.727203e-01 2.131095e-01
3.737928e-01 2.701201e-01
3.748642e-01 3.409210e-01
3.759344e-01 4.255178e-01
3.770035e-01 5.219036e-01
3.780714e-01 6.255823e-01
3.791382e-01 7.295399e-01
3.802038e-01 8.248424e-01
3.812683e-01 9.018717e-01
3.823316e-01 9.519919e-01
3.833938e-01 9.692422e-01
3.844547e-01 9.515821e-01
3.855145e-01 9.013166e-01
3.865732e-01 8.245744e-01
3.876306e-01 7.300073e-01
3.886869e-01 6.271032e-01
3.897420e-01 5.245795e-01
3.907959e-01 4.292263e-01
3.918486e-01 3.453769e-01
3.929001e-01 2.749687e-01
3.939504e-01 2.180147e-01
3.949996e-01 1.732526e-01
3.960475e-01 1.387763e-01
3.970942e-01 1.125260e-01
3.981397e-01 9.260071e-02
3.991840e-01 7.740884e-02
4.002271e-01 6.570366e-02
4.012689e-01 5.655272e-02
4.023095e-01 4.927927e-02
4.033489e-01 4.340018e-02
4.043871e-01 3.857218e-02
4.054241e-01 3.455022e-02
4.064598e-01 3.115730e-02
4.074943e-01 2.826353e-02
4.085275e-01 2.577185e-02
4.095595e-01 2.360845e-02
4.105902e-01 2.171625e-02
4.116197e-01 2.005042e-02
4.126479e-01 1.857529e-02
4.136749e-01 1.726210e-02
4.147006e-01 1.608747e-02
4.157251e-01 1.503216e-02
4.167483e-01 1.408022e-02
4.177702e-01 1.321834e-02
4.187908e-01 1.243531e-02
4.198102e-01 1.172165e-02
4.208283e-01 1.106926e-02
4.218451e-01 1.047123e-02
4.228606e-01 9.921603e-03
4.238749e-01 9.415214e-03
4.248878e-01 8.947589e-03
4.258995e-01 8.514821e-03
4.269098e-01 8.113488e-03
4.279189e-01 7.740582e-03
4.289266e-01 7.393451e-03
4.299331e-01 7.069745e-03
4.309382e-01 6.767383e-03
4.319420e-01 6.484507e-03
4.329445e-01 6.219462e-03
4.339457e-01 5.970764e-03
4.349456e-01 5.737084e-03
4.359441e-01 5.517225e-03
4.369413e-01 5.310107e-03
4.379372e-01 5.114755e-03
4.389318e-01 4.930287e-03
4.399250e-01 4.755902e-03
4.409168e-01 4.590870e-03
4.419074e-01 4.434530e-03
4.428965e-01 4.286276e-03
4.438844e-01 4.145554e-03
4.448709e-01 4.011860e-03
4.458560e-01 3.884728e-03
4.468397e-01 3.763732e-03
4.478221e-01 3.648480e-03
4.488032e-01 3.538612e-03
4.497829e-01 3.433795e-03
4.507612e-01 3.333720e-03
4.517381e-01 3.238104e-03
4.527136e-01 3.146683e-03
4.536878e-01 3.059214e-03
4.546606e-01 2.975470e-03
4.556320e-01 2.895242e-03
4.566020e-01 2.818332e-03
4.575707e-01 2.744560e-03
4.585379e-01 2.673755e-03
4.595037e-01 2.605759e-03
4.604682e-01 2.540425e-03
4.614312e-01 2.477613e-03
4.623928e-01 2.417196e-03
4.633531e-01 2.359051e-03
4.643119e-01 2.303065e-03
4.652693e-01 2.249132e-03
4.662252e-01 2.197151e-03
4.671798e-01 2.147030e-03
4.681329e-01 2.098679e-03
4.690847e-01 2.052015e-03
4.700349e-01 2.006960e-03
4.709838e-01 1.963441e-03
4.719312e-01 1.921388e-03
4.728772e-01 1.880735e-03
4.738217e-01 1.841421e-03
4.747648e-01 1.803385e-03
4.757064e-01 1.766575e-03
4.766466e-01 1.730936e-03
4.775854e-01 1.696419e-03
4.785227e-01 1.662978e-03
4.794585e-01 1.630567e-03
4.803929e-01 1.599144e-03
4.813258e-01 1.568670e-03
4.822572e-01 1.539106e-03
4.831872e-01 1.510416e-03
4.841157e-01 1.482566e-03
4.850427e-01 1.455522e-03
4.859683e-01 1.429255e-03
4.868924e-01 1.403733e-03
4.878149e-01 1.378929e-03
4.887360e-01 1.354816e-03
4.896557e-01 1.331369e-03
4.905738e-01 1.308563e-03
4.914904e-01 1.286374e-03
4.924055e-01 1.264780e-03
4.933192e-01 1.243760e-03
4.942313e-01 1.223294e-03
4.951419e-01 1.203362e-03
4.960510e-01 1.183946e-03
4.969586e-01 1.165028e-03
4.978647e-01 1.146590e-03
4.987693e-01 1.128617e-03
4.996723e-01 1.111094e-03
5.005738e-01 1.094004e-03
,
2.473796e-01 7.935391e-04
2.485575e-01 8.074719e-04
2.497346e-01 8.217659e-04
2.509110e-01 8.364336e-04
2.520865e-01 8.514880e-04
2.532614e-01 8.669426e-04
2.544354e-01 8.828118e-04
2.556087e-01 8.991102e-04
2.567812e-01 9.158534e-04
2.579529e-01 9.330575e-04
2.591238e-01 9.507394e-04
2.602939e-01 9.689170e-04
2.614633e-01 9.876086e-04
2.626318e-01 1.006834e-03
2.637996e-01 1.026612e-03
2.649665e-01 1.046966e-03
2.661326e-01 1.067918e-03
2.672980e-01 1.089490e-03
2.684625e-01 1.111707e-03
2.696262e-01 1.134596e-03
2.707890e-01 1.158183e-03
2.719511e-01 1.182497e-03
2.731123e-01 1.207567e-03
2.742727e-01 1.233425e-03
2.754322e-01 1.260105e-03
2.765909e-01 1.287641e-03
2.777488e-01 1.316069e-03
2.789058e-01 1.345429e-03
2.800620e-01 1.375762e-03
2.812173e-01 1.407110e-03
2.823718e-01 1.439520e-03
2.835254e-01 1.473038e-03
2.846781e-01 1.507717e-03
2.858300e-01 1.543610e-03
2.869810e-01 1.580773e-03
2.881311e-01 1.619268e-03
2.892804e-01 1.659158e-03
2.904287e-01 1.700510e-03
2.915762e-01 1.743398e-03
2.927228e-01 1.787897e-03
2.938685e-01 1.834089e-03
2.950133e-01 1.882060e-03
2.961572e-01 1.931902e-03
2.973002e-01 1.983714e-03
2.984423e-01 2.037600e-03
2.995835e-01 2.093671e-03
3.007238e-01 2.152047e-03
3.018632e-01 2.212856e-03
3.030016e-01 2.276233e-03
3.041391e-01 2.342326e-03
3.052757e-01 2.411290e-03
3.064114e-01 2.483294e-03
3.075461e-01 2.558518e-03
3.086799e-01 2.637157e-03
3.098128e-01 2.719420e-03
3.109447e-01 2.805533e-03
3.120756e-01 2.895738e-03
3.132056e-01 2.990298e-03
3.143347e-01 3.089499e-03
3.154628e-01 3.193647e-03
3.165899e-01 3.303076e-03
3.177161e-01 3.418150e-03
3.188413e-01 3.539262e-03
3.199656e-01 3.666842e-03
3.210888e-01 3.801358e-03
3.222111e-01 3.943323e-03
3.233324e-01 4.093296e-03
3.244527e-01 4.251890e-03
3.255720e-01 4.419781e-03
3.266904e-01 4.597708e-03
3.278077e-01 4.786490e-03
3.289241e-01 4.987028e-03
3.300394e-01 5.200320e-03
3.311537e-01 5.427475e-03
3.322671e-01 5.669722e-03
3.333794e-01 5.928433e-03
3.344907e-01 6.205139e-03
3.356010e-01 6.501556e-03
3.367102e-01 6.819609e-03
3.378185e-01 7.161467e-03
3.389257e-01 7.529580e-03
3.400318e-01 7.926724e-03
3.411370e-01 8.356056e-03
3.422411e-01 8.821178e-03
3.433441e-01 9.326218e-03
3.444461e-01 9.875920e-03
3.455471e-01 1.047577e-02
3.466470e-01 1.113213e-02
3.477458e-01 1.185242e-02
3.488436e-01 1.264536e-02
3.499404e-01 1.352119e-02
3.510360e-01 1.449212e-02
3.521306e-01 1.557270e-02
3.532241e-01 1.678047e-02
3.543166e-01 1.813672e-02
3.554079e-01 1.966755e-02
3.564982e-01 2.140525e-02
3.575874e-01 2.339029e-02
3.586755e-01 2.567402e-02
3.597625e-01 2.832258e-02
3.608484e-01 3.142261e-02
3.619333e-01 3.508964e-02
3.630170e-01 3.948068e-02
3.640996e-01 4.481285e-02
3.651811e-01 5.139065e-02
3.662615e-01 5.964438e-02
3.673408e-01 7.018090e-02
3.684189e-01 8.384457e-02
3.694959e-01 1.017782e-01
3.705719e-01 1.254625e-01
3.716466e-01 1.566987e-01
3.727203e-01 1.974855e-01
3.737928e-01 2.497451e-01
3.748642e-01 3.148746e-01
3.759344e-01 3.931521e-01
3.770035e-01 4.831050e-01
3.780714e-01 5.810222e-01
3.791382e-01 6.808290e-01
3.802038e-01 7.745043e-01
3.812683e-01 8.530896e-01
3.823316e-01 9.081467e-01
3.833938e-01 9.333385e-01
3.844547e-01 9.257091e-01
3.855145e-01 8.862951e-01
3.865732e-01 8.198840e-01
3.876306e-01 7.340017e-01
3.886869e-01 6.374333e-01
3.897420e-01 5.386894e-01
3.907959e-01 4.447909e-01
3.918486e-01 3.605894e-01
3.929001e-01 2.886517e-01
3.939504e-01 2.295807e-01
3.949996e-01 1.825732e-01
3.960475e-01 1.460194e-01
3.970942e-01 1.180093e-01
3.981397e-01 9.668220e-02
3.991840e-01 8.042150e-02
4.002271e-01 6.792501e-02
4.012689e-01 5.819822e-02
4.023095e-01 5.050853e-02
4.033489e-01 4.432797e-02
4.043871e-01 3.927975e-02
4.054241e-01 3.509490e-02
4.064598e-01 3.157973e-02
4.074943e-01 2.859283e-02
4.085275e-01 2.602922e-02
4.095595e-01 2.380958e-02
4.105902e-01 2.187290e-02
4.116197e-01 2.017158e-02
4.126479e-01 1.866789e-02
4.136749e-01 1.733158e-02
4.147006e-01 1.613810e-02
4.157251e-01 1.506737e-02
4.167483e-01 1.410276e-02
4.177702e-01 1.323044e-02
4.187908e-01 1.243878e-02
4.198102e-01 1.171798e-02
4.208283e-01 1.105968e-02
4.218451e-01 1.045675e-02
4.228606e-01 9.903071e-03
4.238749e-01 9.393336e-03
4.248878e-01 8.922956e-03
4.258995e-01 8.487930e-03
4.269098e-01 8.084757e-03
4.279189e-01 7.710365e-03
4.289266e-01 7.362046e-03
4.299331e-01 7.037407e-03
4.309382e-01 6.734325e-03
4.319420e-01 6.450913e-03
4.329445e-01 6.185487e-03
4.339457e-01 5.936541e-03
4.349456e-01 5.702724e-03
4.359441e-01 5.482824e-03
4.369413e-01 5.275746e-03
4.379372e-01 5.080503e-03
4.389318e-01 4.896202e-03
4.399250e-01 4.722033e-03
4.409168e-01 4.557259e-03
4.419074e-01 4.401210e-03
4.428965e-01 4.253276e-03
4.438844e-01 4.112899e-03
4.448709e-01 3.979568e-03
4.458560e-01 3.852815e-03
4.468397e-01 3.732211e-03
4.478221e-01 3.617361e-03
4.488032e-01 3.507902e-03
4.497829e-01 3.403498e-03
4.507612e-01 3.303840e-03
4.517381e-01 3.208643e-03
4.527136e-01 3.117642e-03
4.536878e-01 3.030592e-03
4.546606e-01 2.947266e-03
4.556320e-01 2.867452e-03
4.566020e-01 2.790954e-03
4.575707e-01 2.717589e-03
4.585379e-01 2.647188e-03
4.595037e-01 2.579591e-03
4.604682e-01 2.514651e-03
4.614312e-01 2.452228e-03
4.623928e-01 2.392193e-03
4.633531e-01 2.334426e-03
4.643119e-01 2.278811e-03
4.652693e-01 2.225243e-03
4.662252e-01 2.173622e-03
4.671798e-01 2.123854e-03
4.681329e-01 2.075849e-03
4.690847e-01 2.029526e-03
4.700349e-01 1.984806e-03
4.709838e-01 1.941616e-03
4.719312e-01 1.899885e-03
4.728772e-01 1.859548e-03
4.738217e-01 1.820544e-03
4.747648e-01 1.782813e-03
4.757064e-01 1.746300e-03
4.766466e-01 1.710954e-03
4.775854e-01 1.676724e-03
4.785227e-01 1.643564e-03
4.794585e-01 1.611429e-03
4.803929e-01 1.580277e-03
4.813258e-01 1.550068e-03
4.822572e-01 1.520764e-03
4.831872e-01 1.492329e-03
4.841157e-01 1.464728e-03
4.850427e-01 1.437929e-03
4.859683e-01 1.411902e-03
4.868924e-01 1.386615e-03
4.878149e-01 1.362042e-03
4.887360e-01 1.338156e-03
4.896557e-01 1.314930e-03
4.905738e-01 1.292341e-03
4.914904e-01 1.270365e-03
4.924055e-01 1.248980e-03
4.933192e-01 1.228165e-03
4.942313e-01 1.207900e-03
4.951419e-01 1.188166e-03
4.960510e-01 1.168943e-03
4.969586e-01 1.150214e-03
4.978647e-01 1.131963e-03
4.987693e-01 1.114172e-03
4.996723e-01 1.096827e-03
5.005738e-01 1.079913e-03
,
2.473796e-01 7.526395e-04
2.485575e-01 7.658599e-04
2.497346e-01 7.794233e-04
2.509110e-01 7.933413e-04
2.520865e-01 8.076265e-04
2.532614e-01 8.222916e-04
2.544354e-01 8.373502e-04
2.556087e-01 8.528163e-04
2.567812e-01 8.687046e-04
2.579529e-01 8.850305e-04
2.591238e-01 9.018101e-04
2.602939e-01 9.190600e-04
2.614633e-01 9.367981e-04
2.626318e-01 9.550426e-04
2.637996e-01 9.738128e-04
2.649665e-01 9.931290e-04
2.661326e-01 1.013012e-03
2.672980e-01 1.033485e-03
2.684625e-01 1.054571e-03
2.696262e-01 1.076294e-03
2.707890e-01 1.098679e-03
2.719511e-01 1.121755e-03
2.731123e-01 1.145549e-03
2.742727e-01 1.170092e-03
2.754322e-01 1.195414e-03
2.765909e-01 1.221549e-03
2.777488e-01 1.248532e-03
2.789058e-01 1.276399e-03
2.800620e-01 1.305190e-03
2.812173e-01 1.334946e-03
2.823718e-01 1.365708e-03
2.835254e-01 1.397525e-03
2.846781e-01 1.430443e-03
2.858300e-01 1.464513e-03
2.869810e-01 1.499791e-03
2.881311e-01 1.536332e-03
2.892804e-01 1.574199e-03
2.904287e-01 1.613455e-03
2.915762e-01 1.654168e-03
2.927228e-01 1.696412e-03
2.938685e-01 1.740264e-03
2.950133e-01 1.785805e-03
2.961572e-01 1.833124e-03
2.973002e-01 1.882313e-03
2.984423e-01 1.933472e-03
2.995835e-01 1.986706e-03
3.007238e-01 2.042130e-03
3.018632e-01 2.099864e-03
3.030016e-01 2.160038e-03
3.041391e-01 2.222791e-03
3.052757e-01 2.288272e-03
3.064114e-01 2.356640e-03
3.075461e-01 2.428066e-03
3.086799e-01 2.502737e-03
3.098128e-01 2.580849e-03
3.109447e-01 2.662619e-03
3.120756e-01 2.748275e-03
3.132056e-01 2.838069e-03
3.143347e-01 2.932271e-03
3.154628e-01 3.031172e-03
3.165899e-01 3.135090e-03
3.177161e-01 3.244370e-03
3.188413e-01 3.359385e-03
3.199656e-01 3.480545e-03
3.210888e-01 3.608294e-03
3.222111e-01 3.743118e-03
3.233324e-01 3.885550e-03
3.244527e-01 4.036171e-03
3.255720e-01 4.195622e-03
3.266904e-01 4.364607e-03
3.278077e-01 4.543902e-03
3.289241e-01 4.734364e-03
3.300394e-01 4.936941e-03
3.311537e-01 5.152684e-03
3.322671e-01 5.382761e-03
3.333794e-01 5.628474e-03
3.344907e-01 5.891278e-03
3.356010e-01 6.172799e-03
3.367102e-01 6.474865e-03
3.378185e-01 6.799534e-03
3.389257e-01 7.149130e-03
3.400318e-01 7.526286e-03
3.411370e-01 7.933996e-03
3.422411e-01 8.375674e-03
3.433441e-01 8.855233e-03
3.444461e-01 9.377168e-03
3.455471e-01 9.946673e-03
3.466470e-01 1.056977e-02
3.477458e-01 1.125349e-02
3.488436e-01 1.200606e-02
3.499404e-01 1.283719e-02
3.510360e-01 1.375838e-02
3.521306e-01 1.478337e-02
3.532241e-01 1.592871e-02
3.543166e-01 1.721442e-02
3.554079e-01 1.866506e-02
3.564982e-01 2.031092e-02
3.575874e-01 2.218991e-02
3.586755e-01 2.434999e-02
3.597625e-01 2.685275e-02
3.608484e-01 2.977862e-02
3.619333e-01 3.323443e-02
3.630170e-01 3.736495e-02
3.640996e-01 4.237003e-02
3.651811e-01 4.853013e-02
3.662615e-01 5.624315e-02
3.673408e-01 6.607483e-02
3.684189e-01 7.882181e-02
3.694959e-01 9.557972e-02
3.705719e-01 1.177960e-01
3.716466e-01 1.472715e-01
3.727203e-01 1.860592e-01
3.737928e-01 2.362038e-01
3.748642e-01 2.992875e-01
3.759344e-01 3.758018e-01
3.770035e-01 4.644509e-01
3.780714e-01 5.615864e-01
3.791382e-01 6.610224e-01
3.802038e-01 7.544488e-01
3.812683e-01 8.325102e-01
3.823316e-01 8.863991e-01
3.833938e-01 9.095905e-01
3.844547e-01 8.992291e-01
3.855145e-01 8.567489e-01
3.865732e-01 7.875306e-01
3.876306e-01 6.997145e-01
3.886869e-01 6.025408e-01
3.897420e-01 5.046980e-01
3.907959e-01 4.130854e-01
3.918486e-01 3.322025e-01
3.929001e-01 2.641525e-01
3.939504e-01 2.090845e-01
3.949996e-01 1.658383e-01
3.960475e-01 1.325818e-01
3.970942e-01 1.073112e-01
3.981397e-01 8.817060e-02
3.991840e-01 7.360653e-02
4.002271e-01 6.240477e-02
4.012689e-01 5.366005e-02
4.023095e-01 4.671756e-02
4.033489e-01 4.111137e-02
4.043871e-01 3.651128e-02
4.054241e-01 3.268207e-02
4.064598e-01 2.945404e-02
4.074943e-01 2.670279e-02
4.085275e-01 2.433538e-02
4.095595e-01 2.228119e-02
4.105902e-01 2.048560e-02
4.116197e-01 1.890574e-02
4.126479e-01 1.750750e-02
4.136749e-01 1.626343e-02
4.147006e-01 1.515117e-02
4.157251e-01 1.415237e-02
4.167483e-01 1.325181e-02
4.177702e-01 1.243680e-02
4.187908e-01 1.169666e-02
4.198102e-01 1.102234e-02
4.208283e-01 1.040614e-02
4.218451e-01 9.841491e-03
4.228606e-01 9.322706e-03
4.238749e-01 8.844890e-03
4.248878e-01 8.403784e-03
4.258995e-01 7.995678e-03
4.269098e-01 7.617321e-03
4.279189e-01 7.265857e-03
4.289266e-01 6.938770e-03
4.299331e-01 6.633831e-03
4.309382e-01 6.349065e-03
4.319420e-01 6.082712e-03
4.329445e-01 5.833203e-03
4.339457e-01 5.599132e-03
4.349456e-01 5.379240e-03
4.359441e-01 5.172394e-03
4.369413e-01 4.977572e-03
4.379372e-01 4.793850e-03
4.389318e-01 4.620395e-03
4.399250e-01 4.456448e-03
4.409168e-01 4.301321e-03
4.419074e-01 4.154387e-03
4.428965e-01 4.015073e-03
4.438844e-01 3.882858e-03
4.448709e-01 3.757263e-03
4.458560e-01 3.637849e-03
4.468397e-01 3.524215e-03
4.478221e-01 3.415989e-03
4.488032e-01 3.312832e-03
4.497829e-01 3.214429e-03
4.507612e-01 3.120490e-03
4.517381e-01 3.030747e-03
4.527136e-01 2.944951e-03
4.536878e-01 2.862873e-03
4.546606e-01 2.784299e-03
4.556320e-01 2.709030e-03
4.566020e-01 2.636883e-03
4.575707e-01 2.567686e-03
4.585379e-01 2.501279e-03
4.595037e-01 2.437512e-03
4.604682e-01 2.376247e-03
4.614312e-01 2.317353e-03
4.623928e-01 2.260709e-03
4.633531e-01 2.206199e-03
4.643119e-01 2.153719e-03
4.652693e-01 2.103166e-03
4.662252e-01 2.054448e-03
4.671798e-01 2.007475e-03
4.681329e-01 1.962166e-03
4.690847e-01 1.918440e-03
4.700349e-01 1.876226e-03
4.709838e-01 1.835453e-03
4.719312e-01 1.796057e-03
4.728772e-01 1.757974e-03
4.738217e-01 1.721148e-03
4.747648e-01 1.685523e-03
4.757064e-01 1.651046e-03
4.766466e-01 1.617669e-03
4.775854e-01 1.585346e-03
4.785227e-01 1.554031e-03
4.794585e-01 1.523682e-03
4.803929e-01 1.494261e-03
4.813258e-01 1.465730e-03
4.822572e-01 1.438052e-03
4.831872e-01 1.411194e-03
4.841157e-01 1.385123e-03
4.850427e-01 1.359809e-03
4.859683e-01 1.335222e-03
4.868924e-01 1.311335e-03
4.878149e-01 1.288121e-03
4.887360e-01 1.265555e-03
4.896557e-01 1.243612e-03
4.905738e-01 1.222270e-03
4.914904e-01 1.201507e-03
4.924055e-01 1.181302e-03
4.933192e-01 1.161635e-03
4.942313e-01 1.142487e-03
4.951419e-01 1.123839e-03
4.960510e-01 1.105675e-03
4.969586e-01 1.087977e-03
4.978647e-01 1.070729e-03
4.987693e-01 1.053917e-03
4.996723e-01 1.037525e-03
5.005738e-01 1.021540e-03
,
2.473796e-01 7.240017e-04
2.485575e-01 7.367490e-04
2.497346e-01 7.498277e-04
2.509110e-01 7.632492e-04
2.520865e-01 7.770255e-04
2.532614e-01 7.911691e-04
2.544354e-01 8.056930e-04
2.556087e-01 8.206110e-04
2.567812e-01 8.359371e-04
2.579529e-01 8.516864e-04
2.591238e-01 8.678743e-04
2.602939e-01 8.845172e-04
2.614633e-01 9.016322e-04
2.626318e-01 9.192370e-04
2.637996e-01 9.373504e-04
2.649665e-01 9.559920e-04
2.661326e-01 9.751823e-04
2.672980e-01 9.949430e-04
2.684625e-01 1.015297e-03
2.696262e-01 1.036267e-03
2.707890e-01 1.057879e-03
2.719511e-01 1.080159e-03
2.731123e-01 1.103134e-03
2.742727e-01 1.126834e-03
2.754322e-01 1.151289e-03
2.765909e-01 1.176531e-03
2.777488e-01 1.202594e-03
2.789058e-01 1.229513e-03
2.800620e-01 1.257328e-03
2.812173e-01 1.286076e-03
2.823718e-01 1.315801e-03
2.835254e-01 1.346547e-03
2.846781e-01 1.378360e-03
2.858300e-01 1.411290e-03
2.869810e-01 1.445390e-03
2.881311e-01 1.480716e-03
2.892804e-01 1.517326e-03
2.904287e-01 1.555284e-03
2.915762e-01 1.594655e-03
2.927228e-01 1.635510e-03
2.938685e-01 1.677926e-03
2.950133e-01 1.721980e-03
2.961572e-01 1.767759e-03
2.973002e-01 1.815353e-03
2.984423e-01 1.864859e-03
2.995835e-01 1.916380e-03
3.007238e-01 1.970027e-03
3.018632e-01 2.025917e-03
3.030016e-01 2.084177e-03
3.041391e-01 2.144941e-03
3.052757e-01 2.208355e-03
3.064114e-01 2.274575e-03
3.075461e-01 2.343768e-03
3.086799e-01 2.416113e-03
3.098128e-01 2.491804e-03
3.109447e-01 2.571051e-03
3.120756e-01 2.654078e-03
3.132056e-01 2.741130e-03
3.143347e-01 2.832469e-03
3.154628e-01 2.928381e-03
3.165899e-01 3.029175e-03
3.177161e-01 3.135189e-03
3.188413e-01 3.246787e-03
3.199656e-01 3.364367e-03
3.210888e-01 3.488366e-03
3.222111e-01 3.619256e-03
3.233324e-01 3.757559e-03
3.244527e-01 3.903844e-03
3.255720e-01 4.058736e-03
3.266904e-01 4.222924e-03
3.278077e-01 4.397166e-03
3.289241e-01 4.582300e-03
3.300394e-01 4.779255e-03
3.311537e-01 4.989058e-03
3.322671e-01 5.212853e-03
3.333794e-01 5.451914e-03
3.344907e-01 5.707664e-03
3.356010e-01 5.981696e-03
3.367102e-01 6.275802e-03
3.378185e-01 6.591995e-03
3.389257e-01 6.932552e-03
3.400318e-01 7.300053e-03
3.411370e-01 7.697430e-03
3.422411e-01 8.128029e-03
3.433441e-01 8.595682e-03
3.444461e-01 9.104794e-03
3.455471e-01 9.660453e-03
3.466470e-01 1.026856e-02
3.477458e-01 1.093599e-02
3.488436e-01 1.167081e-02
3.499404e-01 1.248250e-02
3.510360e-01 1.338232e-02
3.521306e-01 1.438370e-02
3.532241e-01 1.550277e-02
3.543166e-01 1.675908e-02
3.554079e-01 1.817649e-02
3.564982e-01 1.978445e-02
3.575874e-01 2.161963e-02
3.586755e-01 2.372833e-02
3.597625e-01 2.616968e-02
3.608484e-01 2.902049e-02
3.619333e-01 3.238214e-02
3.630170e-01 3.639104e-02
3.640996e-01 4.123440e-02
3.651811e-01 4.717408e-02
3.662615e-01 5.458206e-02
3.673408e-01 6.399123e-02
3.684189e-01 7.616302e-02
3.694959e-01 9.216704e-02
3.705719e-01 1.134548e-01
3.716466e-01 1.418888e-01
3.727203e-01 1.796646e-01
3.737928e-01 2.290515e-01
3.748642e-01 2.918898e-01
3.759344e-01 3.688531e-01
3.770035e-01 4.585952e-01
3.780714e-01 5.570390e-01
3.791382e-01 6.571467e-01
3.802038e-01 7.494672e-01
3.812683e-01 8.235466e-01
3.823316e-01 8.699596e-01
3.833938e-01 8.824131e-01
3.844547e-01 8.592512e-01
3.855145e-01 8.038455e-01
3.865732e-01 7.237378e-01
3.876306e-01 6.288477e-01
3.886869e-01 5.293508e-01
3.897420e-01 4.338667e-01
3.907959e-01 3.483825e-01
3.918486e-01 2.760116e-01
3.929001e-01 2.174109e-01
3.939504e-01 1.715406e-01
3.949996e-01 1.364623e-01
3.960475e-01 1.099794e-01
3.970942e-01 9.004476e-02
3.981397e-01 7.495479e-02
3.991840e-01 6.339314e-02
4.002271e-01 5.439130e-02
4.012689e-01 4.725759e-02
4.023095e-01 4.150489e-02
4.033489e-01 3.679053e-02
4.043871e-01 3.287133e-02
4.054241e-01 2.957215e-02
4.064598e-01 2.676454e-02
4.074943e-01 2.435250e-02
4.085275e-01 2.226298e-02
4.095595e-01 2.043946e-02
4.105902e-01 1.883759e-02
4.116197e-01 1.742208e-02
4.126479e-01 1.616452e-02
4.136749e-01 1.504183e-02
4.147006e-01 1.403506e-02
4.157251e-01 1.312852e-02
4.167483e-01 1.230915e-02
4.177702e-01 1.156595e-02
4.187908e-01 1.088963e-02
4.198102e-01 1.027231e-02
4.208283e-01 9.707222e-03
4.218451e-01 9.188575e-03
4.228606e-01 8.711353e-03
4.238749e-01 8.271213e-03
4.248878e-01 7.864367e-03
4.258995e-01 7.487507e-03
4.269098e-01 7.137725e-03
4.279189e-01 6.812465e-03
4.289266e-01 6.509463e-03
4.299331e-01 6.226715e-03
4.309382e-01 5.962439e-03
4.319420e-01 5.715046e-03
4.329445e-01 5.483115e-03
4.339457e-01 5.265373e-03
4.349456e-01 5.060675e-03
4.359441e-01 4.867992e-03
4.369413e-01 4.686393e-03
4.379372e-01 4.515036e-03
4.389318e-01 4.353161e-03
4.399250e-01 4.200074e-03
4.409168e-01 4.055146e-03
4.419074e-01 3.917801e-03
4.428965e-01 3.787517e-03
4.438844e-01 3.663813e-03
4.448709e-01 3.546250e-03
4.458560e-01 3.434426e-03
4.468397e-01 3.327969e-03
4.478221e-01 3.226539e-03
4.488032e-01 3.129822e-03
4.497829e-01 3.037528e-03
4.507612e-01 2.949390e-03
4.517381e-01 2.865160e-03
4.527136e-01 2.784608e-03
4.536878e-01 2.707521e-03
4.546606e-01 2.633703e-03
4.556320e-01 2.562970e-03
4.566020e-01 2.495150e-03
4.575707e-01 2.430085e-03
4.585379e-01 2.367626e-03
4.595037e-01 2.307635e-03
4.604682e-01 2.249983e-03
4.614312e-01 2.194548e-03
4.623928e-01 2.141218e-03
4.633531e-01 2.089887e-03
4.643119e-01 2.040454e-03
4.652693e-01 1.992827e-03
4.662252e-01 1.946919e-03
4.671798e-01 1.902647e-03
4.681329e-01 1.859933e-03
4.690847e-01 1.818705e-03
4.700349e-01 1.778894e-03
4.709838e-01 1.740435e-03
4.719312e-01 1.703267e-03
4.728772e-01 1.667333e-03
4.738217e-01 1.632579e-03
4.747648e-01 1.598952e-03
4.757064e-01 1.566404e-03
4.766466e-01 1.534890e-03
4.775854e-01 1.504365e-03
4.785227e-01 1.474788e-03
4.794585e-01 1.446120e-03
4.803929e-01 1.418324e-03
4.813258e-01 1.391364e-03
4.822572e-01 1.365207e-03
4.831872e-01 1.339822e-03
4.841157e-01 1.315178e-03
4.850427e-01 1.291245e-03
4.859683e-01 1.267998e-03
4.868924e-01 1.245409e-03
4.878149e-01 1.223454e-03
4.887360e-01 1.202109e-03
4.896557e-01 1.181352e-03
4.905738e-01 1.161161e-03
4.914904e-01 1.141515e-03
4.924055e-01 1.122395e-03
4.933192e-01 1.103782e-03
4.942313e-01 1.085658e-03
4.951419e-01 1.068007e-03
4.960510e-01 1.050811e-03
4.969586e-01 1.034054e-03
4.978647e-01 1.017723e-03
4.987693e-01 1.001803e-03
4.996723e-01 9.862791e-04
5.005738e-01 9.711391e-04
,
2.473796e-01 6.758863e-04
2.485575e-01 6.878506e-04
2.497346e-01 7.001277e-04
2.509110e-01 7.127283e-04
2.520865e-01 7.256639e-04
2.532614e-01 7.389463e-04
2.544354e-01 7.525879e-04
2.556087e-01 7.666017e-04
2.567812e-01 7.810011e-04
2.579529e-01 7.958004e-04
2.591238e-01 8.110143e-04
2.602939e-01 8.266582e-04
2.614633e-01 8.427485e-04
2.626318e-01 8.593021e-04
2.637996e-01 8.763368e-04
2.649665e-01 8.938713e-04
2.661326e-01 9.119251e-04
2.672980e-01 9.305187e-04
2.684625e-01 9.496737e-04
2.696262e-01 9.694128e-04
2.707890e-01 9.897597e-04
2.719511e-01 1.010739e-03
2.731123e-01 1.032378e-03
2.742727e-01 1.054704e-03
2.754322e-01 1.077746e-03
2.765909e-01 1.101534e-03
2.777488e-01 1.126101e-03
2.789058e-01 1.151481e-03
2.800620e-01 1.177711e-03
2.812173e-01 1.204827e-03
2.823718e-01 1.232871e-03
2.835254e-01 1.261885e-03
2.846781e-01 1.291913e-03
2.858300e-01 1.323004e-03
2.869810e-01 1.355207e-03
2.881311e-01 1.388575e-03
2.892804e-01 1.423167e-03
2.904287e-01 1.459041e-03
2.915762e-01 1.496261e-03
2.927228e-01 1.534895e-03
2.938685e-01 1.575015e-03
2.950133e-01 1.616699e-03
2.961572e-01 1.660027e-03
2.973002e-01 1.705087e-03
2.984423e-01 1.751971e-03
2.995835e-01 1.800780e-03
3.007238e-01 1.851619e-03
3.018632e-01 1.904602e-03
3.030016e-01 1.959851e-03
3.041391e-01 2.017496e-03
3.052757e-01 2.077676e-03
3.064114e-01 2.140542e-03
3.075461e-01 2.206256e-03
3.086799e-01 2.274992e-03
3.098128e-01 2.346935e-03
3.109447e-01 2.422290e-03
3.120756e-01 2.501274e-03
3.132056e-01 2.584122e-03
3.143347e-01 2.671090e-03
3.154628e-01 2.762456e-03
3.165899e-01 2.858519e-03
3.177161e-01 2.959606e-03
3.188413e-01 3.066072e-03
3.199656e-01 3.178306e-03
3.210888e-01 3.296731e-03
3.222111e-01 3.421808e-03
3.233324e-01 3.554045e-03
3.244527e-01 3.693998e-03
3.255720e-01 3.842279e-03
3.266904e-01 3.999559e-03
3.278077e-01 4.166583e-03
3.289241e-01 4.344170e-03
3.300394e-01 4.533230e-03
3.311537e-01 4.734774e-03
3.322671e-01 4.949924e-03
3.333794e-01 5.179935e-03
3.344907e-01 5.426208e-03
3.356010e-01 5.690314e-03
3.367102e-01 5.974020e-03
3.378185e-01 6.279319e-03
3.389257e-01 6.608465e-03
3.400318e-01 6.964013e-03
3.411370e-01 7.348874e-03
3.422411e-01 7.766375e-03
3.433441e-01 8.220329e-03
3.444461e-01 8.715128e-03
3.455471e-01 9.255854e-03
3.466470e-01 9.848408e-03
3.477458e-01 1.049968e-02
3.488436e-01 1.121776e-02
3.499404e-01 1.201219e-02
3.510360e-01 1.289431e-02
3.521306e-01 1.387767e-02
3.532241e-01 1.497858e-02
3.543166e-01 1.621684e-02
3.554079e-01 1.761667e-02
3.564982e-01 1.920800e-02
3.575874e-01 2.102819e-02
3.586755e-01 2.312443e-02
3.597625e-01 2.555712e-02
3.608484e-01 2.840473e-02
3.619333e-01 3.177086e-02
3.630170e-01 3.579494e-02
3.640996e-01 4.066835e-02
3.651811e-01 4.665905e-02
3.662615e-01 5.414880e-02
3.673408e-01 6.368753e-02
3.684189e-01 7.606747e-02
3.694959e-01 9.241265e-02
3.705719e-01 1.142626e-01
3.716466e-01 1.436028e-01
3.727203e-01 1.827611e-01
3.737928e-01 2.340727e-01
3.748642e-01 2.992402e-01
3.759344e-01 3.784152e-01
3.770035e-01 4.692008e-01
3.780714e-01 5.659523e-01
3.791382e-01 6.598323e-01
3.802038e-01 7.399335e-01
3.812683e-01 7.953999e-01
3.823316e-01 8.180014e-01
3.833938e-01 8.042947e-01
3.844547e-01 7.565547e-01
3.855145e-01 6.821150e-01
3.865732e-01 5.913905e-01
3.876306e-01 4.953431e-01
3.886869e-01 4.032625e-01
3.897420e-01 3.214622e-01
3.907959e-01 2.530288e-01
3.918486e-01 1.983764e-01
3.929001e-01 1.561760e-01
3.939504e-01 1.242758e-01
3.949996e-01 1.003861e-01
3.960475e-01 8.247288e-02
3.970942e-01 6.891075e-02
3.981397e-01 5.848576e-02
3.991840e-01 5.032795e-02
4.002271e-01 4.382701e-02
4.012689e-01 3.855706e-02
4.023095e-01 3.421895e-02
4.033489e-01 3.059957e-02
4.043871e-01 2.754426e-02
4.054241e-01 2.493865e-02
4.064598e-01 2.269654e-02
4.074936e-01 2.075299e-02
4.085275e-01 1.905318e-02
4.095595e-01 1.755994e-02
4.105902e-01 1.623973e-02
4.116197e-01 1.506639e-02
4.126479e-01 1.401860e-02
4.136749e-01 1.307880e-02
4.147006e-01 1.223246e-02
4.157251e-01 1.146743e-02
4.167483e-01 1.077350e-02
4.177702e-01 1.014201e-02
4.187908e-01 9.565621e-03
4.198102e-01 9.038030e-03
4.208283e-01 8.553826e-03
4.218451e-01 8.108332e-03
4.228606e-01 7.697490e-03
4.238749e-01 7.317765e-03
4.248878e-01 6.966063e-03
4.258995e-01 6.639670e-03
4.269098e-01 6.336193e-03
4.279189e-01 6.053519e-03
4.289266e-01 5.789772e-03
4.299331e-01 5.543286e-03
4.309382e-01 5.312576e-03
4.319420e-01 5.096313e-03
4.329445e-01 4.893306e-03
4.339457e-01 4.702484e-03
4.349456e-01 4.522886e-03
4.359441e-01 4.353640e-03
4.369413e-01 4.193960e-03
4.379372e-01 4.043133e-03
4.389318e-01 3.900513e-03
4.399250e-01 3.765509e-03
4.409168e-01 3.637586e-03
4.419074e-01 3.516252e-03
4.428965e-01 3.401060e-03
4.438844e-01 3.291599e-03
4.448709e-01 3.187493e-03
4.458560e-01 3.088395e-03
4.468397e-01 2.993986e-03
4.478221e-01 2.903974e-03
4.488032e-01 2.818088e-03
4.497829e-01 2.736077e-03
4.507612e-01 2.657711e-03
4.517381e-01 2.582774e-03
4.527136e-01 2.511068e-03
4.536878e-01 2.442409e-03
4.546606e-01 2.376626e-03
4.556320e-01 2.313558e-03
4.566020e-01 2.253057e-03
4.575707e-01 2.194985e-03
4.585379e-01 2.139213e-03
4.595037e-01 2.085619e-03
4.604682e-01 2.034092e-03
4.614312e-01 1.984525e-03
4.623928e-01 1.936819e-03
4.633531e-01 1.890882e-03
4.643119e-01 1.846627e-03
4.652693e-01 1.803972e-03
4.662252e-01 1.762839e-03
4.671798e-01 1.723158e-03
4.681329e-01 1.684860e-03
4.690847e-01 1.647882e-03
4.700349e-01 1.612161e-03
4.709838e-01 1.577643e-03
4.719312e-01 1.544273e-03
4.728772e-01 1.512000e-03
4.738217e-01 1.480776e-03
4.747648e-01 1.450556e-03
4.757064e-01 1.421298e-03
4.766466e-01 1.392960e-03
4.775854e-01 1.365504e-03
4.785227e-01 1.338893e-03
4.794585e-01 1.313093e-03
4.803929e-01 1.288072e-03
4.813258e-01 1.263797e-03
4.822572e-01 1.240239e-03
4.831872e-01 1.217370e-03
4.841157e-01 1.195163e-03
4.850427e-01 1.173593e-03
4.859683e-01 1.152635e-03
4.868924e-01 1.132266e-03
4.878149e-01 1.112464e-03
4.887360e-01 1.093209e-03
4.896557e-01 1.074479e-03
4.905738e-01 1.056257e-03
4.914904e-01 1.038523e-03
4.924055e-01 1.021260e-03
4.933192e-01 1.004452e-03
4.942313e-01 9.880820e-04
4.951419e-01 9.721355e-04
4.960510e-01 9.565978e-04
4.969586e-01 9.414549e-04
4.978647e-01 9.266934e-04
4.987693e-01 9.123004e-04
4.996723e-01 8.982638e-04
5.005738e-01 8.845718e-04
,
2.473796e-01 6.451347e-04
2.485575e-01 6.565995e-04
2.497346e-01 6.683652e-04
2.509110e-01 6.804422e-04
2.520865e-01 6.928415e-04
2.532614e-01 7.055747e-04
2.544354e-01 7.186535e-04
2.556087e-01 7.320907e-04
2.567812e-01 7.458992e-04
2.579529e-01 7.600927e-04
2.591238e-01 7.746855e-04
2.602939e-01 7.896927e-04
2.614633e-01 8.051298e-04
2.626318e-01 8.210134e-04
2.637996e-01 8.373606e-04
2.649665e-01 8.541895e-04
2.661326e-01 8.715191e-04
2.672980e-01 8.893692e-04
2.684625e-01 9.077608e-04
2.696262e-01 9.267156e-04
2.707890e-01 9.462568e-04
2.719511e-01 9.664087e-04
2.731123e-01 9.871966e-04
2.742727e-01 1.008647e-03
2.754322e-01 1.030789e-03
2.765909e-01 1.053653e-03
2.777488e-01 1.077268e-03
2.789058e-01 1.101669e-03
2.800620e-01 1.126890e-03
2.812173e-01 1.152969e-03
2.823718e-01 1.179944e-03
2.835254e-01 1.207856e-03
2.846781e-01 1.236750e-03
2.858300e-01 1.266671e-03
2.869810e-01 1.297669e-03
2.881311e-01 1.329795e-03
2.892804e-01 1.363104e-03
2.904287e-01 1.397655e-03
2.915762e-01 1.433509e-03
2.927228e-01 1.470734e-03
2.938685e-01 1.509398e-03
2.950133e-01 1.549578e-03
2.961572e-01 1.591352e-03
2.973002e-01 1.634805e-03
2.984423e-01 1.680029e-03
2.995835e-01 1.727120e-03
3.007238e-01 1.776182e-03
3.018632e-01 1.827325e-03
3.030016e-01 1.880669e-03
3.041391e-01 1.936340e-03
3.052757e-01 1.994476e-03
3.064114e-01 2.055224e-03
3.075461e-01 2.118741e-03
3.086799e-01 2.185198e-03
3.098128e-01 2.254778e-03
3.109447e-01 2.327679e-03
3.120756e-01 2.404115e-03
3.132056e-01 2.484317e-03
3.143347e-01 2.568536e-03
3.154628e-01 2.657043e-03
3.165899e-01 2.750134e-03
3.177161e-01 2.848129e-03
3.188413e-01 2.951379e-03
3.199656e-01 3.060263e-03
3.210888e-01 3.175200e-03
3.222111e-01 3.296643e-03
3.233324e-01 3.425094e-03
3.244527e-01 3.561100e-03
3.255720e-01 3.705265e-03
3.266904e-01 3.858252e-03
3.278077e-01 4.020795e-03
3.289241e-01 4.193707e-03
3.300394e-01 4.377887e-03
3.311537e-01 4.574335e-03
3.322671e-01 4.784165e-03
3.333794e-01 5.008620e-03
3.344907e-01 5.249091e-03
3.356010e-01 5.507139e-03
3.367102e-01 5.784522e-03
3.378185e-01 6.083222e-03
3.389257e-01 6.405484e-03
3.400318e-01 6.753858e-03
3.411370e-01 7.131248e-03
3.422411e-01 7.540979e-03
3.433441e-01 7.986866e-03
3.444461e-01 8.473307e-03
3.455471e-01 9.005396e-03
3.466470e-01 9.589058e-03
3.477458e-01 1.023122e-02
3.488436e-01 1.094002e-02
3.499404e-01 1.172507e-02
3.510360e-01 1.259781e-02
3.521306e-01 1.357194e-02
3.532241e-01 1.466396e-02
3.543166e-01 1.589391e-02
3.554079e-01 1.728638e-02
3.564982e-01 1.887176e-02
3.575874e-01 2.068804e-02
3.586755e-01 2.278326e-02
3.597625e-01 2.521896e-02
3.608484e-01 2.807511e-02
3.619333e-01 3.145735e-02
3.630170e-01 3.550780e-02
3.640996e-01 4.042144e-02
3.651811e-01 4.647137e-02
3.662615e-01 5.404712e-02
3.673408e-01 6.371170e-02
3.684189e-01 7.628089e-02
3.694959e-01 9.292105e-02
3.705719e-01 1.152425e-01
3.716466e-01 1.453328e-01
3.727203e-01 1.856317e-01
3.737928e-01 2.385274e-01
3.748642e-01 3.055867e-01
3.759344e-01 3.864701e-01
3.770035e-01 4.778127e-01
3.780714e-01 5.725808e-01
3.791382e-01 6.604641e-01
3.802038e-01 7.295918e-01
3.812683e-01 7.692893e-01
3.823316e-01 7.729921e-01
3.833938e-01 7.401772e-01
3.844547e-01 6.764941e-01
3.855145e-01 5.920500e-01
3.865732e-01 4.985949e-01
3.876306e-01 4.067211e-01
3.886869e-01 3.240007e-01
3.897420e-01 2.544075e-01
3.907959e-01 1.988079e-01
3.918486e-01 1.559968e-01
3.929001e-01 1.237730e-01
3.939504e-01 9.974565e-02
3.949996e-01 8.179281e-02
3.960475e-01 6.823339e-02
3.970942e-01 5.782533e-02
3.981397e-01 4.968751e-02
3.991840e-01 4.320651e-02
4.002271e-01 3.795622e-02
4.012689e-01 3.363785e-02
4.023095e-01 3.003849e-02
4.033489e-01 2.700345e-02
4.043871e-01 2.441821e-02
4.054241e-01 2.219635e-02
4.064598e-01 2.027161e-02
4.074943e-01 1.859240e-02
4.085275e-01 1.711802e-02
4.095595e-01 1.581599e-02
4.105902e-01 1.466009e-02
4.116197e-01 1.362897e-02
4.126479e-01 1.270508e-02
4.136749e-01 1.187388e-02
4.147006e-01 1.112324e-02
4.157251e-01 1.044298e-02
4.167483e-01 9.824469e-03
4.177702e-01 9.260388e-03
4.187908e-01 8.744472e-03
4.198102e-01 8.271342e-03
4.208283e-01 7.836354e-03
4.218451e-01 7.435481e-03
4.228606e-01 7.065217e-03
4.238749e-01 6.722499e-03
4.248878e-01 6.404639e-03
4.258995e-01 6.109272e-03
4.269098e-01 5.834308e-03
4.279189e-01 5.577897e-03
4.289266e-01 5.338394e-03
4.299331e-01 5.114334e-03
4.309382e-01 4.904407e-03
4.319420e-01 4.707442e-03
4.329445e-01 4.522384e-03
4.339457e-01 4.348288e-03
4.349456e-01 4.184297e-03
4.359441e-01 4.029639e-03
4.369413e-01 3.883615e-03
4.379372e-01 3.745589e-03
4.389318e-01 3.614983e-03
4.399250e-01 3.491271e-03
4.409168e-01 3.373974e-03
4.419074e-01 3.262653e-03
4.428965e-01 3.156904e-03
4.438844e-01 3.056361e-03
4.448709e-01 2.960685e-03
4.458560e-01 2.869564e-03
4.468397e-01 2.782713e-03
4.478221e-01 2.699865e-03
4.488032e-01 2.620778e-03
4.497829e-01 2.545226e-03
4.507612e-01 2.473000e-03
4.517381e-01 2.403905e-03
4.527136e-01 2.337763e-03
4.536878e-01 2.274406e-03
4.546606e-01 2.213679e-03
4.556320e-01 2.155438e-03
4.566020e-01 2.099547e-03
4.575707e-01 2.045881e-03
4.585379e-01 1.994323e-03
4.595037e-01 1.944763e-03
4.604682e-01 1.897098e-03
4.614312e-01 1.851232e-03
4.623928e-01 1.807076e-03
4.633531e-01 1.764544e-03
4.643119e-01 1.723557e-03
4.652693e-01 1.684041e-03
4.662252e-01 1.645926e-03
4.671798e-01 1.609146e-03
4.681329e-01 1.573639e-03
4.690847e-01 1.539346e-03
4.700349e-01 1.506212e-03
4.709838e-01 1.474185e-03
4.719312e-01 1.443217e-03
4.728772e-01 1.413260e-03
4.738217e-01 1.384270e-03
4.747648e-01 1.356207e-03
4.757064e-01 1.329031e-03
4.766466e-01 1.302704e-03
4.775854e-01 1.277191e-03
4.785227e-01 1.252459e-03
4.794585e-01 1.228476e-03
4.803929e-01 1.205212e-03
4.813258e-01 1.182638e-03
4.822572e-01 1.160727e-03
4.831872e-01 1.139452e-03
4.841157e-01 1.118791e-03
4.850427e-01 1.098718e-03
4.859683e-01 1.079212e-03
4.868924e-01 1.060251e-03
4.878149e-01 1.041815e-03
4.887360e-01 1.023884e-03
4.896557e-01 1.006441e-03
4.905738e-01 9.894674e-04
4.914904e-01 9.729465e-04
4.924055e-01 9.568622e-04
4.933192e-01 9.411991e-04
4.942313e-01 9.259427e-04
4.951419e-01 9.110787e-04
4.960510e-01 8.965938e-04
4.969586e-01 8.824750e-04
4.978647e-01 8.687101e-04
4.987693e-01 8.552872e-04
4.996723e-01 8.421950e-04
5.005738e-01 8.294226e-04
,
2.473796e-01 6.164485e-04
2.485575e-01 6.274678e-04
2.497346e-01 6.387779e-04
2.509110e-01 6.503892e-04
2.520865e-01 6.623122e-04
2.532614e-01 6.745582e-04
2.544354e-01 6.871387e-04
2.556087e-01 7.000660e-04
2.567812e-01 7.133528e-04
2.579529e-01 7.270124e-04
2.591238e-01 7.410587e-04
2.602939e-01 7.555065e-04
2.614633e-01 7.703709e-04
2.626318e-01 7.856679e-04
2.637996e-01 8.014145e-04
2.649665e-01 8.176282e-04
2.661326e-01 8.343275e-04
2.672980e-01 8.515318e-04
2.684625e-01 8.692615e-04
2.696262e-01 8.875380e-04
2.707890e-01 9.063839e-04
2.719511e-01 9.258228e-04
2.731123e-01 9.458798e-04
2.742727e-01 9.665809e-04
2.754322e-01 9.879540e-04
2.765909e-01 1.010028e-03
2.777488e-01 1.032834e-03
2.789058e-01 1.056404e-03
2.800620e-01 1.080773e-03
2.812173e-01 1.105976e-03
2.823718e-01 1.132053e-03
2.835254e-01 1.159043e-03
2.846781e-01 1.186989e-03
2.858300e-01 1.215937e-03
2.869810e-01 1.245935e-03
2.881311e-01 1.277033e-03
2.892804e-01 1.309287e-03
2.904287e-01 1.342753e-03
2.915762e-01 1.377492e-03
2.927228e-01 1.413570e-03
2.938685e-01 1.451056e-03
2.950133e-01 1.490024e-03
2.961572e-01 1.530552e-03
2.973002e-01 1.572724e-03
2.984423e-01 1.616629e-03
2.995835e-01 1.662365e-03
3.007238e-01 1.710032e-03
3.018632e-01 1.759740e-03
3.030016e-01 1.811608e-03
3.041391e-01 1.865761e-03
3.052757e-01 1.922336e-03
3.064114e-01 1.981477e-03
3.075461e-01 2.043341e-03
3.086799e-01 2.108099e-03
3.098128e-01 2.175931e-03
3.109447e-01 2.247035e-03
3.120756e-01 2.321623e-03
3.132056e-01 2.399927e-03
3.143347e-01 2.482195e-03
3.154628e-01 2.568700e-03
3.165899e-01 2.659735e-03
3.177161e-01 2.755622e-03
3.188413e-01 2.856710e-03
3.199656e-01 2.963381e-03
3.210888e-01 3.076053e-03
3.222111e-01 3.195182e-03
3.233324e-01 3.321271e-03
3.244527e-01 3.454870e-03
3.255720e-01 3.596586e-03
3.266904e-01 3.747090e-03
3.278077e-01 3.907122e-03
3.289241e-01 4.077501e-03
3.300394e-01 4.259137e-03
3.311537e-01 4.453042e-03
3.322671e-01 4.660347e-03
3.333794e-01 4.882314e-03
3.344907e-01 5.120356e-03
3.356010e-01 5.376065e-03
3.367102e-01 5.651232e-03
3.378185e-01 5.947883e-03
3.389257e-01 6.268315e-03
3.400318e-01 6.615143e-03
3.411370e-01 6.991350e-03
3.422411e-01 7.400356e-03
3.433441e-01 7.846096e-03
3.444461e-01 8.333117e-03
3.455471e-01 8.866691e-03
3.466470e-01 9.452970e-03
3.477458e-01 1.009916e-02
3.488436e-01 1.081375e-02
3.499404e-01 1.160680e-02
3.510360e-01 1.249031e-02
3.521306e-01 1.347868e-02
3.532241e-01 1.458932e-02
3.543166e-01 1.584346e-02
3.554079e-01 1.726720e-02
3.564982e-01 1.889294e-02
3.575874e-01 2.076132e-02
3.586755e-01 2.292391e-02
3.597625e-01 2.544704e-02
3.608484e-01 2.841720e-02
3.619333e-01 3.194911e-02
3.630170e-01 3.619756e-02
3.640996e-01 4.137563e-02
3.651811e-01 4.778242e-02
3.662615e-01 5.584537e-02
3.673408e-01 6.618261e-02
3.684189e-01 7.968860e-02
3.694959e-01 9.763548e-02
3.705719e-01 1.217579e-01
3.716466e-01 1.542466e-01
3.727203e-01 1.975285e-01
3.737928e-01 2.536966e-01
3.748642e-01 3.235307e-01
3.759344e-01 4.052631e-01
3.770035e-01 4.935442e-01
3.780714e-01 5.792727e-01
3.791382e-01 6.508369e-01
3.802038e-01 6.967578e-01
3.812683e-01 7.089438e-01
3.823316e-01 6.852397e-01
3.833938e-01 6.301129e-01
3.844547e-01 5.531611e-01
3.855145e-01 4.661571e-01
3.865732e-01 3.799325e-01
3.876306e-01 3.022479e-01
3.886869e-01 2.371201e-01
3.897420e-01 1.853594e-01
3.907959e-01 1.457009e-01
3.918486e-01 1.159435e-01
3.929001e-01 9.376634e-02
3.939504e-01 7.716031e-02
3.949996e-01 6.456674e-02
3.960475e-01 5.485159e-02
3.970942e-01 4.721756e-02
3.981397e-01 4.111104e-02
3.991840e-01 3.614646e-02
4.002271e-01 3.205184e-02
4.012689e-01 2.863190e-02
4.023095e-01 2.574375e-02
4.033489e-01 2.328088e-02
4.043871e-01 2.116247e-02
4.054241e-01 1.932626e-02
4.064598e-01 1.772363e-02
4.074943e-01 1.631609e-02
4.085275e-01 1.507286e-02
4.095595e-01 1.396904e-02
4.105902e-01 1.298433e-02
4.116197e-01 1.210203e-02
4.126479e-01 1.130827e-02
4.136749e-01 1.059149e-02
4.147006e-01 9.941963e-03
4.157251e-01 9.351461e-03
4.167483e-01 8.812985e-03
4.177702e-01 8.320551e-03
4.187908e-01 7.869016e-03
4.198102e-01 7.453939e-03
4.208283e-01 7.071471e-03
4.218451e-01 6.718258e-03
4.228606e-01 6.391372e-03
4.238749e-01 6.088240e-03
4.248878e-01 5.806601e-03
4.258995e-01 5.544457e-03
4.269098e-01 5.300036e-03
4.279189e-01 5.071766e-03
4.289266e-01 4.858246e-03
4.299331e-01 4.658223e-03
4.309382e-01 4.470577e-03
4.319420e-01 4.294299e-03
4.329445e-01 4.128486e-03
4.339457e-01 3.972318e-03
4.349456e-01 3.825058e-03
4.359441e-01 3.686036e-03
4.369413e-01 3.554645e-03
4.379372e-01 3.430334e-03
4.389318e-01 3.312600e-03
4.399250e-01 3.200984e-03
4.409168e-01 3.095066e-03
4.419074e-01 2.994462e-03
4.428965e-01 2.898822e-03
4.438844e-01 2.807821e-03
4.448709e-01 2.721162e-03
4.458560e-01 2.638573e-03
4.468397e-01 2.559799e-03
4.478221e-01 2.484609e-03
4.488032e-01 2.412786e-03
4.497829e-01 2.344132e-03
4.507612e-01 2.278461e-03
4.517381e-01 2.215602e-03
4.527136e-01 2.155396e-03
4.536878e-01 2.097695e-03
4.546606e-01 2.042360e-03
4.556320e-01 1.989263e-03
4.566020e-01 1.938284e-03
4.575707e-01 1.889311e-03
4.585379e-01 1.842240e-03
4.595037e-01 1.796973e-03
4.604682e-01 1.753418e-03
4.614312e-01 1.711489e-03
4.623928e-01 1.671106e-03
4.633531e-01 1.632193e-03
4.643119e-01 1.594679e-03
4.652693e-01 1.558498e-03
4.662252e-01 1.523586e-03
4.671798e-01 1.489885e-03
4.681329e-01 1.457339e-03
4.690847e-01 1.425895e-03
4.700349e-01 1.395503e-03
4.709838e-01 1.366118e-03
4.719312e-01 1.337694e-03
4.728772e-01 1.310190e-03
4.738217e-01 1.283567e-03
4.747648e-01 1.257786e-03
4.757064e-01 1.232812e-03
4.766466e-01 1.208613e-03
4.775854e-01 1.185155e-03
4.785227e-01 1.162409e-03
4.794585e-01 1.140346e-03
4.803929e-01 1.118939e-03
4.813258e-01 1.098161e-03
4.822572e-01 1.077989e-03
4.831872e-01 1.058398e-03
4.841157e-01 1.039366e-03
4.850427e-01 1.020873e-03
4.859683e-01 1.002898e-03
4.868924e-01 9.854207e-04
4.878149e-01 9.684239e-04
4.887360e-01 9.518897e-04
4.896557e-01 9.358014e-04
4.905738e-01 9.201428e-04
4.914904e-01 9.048988e-04
4.924055e-01 8.900547e-04
4.933192e-01 8.755966e-04
4.942313e-01 8.615110e-04
4.951419e-01 8.477852e-04
4.960510e-01 8.344069e-04
4.969586e-01 8.213645e-04
4.978647e-01 8.086466e-04
4.987693e-01 7.962426e-04
4.996723e-01 7.841420e-04
5.005738e-01 7.723351e-04
,
2.473796e-01 5.773957e-04
2.485575e-01 5.877969e-04
2.497346e-01 5.984748e-04
2.509110e-01 6.094393e-04
2.520865e-01 6.207005e-04
2.532614e-01 6.322692e-04
2.544354e-01 6.441566e-04
2.556087e-01 6.563744e-04
2.567812e-01 6.689347e-04
2.579529e-01 6.818505e-04
2.591238e-01 6.951350e-04
2.602939e-01 7.088024e-04
2.614633e-01 7.228674e-04
2.626318e-01 7.373454e-04
2.637996e-01 7.522525e-04
2.649665e-01 7.676057e-04
2.661326e-01 7.834230e-04
2.672980e-01 7.997229e-04
2.684625e-01 8.165252e-04
2.696262e-01 8.338504e-04
2.707890e-01 8.517205e-04
2.719511e-01 8.701582e-04
2.731123e-01 8.891876e-04
2.742727e-01 9.088341e-04
2.754322e-01 9.291246e-04
2.765909e-01 9.500871e-04
2.777488e-01 9.717514e-04
2.789058e-01 9.941491e-04
2.800620e-01 1.017313e-03
2.812173e-01 1.041279e-03
2.823718e-01 1.066083e-03
2.835254e-01 1.091766e-03
2.846781e-01 1.118368e-03
2.858300e-01 1.145934e-03
2.869810e-01 1.174510e-03
2.881311e-01 1.204147e-03
2.892804e-01 1.234897e-03
2.904287e-01 1.266815e-03
2.915762e-01 1.299962e-03
2.927228e-01 1.334401e-03
2.938685e-01 1.370199e-03
2.950133e-01 1.407429e-03
2.961572e-01 1.446168e-03
2.973002e-01 1.486497e-03
2.984423e-01 1.528504e-03
2.995835e-01 1.572283e-03
3.007238e-01 1.617935e-03
3.018632e-01 1.665567e-03
3.030016e-01 1.715294e-03
3.041391e-01 1.767242e-03
3.052757e-01 1.821543e-03
3.064114e-01 1.878341e-03
3.075461e-01 1.937789e-03
3.086799e-01 2.000056e-03
3.098128e-01 2.065322e-03
3.109447e-01 2.133780e-03
3.120756e-01 2.205641e-03
3.132056e-01 2.281135e-03
3.143347e-01 2.360508e-03
3.154628e-01 2.444030e-03
3.165899e-01 2.531994e-03
3.177161e-01 2.624719e-03
3.188413e-01 2.722554e-03
3.199656e-01 2.825880e-03
3.210888e-01 2.935114e-03
3.222111e-01 3.050713e-03
3.233324e-01 3.173181e-03
3.244527e-01 3.303070e-03
3.255720e-01 3.440990e-03
3.266904e-01 3.587617e-03
3.278077e-01 3.743695e-03
3.289241e-01 3.910054e-03
3.300394e-01 4.087613e-03
3.311537e-01 4.277401e-03
3.322671e-01 4.480563e-03
3.333794e-01 4.698384e-03
3.344907e-01 4.932308e-03
3.356010e-01 5.183958e-03
3.367102e-01 5.455172e-03
3.378185e-01 5.748029e-03
3.389257e-01 6.064894e-03
3.400318e-01 6.408464e-03
3.411370e-01 6.781827e-03
3.422411e-01 7.188532e-03
3.433441e-01 7.632674e-03
3.444461e-01 8.118997e-03
3.455471e-01 8.653028e-03
3.466470e-01 9.241229e-03
3.477458e-01 9.891202e-03
3.488436e-01 1.061194e-02
3.499404e-01 1.141413e-02
3.510360e-01 1.231058e-02
3.521306e-01 1.331674e-02
3.532241e-01 1.445138e-02
3.543166e-01 1.573747e-02
3.554079e-01 1.720344e-02
3.564982e-01 1.888476e-02
3.575874e-01 2.082620e-02
3.586755e-01 2.308491e-02
3.597625e-01 2.573488e-02
3.608484e-01 2.887327e-02
3.619333e-01 3.262978e-02
3.630170e-01 3.718060e-02
3.640996e-01 4.276971e-02
3.651811e-01 4.974112e-02
3.662615e-01 5.858742e-02
3.673408e-01 7.001916e-02
3.684189e-01 8.505453e-02
3.694959e-01 1.051111e-01
3.705719e-01 1.320461e-01
3.716466e-01 1.680386e-01
3.727203e-01 2.151688e-01
3.737928e-01 2.745796e-01
3.748642e-01 3.452869e-01
3.759344e-01 4.230212e-01
3.770035e-01 4.997874e-01
3.780714e-01 5.648213e-01
3.791382e-01 6.070961e-01
3.802038e-01 6.186420e-01
3.812683e-01 5.972528e-01
3.823316e-01 5.472522e-01
3.833938e-01 4.779313e-01
3.844547e-01 4.004733e-01
3.855145e-01 3.248235e-01
3.865732e-01 2.577215e-01
3.876306e-01 2.022802e-01
3.886869e-01 1.587247e-01
3.897420e-01 1.255829e-01
3.907959e-01 1.007500e-01
3.918486e-01 8.217151e-02
3.929001e-01 6.815138e-02
3.939504e-01 5.741331e-02
3.949996e-01 4.904416e-02
3.960475e-01 4.240520e-02
3.970942e-01 3.705110e-02
3.981397e-01 3.266860e-02
3.991840e-01 2.903395e-02
4.002271e-01 2.598440e-02
4.012689e-01 2.339945e-02
4.023095e-01 2.118829e-02
4.033489e-01 1.928145e-02
4.043871e-01 1.762500e-02
4.054241e-01 1.617654e-02
4.064598e-01 1.490234e-02
4.074943e-01 1.377529e-02
4.085275e-01 1.277340e-02
4.095595e-01 1.187865e-02
4.105902e-01 1.107618e-02
4.116197e-01 1.035364e-02
4.126479e-01 9.700661e-03
4.136749e-01 9.108547e-03
4.147006e-01 8.569909e-03
4.157251e-01 8.078454e-03
4.167483e-01 7.628793e-03
4.177702e-01 7.216289e-03
4.187908e-01 6.836933e-03
4.198102e-01 6.487244e-03
4.208283e-01 6.164190e-03
4.218451e-01 5.865117e-03
4.228606e-01 5.587694e-03
4.238749e-01 5.329871e-03
4.248878e-01 5.089831e-03
4.258995e-01 4.865968e-03
4.269098e-01 4.656852e-03
4.279189e-01 4.461207e-03
4.289266e-01 4.277895e-03
4.299331e-01 4.105894e-03
4.309382e-01 3.944288e-03
4.319420e-01 3.792250e-03
4.329445e-01 3.649037e-03
4.339457e-01 3.513973e-03
4.349456e-01 3.386449e-03
4.359441e-01 3.265910e-03
4.369413e-01 3.151853e-03
4.379372e-01 3.043819e-03
4.389318e-01 2.941388e-03
4.399250e-01 2.844177e-03
4.409168e-01 2.751835e-03
4.419074e-01 2.664041e-03
4.428965e-01 2.580499e-03
4.438844e-01 2.500938e-03
4.448709e-01 2.425106e-03
4.458560e-01 2.352774e-03
4.468397e-01 2.283727e-03
4.478221e-01 2.217768e-03
4.488032e-01 2.154715e-03
4.497829e-01 2.094399e-03
4.507612e-01 2.036663e-03
4.517381e-01 1.981360e-03
4.527136e-01 1.928355e-03
4.536878e-01 1.877521e-03
4.546606e-01 1.828741e-03
4.556320e-01 1.781905e-03
4.566020e-01 1.736911e-03
4.575707e-01 1.693661e-03
4.585379e-01 1.652068e-03
4.595037e-01 1.612046e-03
4.604682e-01 1.573517e-03
4.614312e-01 1.536408e-03
4.623928e-01 1.500648e-03
4.633531e-01 1.466173e-03
4.643119e-01 1.432922e-03
4.652693e-01 1.400836e-03
4.662252e-01 1.369862e-03
4.671798e-01 1.339949e-03
4.681329e-01 1.311048e-03
4.690847e-01 1.283114e-03
4.700349e-01 1.256104e-03
4.709838e-01 1.229977e-03
4.719312e-01 1.204695e-03
4.728772e-01 1.180222e-03
4.738217e-01 1.156523e-03
4.747648e-01 1.133566e-03
4.757064e-01 1.111320e-03
4.766466e-01 1.089755e-03
4.775854e-01 1.068845e-03
4.785227e-01 1.048561e-03
4.794585e-01 1.028881e-03
4.803929e-01 1.009779e-03
4.813258e-01 9.912326e-04
4.822572e-01 9.732211e-04
4.831872e-01 9.557236e-04
4.841157e-01 9.387206e-04
4.850427e-01 9.221935e-04
4.859683e-01 9.061246e-04
4.868924e-01 8.904970e-04
4.878149e-01 8.752945e-04
4.887360e-01 8.605018e-04
4.896557e-01 8.461041e-04
4.905738e-01 8.320874e-04
4.914904e-01 8.184382e-04
4.924055e-01 8.051438e-04
4.933192e-01 7.921919e-04
4.942313e-01 7.795707e-04
4.951419e-01 7.672689e-04
4.960510e-01 7.552758e-04
4.969586e-01 7.435811e-04
4.978647e-01 7.321748e-04
4.987693e-01 7.210476e-04
4.996723e-01 7.101902e-04
5.005738e-01 6.995941e-04
,
2.473796e-01 5.440944e-04
2.485575e-01 5.539935e-04
2.497346e-01 5.641587e-04
2.509110e-01 5.745995e-04
2.520865e-01 5.853258e-04
2.532614e-01 5.963481e-04
2.544354e-01 6.076771e-04
2.556087e-01 6.193244e-04
2.567812e-01 6.313017e-04
2.579529e-01 6.436216e-04
2.591238e-01 6.562972e-04
2.602939e-01 6.693421e-04
2.614633e-01 6.827707e-04
2.626318e-01 6.965979e-04
2.637996e-01 7.108398e-04
2.649665e-01 7.255127e-04
2.661326e-01 7.406342e-04
2.672980e-01 7.562225e-04
2.684625e-01 7.722969e-04
2.696262e-01 7.888776e-04
2.707890e-01 8.059859e-04
2.719511e-01 8.236443e-04
2.731123e-01 8.418763e-04
2.742727e-01 8.607070e-04
2.754322e-01 8.801625e-04
2.765909e-01 9.002706e-04
2.777488e-01 9.210606e-04
2.789058e-01 9.425634e-04
2.800620e-01 9.648116e-04
2.812173e-01 9.878400e-04
2.823718e-01 1.011685e-03
2.835254e-01 1.036386e-03
2.846781e-01 1.061983e-03
2.858300e-01 1.088520e-03
2.869810e-01 1.116043e-03
2.881311e-01 1.144603e-03
2.892804e-01 1.174250e-03
2.904287e-01 1.205040e-03
2.915762e-01 1.237033e-03
2.927228e-01 1.270291e-03
2.938685e-01 1.304882e-03
2.950133e-01 1.340877e-03
2.961572e-01 1.378353e-03
2.973002e-01 1.417392e-03
2.984423e-01 1.458081e-03
2.995835e-01 1.500514e-03
3.007238e-01 1.544791e-03
3.018632e-01 1.591020e-03
3.030016e-01 1.639318e-03
3.041391e-01 1.689807e-03
3.052757e-01 1.742624e-03
3.064114e-01 1.797910e-03
3.075461e-01 1.855823e-03
3.086799e-01 1.916531e-03
3.098128e-01 1.980214e-03
3.109447e-01 2.047071e-03
3.120756e-01 2.117313e-03
3.132056e-01 2.191173e-03
3.143347e-01 2.268901e-03
3.154628e-01 2.350773e-03
3.165899e-01 2.437084e-03
3.177161e-01 2.528163e-03
3.188413e-01 2.624363e-03
3.199656e-01 2.726075e-03
3.210888e-01 2.833727e-03
3.222111e-01 2.947788e-03
3.233324e-01 3.068774e-03
3.244527e-01 3.197257e-03
3.255720e-01 3.333866e-03
3.266904e-01 3.479297e-03
3.278077e-01 3.634327e-03
3.289241e-01 3.799813e-03
3.300394e-01 3.976717e-03
3.311537e-01 4.166109e-03
3.322671e-01 4.369190e-03
3.333794e-01 4.587307e-03
3.344907e-01 4.821980e-03
3.356010e-01 5.074921e-03
3.367102e-01 5.348075e-03
3.378185e-01 5.643649e-03
3.389257e-01 5.964159e-03
3.400318e-01 6.312489e-03
3.411370e-01 6.691949e-03
3.422411e-01 7.106356e-03
3.433441e-01 7.560133e-03
3.444461e-01 8.058427e-03
3.455471e-01 8.607252e-03
3.466470e-01 9.213679e-03
3.477458e-01 9.886059e-03
3.488436e-01 1.063432e-02
3.499404e-01 1.147033e-02
3.510360e-01 1.240837e-02
3.521306e-01 1.346579e-02
3.532241e-01 1.466374e-02
3.543166e-01 1.602836e-02
3.554079e-01 1.759211e-02
3.564982e-01 1.939582e-02
3.575874e-01 2.149136e-02
3.586755e-01 2.394546e-02
3.597625e-01 2.684505e-02
3.608484e-01 3.030510e-02
3.619333e-01 3.447997e-02
3.630170e-01 3.958028e-02
3.640996e-01 4.589802e-02
3.651811e-01 5.384335e-02
3.662615e-01 6.399656e-02
3.673408e-01 7.717432e-02
3.684189e-01 9.449687e-02
3.694959e-01 1.174143e-01
3.705719e-01 1.476063e-01
3.716466e-01 1.866322e-01
3.727203e-01 2.352285e-01
3.737928e-01 2.923076e-01
3.748642e-01 3.540009e-01
3.759344e-01 4.133749e-01
3.770035e-01 4.614224e-01
3.780714e-01 4.893972e-01
3.791382e-01 4.916956e-01
3.802038e-01 4.679157e-01
3.812683e-01 4.229891e-01
3.823316e-01 3.653221e-01
3.833938e-01 3.039659e-01
3.844547e-01 2.461830e-01
3.855145e-01 1.962835e-01
3.865732e-01 1.557530e-01
3.876306e-01 1.241257e-01
3.886869e-01 9.997774e-02
3.897420e-01 8.166434e-02
3.907959e-01 6.771506e-02
3.918486e-01 5.696876e-02
3.929001e-01 4.856689e-02
3.939504e-01 4.189422e-02
3.949996e-01 3.651403e-02
3.960475e-01 3.211498e-02
3.970942e-01 2.847256e-02
3.981397e-01 2.542245e-02
3.991840e-01 2.284248e-02
4.002271e-01 2.064038e-02
4.012689e-01 1.874549e-02
4.023095e-01 1.710295e-02
4.033489e-01 1.566966e-02
4.043871e-01 1.441136e-02
4.054241e-01 1.330054e-02
4.064598e-01 1.231491e-02
4.074943e-01 1.143627e-02
4.085275e-01 1.064959e-02
4.095595e-01 9.942418e-03
4.105902e-01 9.304339e-03
4.116197e-01 8.726598e-03
4.126479e-01 8.201784e-03
4.136749e-01 7.723596e-03
4.147006e-01 7.286646e-03
4.157251e-01 6.886303e-03
4.167483e-01 6.518572e-03
4.177702e-01 6.179987e-03
4.187908e-01 5.867536e-03
4.198102e-01 5.578583e-03
4.208283e-01 5.310820e-03
4.218451e-01 5.062216e-03
4.228606e-01 4.830976e-03
4.238749e-01 4.615513e-03
4.248878e-01 4.414417e-03
4.258995e-01 4.226434e-03
4.269098e-01 4.050441e-03
4.279189e-01 3.885436e-03
4.289266e-01 3.730519e-03
4.299331e-01 3.584879e-03
4.309382e-01 3.447787e-03
4.319420e-01 3.318584e-03
4.329445e-01 3.196672e-03
4.339457e-01 3.081512e-03
4.349456e-01 2.972610e-03
4.359441e-01 2.869519e-03
4.369413e-01 2.771830e-03
4.379372e-01 2.679172e-03
4.389318e-01 2.591202e-03
4.399250e-01 2.507609e-03
4.409168e-01 2.428104e-03
4.419074e-01 2.352424e-03
4.428965e-01 2.280326e-03
4.438844e-01 2.211587e-03
4.448709e-01 2.146000e-03
4.458560e-01 2.083374e-03
4.468397e-01 2.023533e-03
4.478221e-01 1.966312e-03
4.488032e-01 1.911561e-03
4.497829e-01 1.859138e-03
4.507612e-01 1.808913e-03
4.517381e-01 1.760763e-03
4.527136e-01 1.714575e-03
4.536878e-01 1.670244e-03
4.546606e-01 1.627670e-03
4.556320e-01 1.586762e-03
4.566020e-01 1.547432e-03
4.575707e-01 1.509601e-03
4.585379e-01 1.473193e-03
4.595037e-01 1.438137e-03
4.604682e-01 1.404365e-03
4.614312e-01 1.371817e-03
4.623928e-01 1.340433e-03
4.633531e-01 1.310158e-03
4.643119e-01 1.280939e-03
4.652693e-01 1.252729e-03
4.662252e-01 1.225481e-03
4.671798e-01 1.199151e-03
4.681329e-01 1.173698e-03
4.690847e-01 1.149083e-03
4.700349e-01 1.125271e-03
4.709838e-01 1.102225e-03
4.719312e-01 1.079914e-03
4.728772e-01 1.058306e-03
4.738217e-01 1.037372e-03
4.747648e-01 1.017084e-03
4.757064e-01 9.974150e-04
4.766466e-01 9.783403e-04
4.775854e-01 9.598360e-04
4.785227e-01 9.418794e-04
4.794585e-01 9.244489e-04
4.803929e-01 9.075241e-04
4.813258e-01 8.910854e-04
4.822572e-01 8.751143e-04
4.831872e-01 8.595931e-04
4.841157e-01 8.445049e-04
4.850427e-01 8.298336e-04
4.859683e-01 8.155640e-04
4.868924e-01 8.016813e-04
4.878149e-01 7.881716e-04
4.887360e-01 7.750216e-04
4.896557e-01 7.622186e-04
4.905738e-01 7.497502e-04
4.914904e-01 7.376050e-04
4.924055e-01 7.257716e-04
4.933192e-01 7.142396e-04
4.942313e-01 7.029986e-04
4.951419e-01 6.920389e-04
4.960510e-01 6.813510e-04
4.969586e-01 6.709261e-04
4.978647e-01 6.607555e-04
4.987693e-01 6.508308e-04
4.996723e-01 6.411443e-04
5.005738e-01 6.316883e-04
,
2.473796e-01 5.130935e-04
2.485575e-01 5.225445e-04
2.497346e-01 5.322527e-04
2.509110e-01 5.422275e-04
2.520865e-01 5.524785e-04
2.532614e-01 5.630160e-04
2.544354e-01 5.738507e-04
2.556087e-01 5.849936e-04
2.567812e-01 5.964566e-04
2.579529e-01 6.082518e-04
2.591238e-01 6.203920e-04
2.602939e-01 6.328909e-04
2.614633e-01 6.457624e-04
2.626318e-01 6.590214e-04
2.637996e-01 6.726835e-04
2.649665e-01 6.867649e-04
2.661326e-01 7.012830e-04
2.672980e-01 7.162558e-04
2.684625e-01 7.317022e-04
2.696262e-01 7.476423e-04
2.707890e-01 7.640972e-04
2.719511e-01 7.810891e-04
2.731123e-01 7.986413e-04
2.742727e-01 8.167787e-04
2.754322e-01 8.355272e-04
2.765909e-01 8.549144e-04
2.777488e-01 8.749694e-04
2.789058e-01 8.957230e-04
2.800620e-01 9.172076e-04
2.812173e-01 9.394579e-04
2.823718e-01 9.625102e-04
2.835254e-01 9.864033e-04
2.846781e-01 1.011178e-03
2.858300e-01 1.036879e-03
2.869810e-01 1.063551e-03
2.881311e-01 1.091244e-03
2.892804e-01 1.120011e-03
2.904287e-01 1.149906e-03
2.915762e-01 1.180991e-03
2.927228e-01 1.213327e-03
2.938685e-01 1.246983e-03
2.950133e-01 1.282031e-03
2.961572e-01 1.318547e-03
2.973002e-01 1.356616e-03
2.984423e-01 1.396325e-03
2.995835e-01 1.437770e-03
3.007238e-01 1.481051e-03
3.018632e-01 1.526280e-03
3.030016e-01 1.573573e-03
3.041391e-01 1.623057e-03
3.052757e-01 1.674869e-03
3.064114e-01 1.729157e-03
3.075461e-01 1.786078e-03
3.086799e-01 1.845807e-03
3.098128e-01 1.908528e-03
3.109447e-01 1.974444e-03
3.120756e-01 2.043775e-03
3.132056e-01 2.116759e-03
3.143347e-01 2.193656e-03
3.154628e-01 2.274749e-03
3.165899e-01 2.360347e-03
3.177161e-01 2.450789e-03
3.188413e-01 2.546443e-03
3.199656e-01 2.647718e-03
3.210888e-01 2.755059e-03
3.222111e-01 2.868958e-03
3.233324e-01 2.989957e-03
3.244527e-01 3.118656e-03
3.255720e-01 3.255720e-03
3.266904e-01 3.401885e-03
3.278077e-01 3.557970e-03
3.289241e-01 3.724890e-03
3.300394e-01 3.903667e-03
3.311537e-01 4.095445e-03
3.322671e-01 4.301508e-03
3.333794e-01 4.523307e-03
3.344907e-01 4.762475e-03
3.356010e-01 5.020868e-03
3.367102e-01 5.300591e-03
3.378185e-01 5.604047e-03
3.389257e-01 5.933987e-03
3.400318e-01 6.293569e-03
3.411370e-01 6.686436e-03
3.422411e-01 7.116806e-03
3.433441e-01 7.589585e-03
3.444461e-01 8.110505e-03
3.455471e-01 8.686298e-03
3.466470e-01 9.324907e-03
3.477458e-01 1.003576e-02
3.488436e-01 1.083012e-02
3.499404e-01 1.172152e-02
3.510360e-01 1.272630e-02
3.521306e-01 1.386443e-02
3.532241e-01 1.516037e-02
3.543166e-01 1.664445e-02
3.554079e-01 1.835452e-02
3.564982e-01 2.033833e-02
3.575874e-01 2.265668e-02
3.586755e-01 2.538778e-02
3.597625e-01 2.863334e-02
3.608484e-01 3.252696e-02
3.619333e-01 3.724567e-02
3.630170e-01 4.302556e-02
3.640996e-01 5.018152e-02
3.651811e-01 5.912970e-02
3.662615e-01 7.040571e-02
3.673408e-01 8.466268e-02
3.684189e-01 1.026186e-01
3.694959e-01 1.249099e-01
3.705719e-01 1.518142e-01
3.716466e-01 1.828515e-01
3.727203e-01 2.163737e-01
3.737928e-01 2.493670e-01
3.748642e-01 2.777242e-01
3.759344e-01 2.970972e-01
3.770035e-01 3.041276e-01
3.780714e-01 2.975484e-01
3.791382e-01 2.786224e-01
3.802038e-01 2.506873e-01
3.812683e-01 2.180532e-01
3.823316e-01 1.847890e-01
3.833938e-01 1.538893e-01
3.844547e-01 1.270091e-01
3.855145e-01 1.046554e-01
3.865732e-01 8.658411e-02
3.876306e-01 7.218824e-02
3.886869e-01 6.077012e-02
3.897420e-01 5.168800e-02
3.907959e-01 4.441111e-02
3.918486e-01 3.852435e-02
3.929001e-01 3.371198e-02
3.939504e-01 2.973642e-02
3.949996e-01 2.641896e-02
3.960475e-01 2.362451e-02
3.970942e-01 2.125004e-02
3.981397e-01 1.921623e-02
3.991840e-01 1.746137e-02
4.002271e-01 1.593697e-02
4.012689e-01 1.460453e-02
4.023095e-01 1.343324e-02
4.033489e-01 1.239817e-02
4.043871e-01 1.147903e-02
4.054241e-01 1.065915e-02
4.064598e-01 9.924743e-03
4.074943e-01 9.264328e-03
4.085275e-01 8.668289e-03
4.095595e-01 8.128520e-03
4.105902e-01 7.638148e-03
4.116197e-01 7.191320e-03
4.126479e-01 6.783022e-03
4.136749e-01 6.408943e-03
4.147006e-01 6.065357e-03
4.157251e-01 5.749031e-03
4.167483e-01 5.457152e-03
4.177702e-01 5.187257e-03
4.187908e-01 4.937189e-03
4.198102e-01 4.705048e-03
4.208283e-01 4.489155e-03
4.218451e-01 4.288026e-03
4.228606e-01 4.100341e-03
4.238749e-01 3.924923e-03
4.248878e-01 3.760725e-03
4.258995e-01 3.606805e-03
4.269098e-01 3.462322e-03
4.279189e-01 3.326516e-03
4.289266e-01 3.198705e-03
4.299331e-01 3.078270e-03
4.309382e-01 2.964653e-03
4.319420e-01 2.857347e-03
4.329445e-01 2.755892e-03
4.339457e-01 2.659867e-03
4.349456e-01 2.568890e-03
4.359441e-01 2.482613e-03
4.369413e-01 2.400717e-03
4.379372e-01 2.322907e-03
4.389318e-01 2.248915e-03
4.399250e-01 2.178496e-03
4.409168e-01 2.111421e-03
4.419074e-01 2.047480e-03
4.428965e-01 1.986482e-03
4.438844e-01 1.928246e-03
4.448709e-01 1.872609e-03
4.458560e-01 1.819416e-03
4.468397e-01 1.768527e-03
4.478221e-01 1.719808e-03
4.488032e-01 1.673139e-03
4.497829e-01 1.628405e-03
4.507612e-01 1.585500e-03
4.517381e-01 1.544325e-03
4.527136e-01 1.504788e-03
4.536878e-01 1.466803e-03
4.546606e-01 1.430289e-03
4.556320e-01 1.395170e-03
4.566020e-01 1.361376e-03
4.575707e-01 1.328842e-03
4.585379e-01 1.297504e-03
4.595037e-01 1.267304e-03
4.604682e-01 1.238188e-03
4.614312e-01 1.210104e-03
4.623928e-01 1.183004e-03
4.633531e-01 1.156842e-03
4.643119e-01 1.131574e-03
4.652693e-01 1.107161e-03
4.662252e-01 1.083564e-03
4.671798e-01 1.060746e-03
4.681329e-01 1.038674e-03
4.690847e-01 1.017316e-03
4.700349e-01 9.966399e-04
4.709838e-01 9.766176e-04
4.719312e-01 9.572216e-04
4.728772e-01 9.384258e-04
4.738217e-01 9.202056e-04
4.747648e-01 9.025375e-04
4.757064e-01 8.853994e-04
4.766466e-01 8.687700e-04
4.775854e-01 8.526293e-04
4.785227e-01 8.369583e-04
4.794585e-01 8.217387e-04
4.803929e-01 8.069533e-04
4.813258e-01 7.925855e-04
4.822572e-01 7.786198e-04
4.831872e-01 7.650411e-04
4.841157e-01 7.518352e-04
4.850427e-01 7.389885e-04
4.859683e-01 7.264879e-04
4.868924e-01 7.143211e-04
4.878149e-01 7.024762e-04
4.887360e-01 6.909418e-04
4.896557e-01 6.797071e-04
4.905738e-01 6.687618e-04
4.914904e-01 6.580960e-04
4.924055e-01 6.477000e-04
4.933192e-01 6.375649e-04
4.942313e-01 6.276819e-04
4.951419e-01 6.180427e-04
4.960510e-01 6.086393e-04
4.969586e-01 5.994639e-04
4.978647e-01 5.905092e-04
4.987693e-01 5.817682e-04
4.996723e-01 5.732340e-04
5.005738e-01 5.649002e-04
,
2.473796e-01 4.614305e-04
2.485575e-01 4.700635e-04
2.497346e-01 4.789353e-04
2.509110e-01 4.880544e-04
2.520865e-01 4.974303e-04
2.532614e-01 5.070724e-04
2.544354e-01 5.169908e-04
2.556087e-01 5.271962e-04
2.567812e-01 5.376995e-04
2.579529e-01 5.485123e-04
2.591238e-01 5.596469e-04
2.602939e-01 5.711160e-04
2.614633e-01 5.829329e-04
2.626318e-01 5.951118e-04
2.637996e-01 6.076674e-04
2.649665e-01 6.206154e-04
2.661326e-01 6.339720e-04
2.672980e-01 6.477544e-04
2.684625e-01 6.619809e-04
2.696262e-01 6.766704e-04
2.707890e-01 6.918431e-04
2.719511e-01 7.075203e-04
2.731123e-01 7.237244e-04
2.742727e-01 7.404789e-04
2.754322e-01 7.578090e-04
2.765909e-01 7.757410e-04
2.777488e-01 7.943029e-04
2.789058e-01 8.135242e-04
2.800620e-01 8.334363e-04
2.812173e-01 8.540725e-04
2.823718e-01 8.754678e-04
2.835254e-01 8.976598e-04
2.846781e-01 9.206881e-04
2.858300e-01 9.445949e-04
2.869810e-01 9.694251e-04
2.881304e-01 9.952100e-04
2.892804e-01 1.022050e-03
2.904287e-01 1.049949e-03
2.915762e-01 1.078983e-03
2.927228e-01 1.109213e-03
2.938685e-01 1.140705e-03
2.950133e-01 1.173530e-03
2.961572e-01 1.207763e-03
2.973002e-01 1.243485e-03
2.984423e-01 1.280784e-03
2.995835e-01 1.319752e-03
3.007238e-01 1.360491e-03
3.018632e-01 1.403108e-03
3.030016e-01 1.447720e-03
3.041391e-01 1.494452e-03
3.052757e-01 1.543439e-03
3.064114e-01 1.594828e-03
3.075461e-01 1.648777e-03
3.086799e-01 1.705458e-03
3.098128e-01 1.765057e-03
3.109447e-01 1.827777e-03
3.120756e-01 1.893836e-03
3.132056e-01 1.963476e-03
3.143347e-01 2.036957e-03
3.154628e-01 2.114565e-03
3.165899e-01 2.196612e-03
3.177161e-01 2.283441e-03
3.188413e-01 2.375428e-03
3.199656e-01 2.472987e-03
3.210888e-01 2.576573e-03
3.222111e-01 2.686690e-03
3.233324e-01 2.803892e-03
3.244527e-01 2.928798e-03
3.255720e-01 3.062091e-03
3.266904e-01 3.204533e-03
3.278077e-01 3.356973e-03
3.289241e-01 3.520363e-03
3.300394e-01 3.695767e-03
3.311537e-01 3.884382e-03
3.322671e-01 4.087556e-03
3.333794e-01 4.306813e-03
3.344907e-01 4.543880e-03
3.356010e-01 4.800719e-03
3.367102e-01 5.079568e-03
3.378185e-01 5.382990e-03
3.389257e-01 5.713923e-03
3.400318e-01 6.075758e-03
3.411370e-01 6.472416e-03
3.422411e-01 6.908450e-03
3.433441e-01 7.389175e-03
3.444461e-01 7.920816e-03
3.455471e-01 8.510703e-03
3.466470e-01 9.167506e-03
3.477458e-01 9.901533e-03
3.488436e-01 1.072510e-02
3.499404e-01 1.165302e-02
3.510360e-01 1.270316e-02
3.521306e-01 1.389725e-02
3.532241e-01 1.526182e-02
3.543166e-01 1.682941e-02
3.554079e-01 1.864015e-02
3.564982e-01 2.074363e-02
3.575874e-01 2.320119e-02
3.586755e-01 2.608857e-02
3.597625e-01 2.949852e-02
3.608484e-01 3.354294e-02
3.619333e-01 3.835307e-02
3.630170e-01 4.407570e-02
3.640996e-01 5.086182e-02
3.651811e-01 5.884360e-02
3.662615e-01 6.809590e-02
3.673408e-01 7.858176e-02
3.684189e-01 9.008831e-02
3.694959e-01 1.021699e-01
3.705719e-01 1.141245e-01
3.716466e-01 1.250315e-01
3.727203e-01 1.338654e-01
3.737928e-01 1.396744e-01
3.748642e-01 1.417797e-01
3.759344e-01 1.399327e-01
3.770035e-01 1.343739e-01
3.780714e-01 1.257723e-01
3.791382e-01 1.150686e-01
3.802038e-01 1.032776e-01
3.812683e-01 9.131282e-02
3.823316e-01 7.987477e-02
3.833938e-01 6.941324e-02
3.844547e-01 6.014940e-02
3.855145e-01 5.213024e-02
3.865732e-01 4.529049e-02
3.876306e-01 3.950587e-02
3.886869e-01 3.463112e-02
3.897420e-01 3.052316e-02
3.907959e-01 2.705284e-02
3.918486e-01 2.410931e-02
3.929001e-01 2.160013e-02
3.939504e-01 1.944952e-02
3.949996e-01 1.759586e-02
3.960475e-01 1.598922e-02
3.970942e-01 1.458908e-02
3.981397e-01 1.336254e-02
3.991840e-01 1.228272e-02
4.002271e-01 1.132760e-02
4.012689e-01 1.047902e-02
4.023095e-01 9.721940e-03
4.033489e-01 9.043833e-03
4.043871e-01 8.434207e-03
4.054241e-01 7.884230e-03
4.064598e-01 7.386433e-03
4.074943e-01 6.934467e-03
4.085275e-01 6.522910e-03
4.095595e-01 6.147112e-03
4.105902e-01 5.803067e-03
4.116197e-01 5.487312e-03
4.126479e-01 5.196838e-03
4.136749e-01 4.929027e-03
4.147006e-01 4.681586e-03
4.157251e-01 4.452506e-03
4.167483e-01 4.240017e-03
4.177702e-01 4.042558e-03
4.187908e-01 3.858745e-03
4.198102e-01 3.687350e-03
4.208283e-01 3.527280e-03
4.218451e-01 3.377558e-03
4.228606e-01 3.237313e-03
4.238749e-01 3.105759e-03
4.248878e-01 2.982194e-03
4.258995e-01 2.865983e-03
4.269098e-01 2.756553e-03
4.279189e-01 2.653386e-03
4.289266e-01 2.556012e-03
4.299331e-01 2.464005e-03
4.309382e-01 2.376978e-03
4.319420e-01 2.294575e-03
4.329445e-01 2.216476e-03
4.339457e-01 2.142383e-03
4.349456e-01 2.072029e-03
4.359441e-01 2.005164e-03
4.369413e-01 1.941561e-03
4.379372e-01 1.881010e-03
4.389318e-01 1.823319e-03
4.399250e-01 1.768311e-03
4.409168e-01 1.715820e-03
4.419074e-01 1.665694e-03
4.428965e-01 1.617795e-03
4.438844e-01 1.571990e-03
4.448709e-01 1.528159e-03
4.458560e-01 1.486191e-03
4.468397e-01 1.445979e-03
4.478221e-01 1.407429e-03
4.488032e-01 1.370448e-03
4.497829e-01 1.334952e-03
4.507612e-01 1.300863e-03
4.517381e-01 1.268107e-03
4.527136e-01 1.236615e-03
4.536878e-01 1.206323e-03
4.546606e-01 1.177170e-03
4.556320e-01 1.149099e-03
4.566020e-01 1.122057e-03
4.575707e-01 1.095994e-03
4.585379e-01 1.070864e-03
4.595037e-01 1.046622e-03
4.604682e-01 1.023227e-03
4.614312e-01 1.000639e-03
4.623928e-01 9.788210e-04
4.633531e-01 9.577391e-04
4.643119e-01 9.373599e-04
4.652693e-01 9.176525e-04
4.662252e-01 8.985875e-04
4.671798e-01 8.801370e-04
4.681329e-01 8.622749e-04
4.690847e-01 8.449761e-04
4.700349e-01 8.282172e-04
4.709838e-01 8.119757e-04
4.719312e-01 7.962305e-04
4.728772e-01 7.809614e-04
4.738217e-01 7.661494e-04
4.747648e-01 7.517761e-04
4.757064e-01 7.378245e-04
4.766466e-01 7.242780e-04
4.775854e-01 7.111210e-04
4.785227e-01 6.983386e-04
4.794585e-01 6.859167e-04
4.803929e-01 6.738417e-04
4.813258e-01 6.621007e-04
4.822572e-01 6.506816e-04
4.831872e-01 6.395725e-04
4.841157e-01 6.287622e-04
4.850427e-01 6.182401e-04
4.859683e-01 6.079959e-04
4.868924e-01 5.980199e-04
4.878149e-01 5.883028e-04
4.887360e-01 5.788355e-04
4.896557e-01 5.696096e-04
4.905738e-01 5.606168e-04
4.914904e-01 5.518493e-04
4.924055e-01 5.432997e-04
4.933192e-01 5.349606e-04
4.942313e-01 5.268252e-04
4.951419e-01 5.188869e-04
4.960510e-01 5.111393e-04
4.969586e-01 5.035764e-04
4.978647e-01 4.961921e-04
4.987693e-01 4.889810e-04
4.996723e-01 4.819376e-04
5.005738e-01 4.750567e-04
,
2.473796e-01 3.617261e-04
2.485575e-01 3.687155e-04
2.497346e-01 3.759049e-04
2.509110e-01 3.833019e-04
2.520865e-01 3.909144e-04
2.532614e-01 3.987508e-04
2.544354e-01 4.068200e-04
2.556087e-01 4.151311e-04
2.567812e-01 4.236939e-04
2.579529e-01 4.325185e-04
2.591238e-01 4.416156e-04
2.602939e-01 4.509965e-04
2.614633e-01 4.606729e-04
2.626318e-01 4.706574e-04
2.637996e-01 4.809629e-04
2.649665e-01 4.916034e-04
2.661326e-01 5.025934e-04
2.672980e-01 5.139481e-04
2.684625e-01 5.256840e-04
2.696262e-01 5.378179e-04
2.707890e-01 5.503681e-04
2.719511e-01 5.633535e-04
2.731123e-01 5.767945e-04
2.742727e-01 5.907124e-04
2.754322e-01 6.051298e-04
2.765909e-01 6.200709e-04
2.777488e-01 6.355611e-04
2.789058e-01 6.516273e-04
2.800620e-01 6.682984e-04
2.812173e-01 6.856049e-04
2.823718e-01 7.035793e-04
2.835254e-01 7.222560e-04
2.846781e-01 7.416720e-04
2.858300e-01 7.618665e-04
2.869810e-01 7.828814e-04
2.881311e-01 8.047615e-04
2.892804e-01 8.275546e-04
2.904287e-01 8.513119e-04
2.915762e-01 8.760882e-04
2.927228e-01 9.019423e-04
2.938685e-01 9.289372e-04
2.950133e-01 9.571405e-04
2.961572e-01 9.866251e-04
2.973002e-01 1.017469e-03
2.984423e-01 1.049758e-03
2.995835e-01 1.083581e-03
3.007238e-01 1.119037e-03
3.018632e-01 1.156233e-03
3.030016e-01 1.195284e-03
3.041391e-01 1.236314e-03
3.052757e-01 1.279458e-03
3.064114e-01 1.324863e-03
3.075461e-01 1.372690e-03
3.086799e-01 1.423113e-03
3.098128e-01 1.476321e-03
3.109447e-01 1.532523e-03
3.120756e-01 1.591946e-03
3.132056e-01 1.654840e-03
3.143347e-01 1.721478e-03
3.154628e-01 1.792162e-03
3.165899e-01 1.867224e-03
3.177161e-01 1.947030e-03
3.188413e-01 2.031986e-03
3.199656e-01 2.122543e-03
3.210888e-01 2.219197e-03
3.222111e-01 2.322507e-03
3.233324e-01 2.433090e-03
3.244527e-01 2.551640e-03
3.255720e-01 2.678932e-03
3.266904e-01 2.815837e-03
3.278077e-01 2.963335e-03
3.289241e-01 3.122531e-03
3.300394e-01 3.294674e-03
3.311537e-01 3.481180e-03
3.322671e-01 3.683654e-03
3.333794e-01 3.903926e-03
3.344907e-01 4.144076e-03
3.356010e-01 4.406481e-03
3.367102e-01 4.693856e-03
3.378185e-01 5.009300e-03
3.389257e-01 5.356355e-03
3.400318e-01 5.739061e-03
3.411370e-01 6.162012e-03
3.422411e-01 6.630413e-03
3.433441e-01 7.150127e-03
3.444461e-01 7.727700e-03
3.455471e-01 8.370363e-03
3.466470e-01 9.085987e-03
3.477458e-01 9.882973e-03
3.488436e-01 1.077006e-02
3.499404e-01 1.175605e-02
3.510360e-01 1.284933e-02
3.521306e-01 1.405741e-02
3.532241e-01 1.538610e-02
3.543166e-01 1.683878e-02
3.554079e-01 1.841535e-02
3.564982e-01 2.011132e-02
3.575874e-01 2.191678e-02
3.586755e-01 2.381554e-02
3.597625e-01 2.578459e-02
3.608484e-01 2.779377e-02
3.619333e-01 2.980608e-02
3.630170e-01 3.177844e-02
3.640996e-01 3.366309e-02
3.651811e-01 3.540957e-02
3.662615e-01 3.696711e-02
3.673408e-01 3.828742e-02
3.684189e-01 3.932755e-02
3.694919e-01 4.005040e-02
3.705719e-01 4.043757e-02
3.716466e-01 4.046994e-02
3.727203e-01 4.014956e-02
3.737928e-01 3.948905e-02
3.748642e-01 3.851278e-02
3.759344e-01 3.725522e-02
3.770035e-01 3.575857e-02
3.780714e-01 3.407019e-02
3.791382e-01 3.223974e-02
3.802038e-01 3.031659e-02
3.812683e-01 2.834749e-02
3.823316e-01 2.637466e-02
3.833938e-01 2.443455e-02
3.844547e-01 2.255703e-02
3.855145e-01 2.076519e-02
3.865732e-01 1.907560e-02
3.876306e-01 1.749878e-02
3.886869e-01 1.604007e-02
3.897420e-01 1.470047e-02
3.907959e-01 1.347759e-02
3.918486e-01 1.236656e-02
3.929001e-01 1.136077e-02
3.939504e-01 1.045259e-02
3.949996e-01 9.633893e-03
3.960475e-01 8.896460e-03
3.970942e-01 8.232302e-03
3.981397e-01 7.633848e-03
3.991840e-01 7.094076e-03
4.002271e-01 6.606566e-03
4.012689e-01 6.165527e-03
4.023095e-01 5.765777e-03
4.033489e-01 5.402711e-03
4.043871e-01 5.072258e-03
4.054241e-01 4.770831e-03
4.064598e-01 4.495274e-03
4.074943e-01 4.242814e-03
4.085275e-01 4.011016e-03
4.095595e-01 3.797739e-03
4.105902e-01 3.601100e-03
4.116197e-01 3.419440e-03
4.126479e-01 3.251295e-03
4.136749e-01 3.095370e-03
4.147006e-01 2.950520e-03
4.157251e-01 2.815727e-03
4.167483e-01 2.690085e-03
4.177702e-01 2.572788e-03
4.187908e-01 2.463115e-03
4.198102e-01 2.360421e-03
4.208283e-01 2.264125e-03
4.218451e-01 2.173708e-03
4.228606e-01 2.088700e-03
4.238749e-01 2.008679e-03
4.248878e-01 1.933260e-03
4.258995e-01 1.862097e-03
4.269098e-01 1.794876e-03
4.279189e-01 1.731309e-03
4.289266e-01 1.671136e-03
4.299331e-01 1.614119e-03
4.309382e-01 1.560040e-03
4.319420e-01 1.508699e-03
4.329445e-01 1.459916e-03
4.339457e-01 1.413520e-03
4.349456e-01 1.369360e-03
4.359441e-01 1.327293e-03
4.369413e-01 1.287187e-03
4.379372e-01 1.248923e-03
4.389318e-01 1.212389e-03
4.399250e-01 1.177482e-03
4.409168e-01 1.144105e-03
4.419074e-01 1.112171e-03
4.428965e-01 1.081597e-03
4.438844e-01 1.052306e-03
4.448709e-01 1.024228e-03
4.458560e-01 9.972955e-04
4.468397e-01 9.714471e-04
4.478221e-01 9.466251e-04
4.488032e-01 9.227754e-04
4.497829e-01 8.998477e-04
4.507612e-01 8.777948e-04
4.517381e-01 8.565725e-04
4.527136e-01 8.361393e-04
4.536878e-01 8.164564e-04
4.546606e-01 7.974873e-04
4.556320e-01 7.791976e-04
4.566020e-01 7.615551e-04
4.575707e-01 7.445294e-04
4.585379e-01 7.280920e-04
4.595037e-01 7.122158e-04
4.604682e-01 6.968755e-04
4.614312e-01 6.820470e-04
4.623928e-01 6.677077e-04
4.633531e-01 6.538361e-04
4.643119e-01 6.404120e-04
4.652693e-01 6.274163e-04
4.662252e-01 6.148307e-04
4.671798e-01 6.026381e-04
4.681329e-01 5.908222e-04
4.690847e-01 5.793674e-04
4.700349e-01 5.682592e-04
4.709838e-01 5.574837e-04
4.719312e-01 5.470275e-04
4.728772e-01 5.368780e-04
4.738217e-01 5.270234e-04
4.747648e-01 5.174522e-04
4.757064e-01 5.081536e-04
4.766466e-01 4.991173e-04
4.775854e-01 4.903333e-04
4.785227e-01 4.817925e-04
4.794585e-01 4.734857e-04
4.803929e-01 4.654044e-04
4.813258e-01 4.575406e-04
4.822572e-01 4.498863e-04
4.831872e-01 4.424343e-04
4.841157e-01 4.351773e-04
4.850427e-01 4.281086e-04
4.859683e-01 4.212216e-04
4.868924e-01 4.145102e-04
4.878149e-01 4.079684e-04
4.887360e-01 4.015905e-04
4.896557e-01 3.953709e-04
4.905738e-01 3.893046e-04
4.914904e-01 3.833864e-04
4.924055e-01 3.776115e-04
4.933192e-01 3.719753e-04
4.942313e-01 3.664733e-04
4.951419e-01 3.611014e-04
4.960510e-01 3.558553e-04
4.969586e-01 3.507313e-04
4.978647e-01 3.457254e-04
4.987693e-01 3.408341e-04
4.996723e-01 3.360539e-04
5.005738e-01 3.313813e-04
,
