2.688200829875518849e+01 1.000000000000000000e+00
3.500028630705394050e+01 9.740519901417677984e-01
4.500017427385891722e+01 9.135579211247992770e-01
5.499995435684648015e+01 8.136927500845381189e-01
6.500000829875519059e+01 6.543797829061707150e-01
7.000006639004149633e+01 5.478916559469163561e-01
7.499990456431535790e+01 4.387168322301299161e-01
8.000000414937757398e+01 3.298958101362882700e-01
8.500004564315352695e+01 2.458498069280652953e-01
8.999990456431534369e+01 1.842865856604287700e-01
9.999908298755185854e+01 1.124856728263440159e-01
1.050000829875518633e+02 9.435229703595915396e-02
1.100001659751037408e+02 8.529168513914028860e-02
1.150002074688796654e+02 7.394420631652470766e-02
1.200001659751037408e+02 7.071652196282986191e-02
1.299997925311203346e+02 6.189827242313644673e-02
1.400000000000000000e+02 5.752201397327037780e-02
