2.999993360995850722e+01 1.000000000000000000e+00
3.500017427385892432e+01 9.741160276668144880e-01
4.499992116182572488e+01 9.427966667816911617e-01
5.500008713692946571e+01 8.285121512461397497e-01
6.499997510373444243e+01 7.334539596310766241e-01
6.999980082987552521e+01 6.905938488016930554e-01
7.500002904564314576e+01 5.661990184903189505e-01
7.999999170124480941e+01 5.370373519924431793e-01
8.500002904564314576e+01 5.138344336321581940e-01
8.999977178423236523e+01 5.164007629267466370e-01
9.499992116182572488e+01 4.290813566076810415e-01
9.999945643153527897e+01 5.446335517319514929e-01
1.049999585062240612e+02 5.983461847240070242e-01
1.100000000000000000e+02 5.159683835222175219e-01
1.150000000000000000e+02 4.838179539203961155e-01
1.199998755186721979e+02 4.843557393384462784e-01
1.299999170124481225e+02 4.156359359508751128e-01
1.400000414937759388e+02 3.693689175077355946e-01
1.499999170124481225e+02 3.022097226718152285e-01
1.599998755186722121e+02 2.352618696085862771e-01
1.700000000000000000e+02 1.808450069034757135e-01
1.799999585062240612e+02 1.778304059653697533e-01
1.899999585062240612e+02 1.488829567230111339e-01
2.000000000000000000e+02 1.509799008837859891e-01
2.200000000000000000e+02 1.461266576777656701e-01
2.400000414937759388e+02 1.357191595181835853e-01
2.600001659751037550e+02 1.240515153631362999e-01
