3.012315e-01 1.428177e-02
3.023715e-01 1.466200e-02
3.035105e-01 1.505737e-02
3.046487e-01 1.546870e-02
3.057859e-01 1.589685e-02
3.069221e-01 1.634275e-02
3.080575e-01 1.680741e-02
3.091919e-01 1.729187e-02
3.103253e-01 1.779730e-02
3.114578e-01 1.832490e-02
3.125894e-01 1.887600e-02
3.137200e-01 1.945201e-02
3.148497e-01 2.005446e-02
3.159783e-01 2.068500e-02
3.171061e-01 2.134539e-02
3.182328e-01 2.203756e-02
3.193586e-01 2.276358e-02
3.204835e-01 2.352571e-02
3.216073e-01 2.432636e-02
3.227302e-01 2.516821e-02
3.238521e-01 2.605414e-02
3.249730e-01 2.698727e-02
3.260929e-01 2.797105e-02
3.272118e-01 2.900922e-02
3.283297e-01 3.010589e-02
3.294466e-01 3.126555e-02
3.305625e-01 3.249316e-02
3.316775e-01 3.379415e-02
3.327914e-01 3.517454e-02
3.339042e-01 3.664097e-02
3.350161e-01 3.820078e-02
3.361270e-01 3.986215e-02
3.372368e-01 4.163415e-02
3.383456e-01 4.352692e-02
3.394533e-01 4.555177e-02
3.405601e-01 4.772140e-02
3.416658e-01 5.005007e-02
3.427704e-01 5.255385e-02
3.438740e-01 5.525086e-02
3.449766e-01 5.816167e-02
3.460781e-01 6.130960e-02
3.471785e-01 6.472120e-02
3.482779e-01 6.842675e-02
3.493763e-01 7.246087e-02
3.504736e-01 7.686318e-02
3.515698e-01 8.167912e-02
3.526649e-01 8.696076e-02
3.537590e-01 9.276782e-02
3.548519e-01 9.916869e-02
3.559438e-01 1.062415e-01
3.570347e-01 1.140752e-01
3.581244e-01 1.227707e-01
3.592130e-01 1.324412e-01
3.603006e-01 1.432135e-01
3.613870e-01 1.552273e-01
3.624724e-01 1.686345e-01
3.635566e-01 1.835983e-01
3.646397e-01 2.002893e-01
3.657218e-01 2.188821e-01
3.668027e-01 2.395486e-01
3.678825e-01 2.624507e-01
3.689611e-01 2.877300e-01
3.700387e-01 3.154969e-01
3.711151e-01 3.458170e-01
3.721904e-01 3.786972e-01
3.732646e-01 4.140712e-01
3.743376e-01 4.517861e-01
3.754095e-01 4.915904e-01
3.764802e-01 5.331250e-01
3.775498e-01 5.759192e-01
3.786182e-01 6.193919e-01
3.796855e-01 6.628587e-01
3.807516e-01 7.055472e-01
3.818166e-01 7.466184e-01
3.828804e-01 7.851942e-01
3.839430e-01 8.203915e-01
3.850045e-01 8.513582e-01
3.860648e-01 8.773114e-01
3.871239e-01 8.975741e-01
3.881819e-01 9.116082e-01
3.892386e-01 9.190409e-01
3.902942e-01 9.196838e-01
3.913486e-01 9.135414e-01
3.924018e-01 9.008099e-01
3.934538e-01 8.818665e-01
3.945046e-01 8.572487e-01
3.955542e-01 8.276265e-01
3.966026e-01 7.937694e-01
3.976498e-01 7.565103e-01
3.986957e-01 7.167088e-01
3.997405e-01 6.752165e-01
4.007840e-01 6.328459e-01
4.018264e-01 5.903445e-01
4.028674e-01 5.483756e-01
4.039073e-01 5.075049e-01
4.049460e-01 4.681938e-01
4.059834e-01 4.307991e-01
4.070195e-01 3.955767e-01
4.080545e-01 3.626896e-01
4.090881e-01 3.322191e-01
4.101206e-01 3.041768e-01
4.111518e-01 2.785177e-01
4.121817e-01 2.551527e-01
4.132104e-01 2.339613e-01
4.142378e-01 2.148010e-01
4.152640e-01 1.975175e-01
4.162889e-01 1.819516e-01
4.173125e-01 1.679448e-01
4.183349e-01 1.553440e-01
4.193559e-01 1.440047e-01
4.203757e-01 1.337922e-01
4.213943e-01 1.245833e-01
4.224115e-01 1.162664e-01
4.234275e-01 1.087412e-01
4.244421e-01 1.019183e-01
4.254555e-01 9.571861e-02
4.264676e-01 9.007230e-02
4.274783e-01 8.491791e-02
4.284878e-01 8.020150e-02
4.294960e-01 7.587578e-02
4.305029e-01 7.189927e-02
4.315084e-01 6.823559e-02
4.325126e-01 6.485282e-02
4.335156e-01 6.172287e-02
4.345171e-01 5.882102e-02
4.355174e-01 5.612546e-02
4.365164e-01 5.361689e-02
4.375140e-01 5.127822e-02
4.385103e-01 4.909427e-02
4.395052e-01 4.705149e-02
4.404988e-01 4.513783e-02
4.414911e-01 4.334247e-02
4.424820e-01 4.165573e-02
4.434716e-01 4.006889e-02
4.444598e-01 3.857411e-02
4.454467e-01 3.716431e-02
4.464322e-01 3.583307e-02
4.474164e-01 3.457458e-02
4.483991e-01 3.338356e-02
4.493806e-01 3.225521e-02
4.503606e-01 3.118516e-02
4.513393e-01 3.016939e-02
4.523166e-01 2.920425e-02
4.532925e-01 2.828639e-02
4.542671e-01 2.741273e-02
4.552403e-01 2.658044e-02
4.562120e-01 2.578691e-02
4.571824e-01 2.502975e-02
4.581514e-01 2.430673e-02
4.591190e-01 2.361582e-02
4.600852e-01 2.295511e-02
4.610500e-01 2.232285e-02
4.620134e-01 2.171741e-02
4.629754e-01 2.113728e-02
4.639360e-01 2.058104e-02
4.648952e-01 2.004740e-02
4.658529e-01 1.953511e-02
4.668092e-01 1.904306e-02
4.677642e-01 1.857017e-02
4.687176e-01 1.811546e-02
4.696697e-01 1.767799e-02
,
3.012315e-01 1.347995e-02
3.023715e-01 1.383986e-02
3.035105e-01 1.421415e-02
3.046487e-01 1.460360e-02
3.057859e-01 1.500905e-02
3.069221e-01 1.543136e-02
3.080575e-01 1.587150e-02
3.091919e-01 1.633049e-02
3.103253e-01 1.680941e-02
3.114578e-01 1.730943e-02
3.125894e-01 1.783182e-02
3.137200e-01 1.837792e-02
3.148497e-01 1.894921e-02
3.159783e-01 1.954724e-02
3.171061e-01 2.017374e-02
3.182328e-01 2.083052e-02
3.193586e-01 2.151959e-02
3.204835e-01 2.224309e-02
3.216073e-01 2.300338e-02
3.227302e-01 2.380299e-02
3.238521e-01 2.464470e-02
3.249730e-01 2.553153e-02
3.260929e-01 2.646679e-02
3.272118e-01 2.745407e-02
3.283297e-01 2.849734e-02
3.294466e-01 2.960094e-02
3.305625e-01 3.076965e-02
3.316775e-01 3.200872e-02
3.327914e-01 3.332398e-02
3.339042e-01 3.472184e-02
3.350161e-01 3.620943e-02
3.361270e-01 3.779469e-02
3.372368e-01 3.948642e-02
3.383456e-01 4.129448e-02
3.394533e-01 4.322990e-02
3.405601e-01 4.530504e-02
3.416658e-01 4.753384e-02
3.427704e-01 4.993198e-02
3.438740e-01 5.251722e-02
3.449766e-01 5.530970e-02
3.460781e-01 5.833227e-02
3.471785e-01 6.161099e-02
3.482779e-01 6.517559e-02
3.493763e-01 6.906007e-02
3.504736e-01 7.330331e-02
3.515698e-01 7.794988e-02
3.526649e-01 8.305079e-02
3.537590e-01 8.866438e-02
3.548519e-01 9.485730e-02
3.559438e-01 1.017054e-01
3.570347e-01 1.092945e-01
3.581244e-01 1.177216e-01
3.592130e-01 1.270945e-01
3.603006e-01 1.375331e-01
3.613870e-01 1.491681e-01
3.624724e-01 1.621402e-01
3.635566e-01 1.765982e-01
3.646397e-01 1.926956e-01
3.657218e-01 2.105864e-01
3.668027e-01 2.304185e-01
3.678825e-01 2.523267e-01
3.689611e-01 2.764233e-01
3.700387e-01 3.027878e-01
3.711151e-01 3.314547e-01
3.721904e-01 3.624023e-01
3.732646e-01 3.955399e-01
3.743376e-01 4.306974e-01
3.754095e-01 4.676158e-01
3.764802e-01 5.059419e-01
3.775498e-01 5.452258e-01
3.786182e-01 5.849242e-01
3.796855e-01 6.244092e-01
3.807516e-01 6.629823e-01
3.818166e-01 6.998943e-01
3.828804e-01 7.343711e-01
3.839430e-01 7.656418e-01
3.850045e-01 7.929706e-01
3.860648e-01 8.156885e-01
3.871239e-01 8.332236e-01
3.881819e-01 8.451280e-01
3.892386e-01 8.510991e-01
3.902942e-01 8.509941e-01
3.913486e-01 8.448361e-01
3.924018e-01 8.328126e-01
3.934538e-01 8.152649e-01
3.945046e-01 7.926707e-01
3.955542e-01 7.656203e-01
3.966026e-01 7.347889e-01
3.976498e-01 7.009062e-01
3.986957e-01 6.647251e-01
3.997405e-01 6.269933e-01
4.007840e-01 5.884259e-01
4.018264e-01 5.496845e-01
4.028674e-01 5.113591e-01
4.039073e-01 4.739573e-01
4.049460e-01 4.378977e-01
4.059834e-01 4.035082e-01
4.070195e-01 3.710296e-01
4.080545e-01 3.406209e-01
4.090881e-01 3.123684e-01
4.101206e-01 2.862960e-01
4.111518e-01 2.623757e-01
4.121817e-01 2.405388e-01
4.132104e-01 2.206862e-01
4.142378e-01 2.026973e-01
4.152640e-01 1.864388e-01
4.162889e-01 1.717709e-01
4.173125e-01 1.585531e-01
4.183349e-01 1.466479e-01
4.193559e-01 1.359244e-01
4.203757e-01 1.262597e-01
4.213943e-01 1.175407e-01
4.224115e-01 1.096640e-01
4.234275e-01 1.025364e-01
4.244421e-01 9.607425e-02
4.254555e-01 9.020332e-02
4.264676e-01 8.485777e-02
4.274783e-01 7.997951e-02
4.284878e-01 7.551742e-02
4.294960e-01 7.142660e-02
4.305029e-01 6.766758e-02
4.315084e-01 6.420574e-02
4.325126e-01 6.101065e-02
4.335156e-01 5.805555e-02
4.345171e-01 5.531687e-02
4.355174e-01 5.277381e-02
4.365164e-01 5.040798e-02
4.375140e-01 4.820311e-02
4.385103e-01 4.614473e-02
4.395052e-01 4.421995e-02
4.404988e-01 4.241731e-02
4.414911e-01 4.072652e-02
4.424820e-01 3.913838e-02
4.434716e-01 3.764463e-02
4.444598e-01 3.623781e-02
4.454467e-01 3.491120e-02
4.464322e-01 3.365873e-02
4.474164e-01 3.247490e-02
4.483991e-01 3.135470e-02
4.493806e-01 3.029359e-02
4.503606e-01 2.928742e-02
4.513393e-01 2.833241e-02
4.523166e-01 2.742510e-02
4.532925e-01 2.656233e-02
4.542671e-01 2.574117e-02
4.552403e-01 2.495898e-02
4.562120e-01 2.421327e-02
4.571824e-01 2.350179e-02
4.581514e-01 2.282245e-02
4.591190e-01 2.217332e-02
4.600852e-01 2.155260e-02
4.610500e-01 2.095865e-02
4.620134e-01 2.038992e-02
4.629754e-01 1.984499e-02
4.639360e-01 1.932254e-02
4.648952e-01 1.882132e-02
4.658529e-01 1.834020e-02
4.668092e-01 1.787809e-02
4.677642e-01 1.743399e-02
4.687176e-01 1.700698e-02
4.696697e-01 1.659617e-02
,
3.012315e-01 1.312243e-02
3.023715e-01 1.347530e-02
3.035105e-01 1.384239e-02
3.046487e-01 1.422446e-02
3.057859e-01 1.462233e-02
3.069221e-01 1.503689e-02
3.080575e-01 1.546909e-02
3.091919e-01 1.591993e-02
3.103253e-01 1.639052e-02
3.114578e-01 1.688201e-02
3.125894e-01 1.739567e-02
3.137200e-01 1.793285e-02
3.148497e-01 1.849501e-02
3.159783e-01 1.908373e-02
3.171061e-01 1.970071e-02
3.182328e-01 2.034779e-02
3.193586e-01 2.102697e-02
3.204835e-01 2.174042e-02
3.216073e-01 2.249048e-02
3.227302e-01 2.327971e-02
3.238521e-01 2.411091e-02
3.249730e-01 2.498712e-02
3.260929e-01 2.591166e-02
3.272118e-01 2.688818e-02
3.283297e-01 2.792067e-02
3.294466e-01 2.901351e-02
3.305625e-01 3.017155e-02
3.316775e-01 3.140011e-02
3.327914e-01 3.270508e-02
3.339042e-01 3.409299e-02
3.350161e-01 3.557108e-02
3.361270e-01 3.714742e-02
3.372368e-01 3.883099e-02
3.383456e-01 4.063184e-02
3.394533e-01 4.256124e-02
3.405601e-01 4.463185e-02
3.416658e-01 4.685792e-02
3.427704e-01 4.925557e-02
3.438740e-01 5.184304e-02
3.449766e-01 5.464104e-02
3.460781e-01 5.767314e-02
3.471785e-01 6.096623e-02
3.482779e-01 6.455101e-02
3.493763e-01 6.846267e-02
3.504736e-01 7.274146e-02
3.515698e-01 7.743354e-02
3.526649e-01 8.259179e-02
3.537590e-01 8.827668e-02
3.548519e-01 9.455722e-02
3.559438e-01 1.015119e-01
3.570347e-01 1.092294e-01
3.581244e-01 1.178094e-01
3.592130e-01 1.273630e-01
3.603006e-01 1.380124e-01
3.613870e-01 1.498905e-01
3.624724e-01 1.631393e-01
3.635566e-01 1.779072e-01
3.646397e-01 1.943459e-01
3.657218e-01 2.126045e-01
3.668027e-01 2.328232e-01
3.678825e-01 2.551253e-01
3.689611e-01 2.796067e-01
3.700387e-01 3.063259e-01
3.711151e-01 3.352912e-01
3.721904e-01 3.664494e-01
3.732646e-01 3.996740e-01
3.743376e-01 4.347549e-01
3.754095e-01 4.713914e-01
3.764802e-01 5.091878e-01
3.775498e-01 5.476541e-01
3.786182e-01 5.862118e-01
3.796855e-01 6.242054e-01
3.807516e-01 6.609195e-01
3.818166e-01 6.956018e-01
3.828804e-01 7.274897e-01
3.839430e-01 7.558412e-01
3.850045e-01 7.799659e-01
3.860648e-01 7.992566e-01
3.871239e-01 8.132175e-01
3.881819e-01 8.214879e-01
3.892386e-01 8.238596e-01
3.902942e-01 8.202869e-01
3.913486e-01 8.108879e-01
3.924018e-01 7.959381e-01
3.934538e-01 7.758553e-01
3.945046e-01 7.511787e-01
3.955542e-01 7.225424e-01
3.966026e-01 6.906461e-01
3.976498e-01 6.562246e-01
3.986957e-01 6.200174e-01
3.997405e-01 5.827419e-01
4.007840e-01 5.450694e-01
4.018264e-01 5.076064e-01
4.028674e-01 4.708814e-01
4.039073e-01 4.353364e-01
4.049460e-01 4.013241e-01
4.059834e-01 3.691094e-01
4.070195e-01 3.388743e-01
4.080545e-01 3.107262e-01
4.090881e-01 2.847069e-01
4.101206e-01 2.608039e-01
4.111518e-01 2.389612e-01
4.121817e-01 2.190894e-01
4.132104e-01 2.010755e-01
4.142378e-01 1.847916e-01
4.152640e-01 1.701015e-01
4.162889e-01 1.568669e-01
4.173125e-01 1.449518e-01
4.183349e-01 1.342254e-01
4.193559e-01 1.245650e-01
4.203757e-01 1.158567e-01
4.213943e-01 1.079964e-01
4.224115e-01 1.008902e-01
4.234275e-01 9.445362e-02
4.244421e-01 8.861157e-02
4.254555e-01 8.329749e-02
4.264676e-01 7.845262e-02
4.274783e-01 7.402526e-02
4.284878e-01 6.997001e-02
4.294960e-01 6.624701e-02
4.305029e-01 6.282129e-02
4.315084e-01 5.966215e-02
4.325126e-01 5.674261e-02
4.335156e-01 5.403894e-02
4.345171e-01 5.153021e-02
4.355174e-01 4.919794e-02
4.365164e-01 4.702577e-02
4.375140e-01 4.499920e-02
4.385103e-01 4.310531e-02
4.395052e-01 4.133262e-02
4.404988e-01 3.967084e-02
4.414911e-01 3.811078e-02
4.424820e-01 3.664417e-02
4.434716e-01 3.526359e-02
4.444598e-01 3.396233e-02
4.454467e-01 3.273434e-02
4.464322e-01 3.157415e-02
4.474164e-01 3.047677e-02
4.483991e-01 2.943768e-02
4.493806e-01 2.845278e-02
4.503606e-01 2.751830e-02
4.513393e-01 2.663081e-02
4.523166e-01 2.578717e-02
4.532925e-01 2.498449e-02
4.542671e-01 2.422014e-02
4.552403e-01 2.349168e-02
4.562120e-01 2.279686e-02
4.571824e-01 2.213362e-02
4.581514e-01 2.150005e-02
4.591190e-01 2.089438e-02
4.600852e-01 2.031497e-02
4.610500e-01 1.976032e-02
4.620134e-01 1.922901e-02
4.629754e-01 1.871974e-02
4.639360e-01 1.823128e-02
4.648952e-01 1.776251e-02
4.658529e-01 1.731237e-02
4.668092e-01 1.687987e-02
4.677642e-01 1.646409e-02
4.687176e-01 1.606417e-02
4.696697e-01 1.567931e-02
,
3.012315e-01 1.244793e-02
3.023715e-01 1.278739e-02
3.035105e-01 1.314071e-02
3.046487e-01 1.350866e-02
3.057859e-01 1.389207e-02
3.069221e-01 1.429181e-02
3.080575e-01 1.470882e-02
3.091919e-01 1.514411e-02
3.103253e-01 1.559876e-02
3.114578e-01 1.607394e-02
3.125894e-01 1.657092e-02
3.137200e-01 1.709103e-02
3.148497e-01 1.763575e-02
3.159783e-01 1.820665e-02
3.171061e-01 1.880544e-02
3.182328e-01 1.943398e-02
3.193586e-01 2.009428e-02
3.204835e-01 2.078852e-02
3.216073e-01 2.151906e-02
3.227302e-01 2.228852e-02
3.238521e-01 2.309970e-02
3.249730e-01 2.395570e-02
3.260929e-01 2.485990e-02
3.272118e-01 2.581602e-02
3.283297e-01 2.682812e-02
3.294466e-01 2.790070e-02
3.305625e-01 2.903873e-02
3.316775e-01 3.024766e-02
3.327914e-01 3.153357e-02
3.339042e-01 3.290321e-02
3.350161e-01 3.436406e-02
3.361270e-01 3.592451e-02
3.372368e-01 3.759389e-02
3.383456e-01 3.938271e-02
3.394533e-01 4.130275e-02
3.405601e-01 4.336732e-02
3.416658e-01 4.559143e-02
3.427704e-01 4.799211e-02
3.438740e-01 5.058870e-02
3.449766e-01 5.340323e-02
3.460781e-01 5.646084e-02
3.471785e-01 5.979030e-02
3.482779e-01 6.342458e-02
3.493763e-01 6.740148e-02
3.504736e-01 7.176440e-02
3.515698e-01 7.656314e-02
3.526649e-01 8.185478e-02
3.537590e-01 8.770457e-02
3.548519e-01 9.418689e-02
3.559438e-01 1.013861e-01
3.570347e-01 1.093971e-01
3.581244e-01 1.183260e-01
3.592130e-01 1.282901e-01
3.603006e-01 1.394171e-01
3.613870e-01 1.518439e-01
3.624724e-01 1.657145e-01
3.635566e-01 1.811763e-01
3.646397e-01 1.983750e-01
3.657218e-01 2.174483e-01
3.668027e-01 2.385183e-01
3.678825e-01 2.616811e-01
3.689611e-01 2.869969e-01
3.700387e-01 3.144777e-01
3.711151e-01 3.440759e-01
3.721904e-01 3.756722e-01
3.732646e-01 4.090662e-01
3.743376e-01 4.439683e-01
3.754095e-01 4.799960e-01
3.764802e-01 5.166745e-01
3.775498e-01 5.534415e-01
3.786182e-01 5.896597e-01
3.796855e-01 6.246332e-01
3.807516e-01 6.576300e-01
3.818166e-01 6.879093e-01
3.828804e-01 7.147514e-01
3.839430e-01 7.374889e-01
3.850045e-01 7.555376e-01
3.860648e-01 7.684239e-01
3.871239e-01 7.758087e-01
3.881819e-01 7.775035e-01
3.892386e-01 7.734796e-01
3.902942e-01 7.638687e-01
3.913486e-01 7.489555e-01
3.924018e-01 7.291624e-01
3.934538e-01 7.050275e-01
3.945046e-01 6.771785e-01
3.955542e-01 6.463028e-01
3.966026e-01 6.131173e-01
3.976498e-01 5.783393e-01
3.986957e-01 5.426595e-01
3.997405e-01 5.067200e-01
4.007840e-01 4.710961e-01
4.018264e-01 4.362844e-01
4.028674e-01 4.026957e-01
4.039073e-01 3.706529e-01
4.049460e-01 3.403939e-01
4.059834e-01 3.120764e-01
4.070195e-01 2.857874e-01
4.080545e-01 2.615522e-01
4.090881e-01 2.393456e-01
4.101206e-01 2.191024e-01
4.111518e-01 2.007278e-01
4.121817e-01 1.841064e-01
4.132104e-01 1.691101e-01
4.142378e-01 1.556051e-01
4.152640e-01 1.434569e-01
4.162889e-01 1.325346e-01
4.173125e-01 1.227133e-01
4.183349e-01 1.138764e-01
4.193559e-01 1.059167e-01
4.203757e-01 9.873656e-02
4.213943e-01 9.224825e-02
4.224115e-01 8.637336e-02
4.234275e-01 8.104229e-02
4.244421e-01 7.619363e-02
4.254555e-01 7.177329e-02
4.264676e-01 6.773381e-02
4.274783e-01 6.403359e-02
4.284878e-01 6.063617e-02
4.294960e-01 5.750961e-02
4.305029e-01 5.462591e-02
4.315084e-01 5.196047e-02
4.325126e-01 4.949167e-02
4.335156e-01 4.720046e-02
4.345171e-01 4.507002e-02
4.355174e-01 4.308547e-02
4.365164e-01 4.123361e-02
4.375140e-01 3.950270e-02
4.385103e-01 3.788228e-02
4.395052e-01 3.636299e-02
4.404988e-01 3.493647e-02
4.414911e-01 3.359520e-02
4.424820e-01 3.233241e-02
4.434716e-01 3.114202e-02
4.444598e-01 3.001849e-02
4.454467e-01 2.895685e-02
4.464322e-01 2.795257e-02
4.474164e-01 2.700151e-02
4.483991e-01 2.609995e-02
4.493806e-01 2.524444e-02
4.503606e-01 2.443186e-02
4.513393e-01 2.365935e-02
4.523166e-01 2.292428e-02
4.532925e-01 2.222423e-02
4.542671e-01 2.155699e-02
4.552403e-01 2.092051e-02
4.562120e-01 2.031291e-02
4.571824e-01 1.973243e-02
4.581514e-01 1.917747e-02
4.591190e-01 1.864654e-02
4.600852e-01 1.813824e-02
4.610500e-01 1.765131e-02
4.620134e-01 1.718453e-02
4.629754e-01 1.673681e-02
4.639360e-01 1.630710e-02
4.648952e-01 1.589443e-02
4.658529e-01 1.549792e-02
4.668092e-01 1.511672e-02
4.677642e-01 1.475003e-02
4.687176e-01 1.439713e-02
4.696697e-01 1.405732e-02
,
3.012315e-01 1.180613e-02
3.023715e-01 1.213443e-02
3.035105e-01 1.247640e-02
3.046487e-01 1.283284e-02
3.057859e-01 1.320455e-02
3.069221e-01 1.359243e-02
3.080575e-01 1.399742e-02
3.091919e-01 1.442056e-02
3.103253e-01 1.486293e-02
3.114578e-01 1.532573e-02
3.125894e-01 1.581023e-02
3.137200e-01 1.631781e-02
3.148497e-01 1.684997e-02
3.159783e-01 1.740832e-02
3.171061e-01 1.799461e-02
3.182328e-01 1.861075e-02
3.193586e-01 1.925879e-02
3.204835e-01 1.994100e-02
3.216073e-01 2.065982e-02
3.227302e-01 2.141793e-02
3.238521e-01 2.221826e-02
3.249730e-01 2.306402e-02
3.260929e-01 2.395875e-02
3.272118e-01 2.490630e-02
3.283297e-01 2.591096e-02
3.294466e-01 2.697744e-02
3.305625e-01 2.811095e-02
3.316775e-01 2.931727e-02
3.327914e-01 3.060284e-02
3.339042e-01 3.197479e-02
3.350161e-01 3.344113e-02
3.361270e-01 3.501079e-02
3.372368e-01 3.669380e-02
3.383456e-01 3.850143e-02
3.394533e-01 4.044642e-02
3.405601e-01 4.254315e-02
3.416658e-01 4.480793e-02
3.427704e-01 4.725930e-02
3.438740e-01 4.991839e-02
3.449766e-01 5.280932e-02
3.460781e-01 5.595969e-02
3.471785e-01 5.940112e-02
3.482779e-01 6.316987e-02
3.493763e-01 6.730755e-02
3.504736e-01 7.186185e-02
3.515698e-01 7.688736e-02
3.526649e-01 8.244643e-02
3.537590e-01 8.860993e-02
3.548519e-01 9.545804e-02
3.559438e-01 1.030807e-01
3.570347e-01 1.115781e-01
3.581244e-01 1.210600e-01
3.592130e-01 1.316457e-01
3.603006e-01 1.434617e-01
3.613870e-01 1.566399e-01
3.624724e-01 1.713132e-01
3.635566e-01 1.876106e-01
3.646397e-01 2.056512e-01
3.657218e-01 2.255354e-01
3.668027e-01 2.473363e-01
3.678825e-01 2.710891e-01
3.689611e-01 2.967802e-01
3.700387e-01 3.243365e-01
3.711151e-01 3.536151e-01
3.721904e-01 3.843953e-01
3.732646e-01 4.163727e-01
3.743376e-01 4.491577e-01
3.754095e-01 4.822777e-01
3.764802e-01 5.151855e-01
3.775498e-01 5.472716e-01
3.786182e-01 5.778834e-01
3.796855e-01 6.063474e-01
3.807516e-01 6.319962e-01
3.818166e-01 6.541969e-01
3.828804e-01 6.723797e-01
3.839430e-01 6.860657e-01
3.850045e-01 6.948894e-01
3.860648e-01 6.986180e-01
3.871239e-01 6.971623e-01
3.881819e-01 6.905807e-01
3.892386e-01 6.790760e-01
3.902942e-01 6.629832e-01
3.913486e-01 6.427526e-01
3.924018e-01 6.189264e-01
3.934538e-01 5.921124e-01
3.945046e-01 5.629563e-01
3.955542e-01 5.321137e-01
3.966026e-01 5.002250e-01
3.976498e-01 4.678926e-01
3.986957e-01 4.356632e-01
3.997405e-01 4.040149e-01
4.007840e-01 3.733488e-01
4.018264e-01 3.439858e-01
4.028674e-01 3.161676e-01
4.039073e-01 2.900611e-01
4.049460e-01 2.657653e-01
4.059834e-01 2.433203e-01
4.070195e-01 2.227169e-01
4.080545e-01 2.039064e-01
4.090881e-01 1.868102e-01
4.101206e-01 1.713289e-01
4.111518e-01 1.573495e-01
4.121817e-01 1.447518e-01
4.132104e-01 1.334142e-01
4.142378e-01 1.232169e-01
4.152640e-01 1.140455e-01
4.162889e-01 1.057925e-01
4.173125e-01 9.835859e-02
4.183349e-01 9.165321e-02
4.193559e-01 8.559472e-02
4.203757e-01 8.011005e-02
4.213943e-01 7.513428e-02
4.224115e-01 7.061000e-02
4.234275e-01 6.648665e-02
4.244421e-01 6.271980e-02
4.254555e-01 5.927049e-02
4.264676e-01 5.610458e-02
4.274783e-01 5.319212e-02
4.284878e-01 5.050687e-02
4.294960e-01 4.802578e-02
4.305029e-01 4.572857e-02
4.315084e-01 4.359739e-02
4.325126e-01 4.161647e-02
4.335156e-01 3.977185e-02
4.345171e-01 3.805117e-02
4.355174e-01 3.644343e-02
4.365164e-01 3.493881e-02
4.375140e-01 3.352858e-02
4.385103e-01 3.220487e-02
4.395052e-01 3.096067e-02
4.404988e-01 2.978963e-02
4.414911e-01 2.868605e-02
4.424820e-01 2.764478e-02
4.434716e-01 2.666114e-02
4.444598e-01 2.573090e-02
4.454467e-01 2.485021e-02
4.464322e-01 2.401556e-02
4.474164e-01 2.322376e-02
4.483991e-01 2.247188e-02
4.493806e-01 2.175726e-02
4.503606e-01 2.107743e-02
4.513393e-01 2.043014e-02
4.523166e-01 1.981333e-02
4.532925e-01 1.922508e-02
4.542671e-01 1.866365e-02
4.552403e-01 1.812739e-02
4.562120e-01 1.761482e-02
4.571824e-01 1.712453e-02
4.581514e-01 1.665524e-02
4.591190e-01 1.620576e-02
4.600852e-01 1.577497e-02
4.610500e-01 1.536184e-02
4.620134e-01 1.496540e-02
4.629754e-01 1.458476e-02
4.639360e-01 1.421907e-02
4.648952e-01 1.386756e-02
4.658529e-01 1.352950e-02
4.668092e-01 1.320420e-02
4.677642e-01 1.289101e-02
4.687176e-01 1.258934e-02
4.696697e-01 1.229863e-02
,
3.012315e-01 1.073728e-02
3.023715e-01 1.104421e-02
3.035105e-01 1.136431e-02
3.046487e-01 1.169835e-02
3.057859e-01 1.204714e-02
3.069221e-01 1.241157e-02
3.080575e-01 1.279258e-02
3.091919e-01 1.319120e-02
3.103253e-01 1.360854e-02
3.114578e-01 1.404578e-02
3.125894e-01 1.450422e-02
3.137200e-01 1.498524e-02
3.148497e-01 1.549037e-02
3.159783e-01 1.602123e-02
3.171061e-01 1.657963e-02
3.182328e-01 1.716750e-02
3.193586e-01 1.778696e-02
3.204835e-01 1.844032e-02
3.216073e-01 1.913013e-02
3.227302e-01 1.985915e-02
3.238521e-01 2.063042e-02
3.249730e-01 2.144731e-02
3.260929e-01 2.231350e-02
3.272118e-01 2.323306e-02
3.283297e-01 2.421051e-02
3.294466e-01 2.525085e-02
3.305625e-01 2.635962e-02
3.316775e-01 2.754302e-02
3.327914e-01 2.880795e-02
3.339042e-01 3.016213e-02
3.350161e-01 3.161423e-02
3.361270e-01 3.317399e-02
3.372368e-01 3.485240e-02
3.383456e-01 3.666187e-02
3.394533e-01 3.861644e-02
3.405601e-01 4.073206e-02
3.416658e-01 4.302690e-02
3.427704e-01 4.552160e-02
3.438740e-01 4.823977e-02
3.449766e-01 5.120832e-02
3.460781e-01 5.445803e-02
3.471785e-01 5.802400e-02
3.482779e-01 6.194626e-02
3.493763e-01 6.627034e-02
3.504736e-01 7.104781e-02
3.515698e-01 7.633680e-02
3.526649e-01 8.220244e-02
3.537590e-01 8.871700e-02
3.548519e-01 9.595991e-02
3.559438e-01 1.040173e-01
3.570347e-01 1.129809e-01
3.581244e-01 1.229467e-01
3.592130e-01 1.340126e-01
3.603006e-01 1.462749e-01
3.613870e-01 1.598242e-01
3.624724e-01 1.747404e-01
3.635566e-01 1.910866e-01
3.646397e-01 2.089018e-01
3.657218e-01 2.281938e-01
3.668027e-01 2.489313e-01
3.678825e-01 2.710369e-01
3.689611e-01 2.943800e-01
3.700387e-01 3.187720e-01
3.711151e-01 3.439636e-01
3.721904e-01 3.696444e-01
3.732646e-01 3.954462e-01
3.743376e-01 4.209494e-01
3.754095e-01 4.456937e-01
3.764802e-01 4.691917e-01
3.775498e-01 4.909457e-01
3.786182e-01 5.104669e-01
3.796855e-01 5.272950e-01
3.807516e-01 5.410191e-01
3.818166e-01 5.512957e-01
3.828804e-01 5.578650e-01
3.839430e-01 5.605633e-01
3.850045e-01 5.593305e-01
3.860648e-01 5.542127e-01
3.871239e-01 5.453595e-01
3.881819e-01 5.330160e-01
3.892386e-01 5.175101e-01
3.902942e-01 4.992374e-01
3.913486e-01 4.786421e-01
3.924018e-01 4.561979e-01
3.934538e-01 4.323886e-01
3.945046e-01 4.076898e-01
3.955542e-01 3.825528e-01
3.966026e-01 3.573914e-01
3.976498e-01 3.325721e-01
3.986957e-01 3.084076e-01
3.997405e-01 2.851531e-01
4.007840e-01 2.630067e-01
4.018264e-01 2.421115e-01
4.028674e-01 2.225597e-01
4.039073e-01 2.043986e-01
4.049460e-01 1.876371e-01
4.059834e-01 1.722528e-01
4.070195e-01 1.581983e-01
4.080545e-01 1.454082e-01
4.090881e-01 1.338044e-01
4.101206e-01 1.233015e-01
4.111518e-01 1.138104e-01
4.121817e-01 1.052421e-01
4.132104e-01 9.750982e-02
4.142378e-01 9.053093e-02
4.152640e-01 8.422810e-02
4.162889e-01 7.852997e-02
4.173125e-01 7.337148e-02
4.183349e-01 6.869386e-02
4.193559e-01 6.444440e-02
4.203757e-01 6.057613e-02
4.213943e-01 5.704740e-02
4.224115e-01 5.382135e-02
4.234275e-01 5.086551e-02
4.244421e-01 4.815125e-02
4.254555e-01 4.565338e-02
4.264676e-01 4.334972e-02
4.274783e-01 4.122076e-02
4.284878e-01 3.924926e-02
4.294960e-01 3.742002e-02
4.305029e-01 3.571961e-02
4.315084e-01 3.413610e-02
4.325126e-01 3.265891e-02
4.335156e-01 3.127865e-02
4.345171e-01 2.998689e-02
4.355174e-01 2.877616e-02
4.365164e-01 2.763971e-02
4.375140e-01 2.657151e-02
4.385103e-01 2.556614e-02
4.395052e-01 2.461869e-02
4.404988e-01 2.372474e-02
4.414911e-01 2.288027e-02
4.424820e-01 2.208166e-02
4.434716e-01 2.132560e-02
4.444598e-01 2.060908e-02
4.454467e-01 1.992934e-02
4.464322e-01 1.928389e-02
4.474164e-01 1.867043e-02
4.483991e-01 1.808684e-02
4.493806e-01 1.753120e-02
4.503606e-01 1.700172e-02
4.513393e-01 1.649677e-02
4.523166e-01 1.601484e-02
4.532925e-01 1.555453e-02
4.542671e-01 1.511455e-02
4.552403e-01 1.469370e-02
4.562120e-01 1.429089e-02
4.571824e-01 1.390508e-02
4.581514e-01 1.353532e-02
4.591190e-01 1.318071e-02
4.600852e-01 1.284044e-02
4.610500e-01 1.251373e-02
4.620134e-01 1.219986e-02
4.629754e-01 1.189816e-02
4.639360e-01 1.160800e-02
4.648952e-01 1.132880e-02
4.658529e-01 1.105999e-02
4.668092e-01 1.080108e-02
4.677642e-01 1.055157e-02
4.687176e-01 1.031100e-02
4.696697e-01 1.007896e-02
,
3.012315e-01 9.632112e-03
3.023715e-01 9.914240e-03
3.035105e-01 1.020881e-02
3.046487e-01 1.051657e-02
3.057859e-01 1.083831e-02
3.069221e-01 1.117490e-02
3.080575e-01 1.152728e-02
3.091919e-01 1.189645e-02
3.103253e-01 1.228349e-02
3.114578e-01 1.268959e-02
3.125894e-01 1.311602e-02
3.137200e-01 1.356417e-02
3.148497e-01 1.403556e-02
3.159783e-01 1.453182e-02
3.171061e-01 1.505475e-02
3.182328e-01 1.560631e-02
3.193586e-01 1.618865e-02
3.204835e-01 1.680411e-02
3.216073e-01 1.745529e-02
3.227302e-01 1.814503e-02
3.238521e-01 1.887646e-02
3.249730e-01 1.965305e-02
3.260929e-01 2.047864e-02
3.272118e-01 2.135748e-02
3.283297e-01 2.229432e-02
3.294466e-01 2.329442e-02
3.305625e-01 2.436369e-02
3.316775e-01 2.550873e-02
3.327914e-01 2.673696e-02
3.339042e-01 2.805672e-02
3.350161e-01 2.947741e-02
3.361270e-01 3.100966e-02
3.372368e-01 3.266553e-02
3.383456e-01 3.445866e-02
3.394533e-01 3.640458e-02
3.405601e-01 3.852092e-02
3.416658e-01 4.082778e-02
3.427704e-01 4.334798e-02
3.438740e-01 4.610750e-02
3.449766e-01 4.913580e-02
3.460781e-01 5.246622e-02
3.471785e-01 5.613637e-02
3.482779e-01 6.018842e-02
3.493763e-01 6.466938e-02
3.504736e-01 6.963122e-02
3.515698e-01 7.513084e-02
3.526649e-01 8.122976e-02
3.537590e-01 8.799355e-02
3.548519e-01 9.549081e-02
3.559438e-01 1.037918e-01
3.570347e-01 1.129663e-01
3.581244e-01 1.230814e-01
3.592130e-01 1.341979e-01
3.603006e-01 1.463670e-01
3.613870e-01 1.596256e-01
3.624724e-01 1.739923e-01
3.635566e-01 1.894619e-01
3.646397e-01 2.060009e-01
3.657218e-01 2.235430e-01
3.668027e-01 2.419850e-01
3.678825e-01 2.611842e-01
3.689611e-01 2.809572e-01
3.700387e-01 3.010796e-01
3.711151e-01 3.212889e-01
3.721904e-01 3.412886e-01
3.732646e-01 3.607551e-01
3.743376e-01 3.793461e-01
3.754095e-01 3.967114e-01
3.764802e-01 4.125042e-01
3.775498e-01 4.263945e-01
3.786182e-01 4.380809e-01
3.796855e-01 4.473035e-01
3.807516e-01 4.538541e-01
3.818166e-01 4.575850e-01
3.828804e-01 4.584156e-01
3.839430e-01 4.563354e-01
3.850045e-01 4.514038e-01
3.860648e-01 4.437479e-01
3.871239e-01 4.335558e-01
3.881819e-01 4.210689e-01
3.892386e-01 4.065710e-01
3.902942e-01 3.903768e-01
3.913486e-01 3.728201e-01
3.924018e-01 3.542408e-01
3.934538e-01 3.349743e-01
3.945046e-01 3.153406e-01
3.955542e-01 2.956361e-01
3.966026e-01 2.761269e-01
3.976498e-01 2.570441e-01
3.986957e-01 2.385812e-01
3.997405e-01 2.208933e-01
4.007840e-01 2.040979e-01
4.018264e-01 1.882770e-01
4.028674e-01 1.734806e-01
4.039073e-01 1.597303e-01
4.049460e-01 1.470236e-01
4.059834e-01 1.353384e-01
4.070195e-01 1.246371e-01
4.080545e-01 1.148708e-01
4.090881e-01 1.059826e-01
4.101206e-01 9.791110e-02
4.111518e-01 9.059253e-02
4.121817e-01 8.396316e-02
4.132104e-01 7.796079e-02
4.142378e-01 7.252594e-02
4.152640e-01 6.760268e-02
4.162889e-01 6.313910e-02
4.173125e-01 5.908755e-02
4.183349e-01 5.540471e-02
4.193559e-01 5.205149e-02
4.203757e-01 4.899282e-02
4.213943e-01 4.619740e-02
4.224115e-01 4.363738e-02
4.234275e-01 4.128808e-02
4.244421e-01 3.912764e-02
4.254555e-01 3.713675e-02
4.264676e-01 3.529833e-02
4.274783e-01 3.359729e-02
4.284878e-01 3.202027e-02
4.294960e-01 3.055547e-02
4.305029e-01 2.919241e-02
4.315084e-01 2.792179e-02
4.325126e-01 2.673533e-02
4.335156e-01 2.562567e-02
4.345171e-01 2.458622e-02
4.355174e-01 2.361108e-02
4.365164e-01 2.269498e-02
4.375140e-01 2.183317e-02
4.385103e-01 2.102137e-02
4.395052e-01 2.025571e-02
4.404988e-01 1.953271e-02
4.414911e-01 1.884921e-02
4.424820e-01 1.820233e-02
4.434716e-01 1.758946e-02
4.444598e-01 1.700821e-02
4.454467e-01 1.645642e-02
4.464322e-01 1.593209e-02
4.474164e-01 1.543340e-02
4.483991e-01 1.495869e-02
4.493806e-01 1.450641e-02
4.503606e-01 1.407516e-02
4.513393e-01 1.366363e-02
4.523166e-01 1.327062e-02
4.532925e-01 1.289501e-02
4.542671e-01 1.253579e-02
4.552403e-01 1.219200e-02
4.562120e-01 1.186275e-02
4.571824e-01 1.154722e-02
4.581514e-01 1.124466e-02
4.591190e-01 1.095435e-02
4.600852e-01 1.067563e-02
4.610500e-01 1.040788e-02
4.620134e-01 1.015053e-02
4.629754e-01 9.903038e-03
4.639360e-01 9.664903e-03
4.648952e-01 9.435651e-03
4.658529e-01 9.214840e-03
4.668092e-01 9.002057e-03
4.677642e-01 8.796912e-03
4.687176e-01 8.599038e-03
4.696697e-01 8.408093e-03
,
3.012315e-01 8.601379e-03
3.023715e-01 8.861607e-03
3.035105e-01 9.133749e-03
3.046487e-01 9.418548e-03
3.057859e-01 9.716808e-03
3.069221e-01 1.002940e-02
3.080575e-01 1.035726e-02
3.091919e-01 1.070140e-02
3.103253e-01 1.106295e-02
3.114578e-01 1.144310e-02
3.125894e-01 1.184317e-02
3.137200e-01 1.226458e-02
3.148497e-01 1.270890e-02
3.159783e-01 1.317786e-02
3.171061e-01 1.367332e-02
3.182328e-01 1.419735e-02
3.193586e-01 1.475222e-02
3.204835e-01 1.534044e-02
3.216073e-01 1.596479e-02
3.227302e-01 1.662833e-02
3.238521e-01 1.733446e-02
3.249730e-01 1.808698e-02
3.260929e-01 1.889011e-02
3.272118e-01 1.974857e-02
3.283297e-01 2.066763e-02
3.294466e-01 2.165323e-02
3.305625e-01 2.271202e-02
3.316775e-01 2.385149e-02
3.327914e-01 2.508011e-02
3.339042e-01 2.640739e-02
3.350161e-01 2.784414e-02
3.361270e-01 2.940252e-02
3.372368e-01 3.109630e-02
3.383456e-01 3.294103e-02
3.394533e-01 3.495423e-02
3.405601e-01 3.715562e-02
3.416658e-01 3.956731e-02
3.427704e-01 4.221400e-02
3.438740e-01 4.512313e-02
3.449766e-01 4.832499e-02
3.460781e-01 5.185277e-02
3.471785e-01 5.574250e-02
3.482779e-01 6.003285e-02
3.493763e-01 6.476480e-02
3.504736e-01 6.998106e-02
3.515698e-01 7.572535e-02
3.526649e-01 8.204133e-02
3.537590e-01 8.897131e-02
3.548519e-01 9.655468e-02
3.559438e-01 1.048260e-01
3.570347e-01 1.138128e-01
3.581244e-01 1.235336e-01
3.592130e-01 1.339947e-01
3.603006e-01 1.451885e-01
3.613870e-01 1.570903e-01
3.624724e-01 1.696564e-01
3.635566e-01 1.828224e-01
3.646397e-01 1.965014e-01
3.657218e-01 2.105832e-01
3.668027e-01 2.249353e-01
3.678825e-01 2.394028e-01
3.689611e-01 2.538115e-01
3.700387e-01 2.679701e-01
3.711151e-01 2.816752e-01
3.721904e-01 2.947154e-01
3.732646e-01 3.068778e-01
3.743376e-01 3.179537e-01
3.754095e-01 3.277454e-01
3.764802e-01 3.360729e-01
3.775498e-01 3.427793e-01
3.786182e-01 3.477368e-01
3.796855e-01 3.508514e-01
3.807516e-01 3.520655e-01
3.818166e-01 3.513604e-01
3.828804e-01 3.487569e-01
3.839430e-01 3.443138e-01
3.850045e-01 3.381262e-01
3.860648e-01 3.303212e-01
3.871239e-01 3.210537e-01
3.881819e-01 3.105005e-01
3.892386e-01 2.988546e-01
3.902942e-01 2.863187e-01
3.913486e-01 2.730990e-01
3.924018e-01 2.593994e-01
3.934538e-01 2.454160e-01
3.945046e-01 2.313331e-01
3.955542e-01 2.173187e-01
3.966026e-01 2.035226e-01
3.976498e-01 1.900737e-01
3.986957e-01 1.770801e-01
3.997405e-01 1.646281e-01
4.007840e-01 1.527835e-01
4.018264e-01 1.415924e-01
4.028674e-01 1.310835e-01
4.039073e-01 1.212693e-01
4.049460e-01 1.121489e-01
4.059834e-01 1.037101e-01
4.070195e-01 9.593144e-02
4.080545e-01 8.878464e-02
4.090881e-01 8.223615e-02
4.101206e-01 7.624909e-02
4.111518e-01 7.078468e-02
4.121817e-01 6.580343e-02
4.132104e-01 6.126619e-02
4.142378e-01 5.713488e-02
4.152640e-01 5.337310e-02
4.162889e-01 4.994649e-02
4.173125e-01 4.682303e-02
4.183349e-01 4.397315e-02
4.193559e-01 4.136974e-02
4.203757e-01 3.898815e-02
4.213943e-01 3.680608e-02
4.224115e-01 3.480345e-02
4.234275e-01 3.296223e-02
4.244421e-01 3.126632e-02
4.254555e-01 2.970133e-02
4.264676e-01 2.825446e-02
4.274783e-01 2.691428e-02
4.284878e-01 2.567065e-02
4.294960e-01 2.451452e-02
4.305029e-01 2.343785e-02
4.315084e-01 2.243346e-02
4.325126e-01 2.149495e-02
4.335156e-01 2.061661e-02
4.345171e-01 1.979332e-02
4.355174e-01 1.902049e-02
4.365164e-01 1.829400e-02
4.375140e-01 1.761015e-02
4.385103e-01 1.696559e-02
4.395052e-01 1.635731e-02
4.404988e-01 1.578259e-02
4.414911e-01 1.523894e-02
4.424820e-01 1.472412e-02
4.434716e-01 1.423609e-02
4.444598e-01 1.377298e-02
4.454467e-01 1.333308e-02
4.464322e-01 1.291485e-02
4.474164e-01 1.251685e-02
4.483991e-01 1.213777e-02
4.493806e-01 1.177641e-02
4.503606e-01 1.143167e-02
4.513393e-01 1.110251e-02
4.523166e-01 1.078800e-02
4.532925e-01 1.048727e-02
4.542671e-01 1.019951e-02
4.552403e-01 9.923965e-03
4.562120e-01 9.659948e-03
4.571824e-01 9.406813e-03
4.581514e-01 9.163960e-03
4.591190e-01 8.930831e-03
4.600852e-01 8.706904e-03
4.610500e-01 8.491694e-03
4.620134e-01 8.284748e-03
4.629754e-01 8.085641e-03
4.639360e-01 7.893975e-03
4.648952e-01 7.709380e-03
4.658529e-01 7.531507e-03
4.668092e-01 7.360028e-03
4.677642e-01 7.194635e-03
4.687176e-01 7.035041e-03
4.696697e-01 6.880973e-03
,
3.012315e-01 7.016802e-03
3.023715e-01 7.242072e-03
3.035105e-01 7.478456e-03
3.046487e-01 7.726716e-03
3.057859e-01 7.987681e-03
3.069221e-01 8.262254e-03
3.080575e-01 8.551425e-03
3.091919e-01 8.856277e-03
3.103253e-01 9.177998e-03
3.114578e-01 9.517896e-03
3.125894e-01 9.877410e-03
3.137200e-01 1.025813e-02
3.148497e-01 1.066181e-02
3.159783e-01 1.109040e-02
3.171061e-01 1.154607e-02
3.182328e-01 1.203121e-02
3.193586e-01 1.254852e-02
3.204835e-01 1.310100e-02
3.216073e-01 1.369198e-02
3.227302e-01 1.432522e-02
3.238521e-01 1.500493e-02
3.249730e-01 1.573583e-02
3.260929e-01 1.652322e-02
3.272118e-01 1.737304e-02
3.283297e-01 1.829196e-02
3.294466e-01 1.928747e-02
3.305625e-01 2.036793e-02
3.316775e-01 2.154270e-02
3.327914e-01 2.282219e-02
3.339042e-01 2.421797e-02
3.350161e-01 2.574284e-02
3.361270e-01 2.741088e-02
3.372368e-01 2.923748e-02
3.383456e-01 3.123939e-02
3.394533e-01 3.343468e-02
3.405601e-01 3.584266e-02
3.416658e-01 3.848377e-02
3.427704e-01 4.137941e-02
3.438740e-01 4.455166e-02
3.449766e-01 4.802292e-02
3.460781e-01 5.181555e-02
3.471785e-01 5.595126e-02
3.482779e-01 6.045056e-02
3.493763e-01 6.533199e-02
3.504736e-01 7.061139e-02
3.515698e-01 7.630096e-02
3.526649e-01 8.240840e-02
3.537590e-01 8.893594e-02
3.548519e-01 9.587938e-02
3.559438e-01 1.032272e-01
3.570347e-01 1.109598e-01
3.581244e-01 1.190485e-01
3.592130e-01 1.274556e-01
3.603006e-01 1.361335e-01
3.613870e-01 1.450246e-01
3.624724e-01 1.540621e-01
3.635566e-01 1.631698e-01
3.646397e-01 1.722635e-01
3.657218e-01 1.812518e-01
3.668027e-01 1.900378e-01
3.678825e-01 1.985206e-01
3.689611e-01 2.065977e-01
3.700387e-01 2.141667e-01
3.711151e-01 2.211280e-01
3.721904e-01 2.273871e-01
3.732646e-01 2.328568e-01
3.743376e-01 2.374594e-01
3.754095e-01 2.411290e-01
3.764802e-01 2.438129e-01
3.775498e-01 2.454729e-01
3.786182e-01 2.460868e-01
3.796855e-01 2.456483e-01
3.807516e-01 2.441677e-01
3.818166e-01 2.416711e-01
3.828804e-01 2.381998e-01
3.839430e-01 2.338090e-01
3.850045e-01 2.285664e-01
3.860648e-01 2.225499e-01
3.871239e-01 2.158464e-01
3.881819e-01 2.085487e-01
3.892386e-01 2.007537e-01
3.902942e-01 1.925603e-01
3.913486e-01 1.840668e-01
3.924018e-01 1.753692e-01
3.934538e-01 1.665596e-01
3.945046e-01 1.577242e-01
3.955542e-01 1.489426e-01
3.966026e-01 1.402863e-01
3.976498e-01 1.318185e-01
3.986957e-01 1.235934e-01
3.997405e-01 1.156562e-01
4.007840e-01 1.080434e-01
4.018264e-01 1.007827e-01
4.028674e-01 9.389417e-02
4.039073e-01 8.739011e-02
4.049460e-01 8.127639e-02
4.059834e-01 7.555295e-02
4.070195e-01 7.021470e-02
4.080545e-01 6.525237e-02
4.090881e-01 6.065323e-02
4.101206e-01 5.640192e-02
4.111518e-01 5.248106e-02
4.121817e-01 4.887197e-02
4.132104e-01 4.555514e-02
4.142378e-01 4.251073e-02
4.152640e-01 3.971897e-02
4.162889e-01 3.716048e-02
4.173125e-01 3.481651e-02
4.183349e-01 3.266913e-02
4.193559e-01 3.070141e-02
4.203757e-01 2.889743e-02
4.213943e-01 2.724240e-02
4.224115e-01 2.572264e-02
4.234275e-01 2.432557e-02
4.244421e-01 2.303970e-02
4.254555e-01 2.185456e-02
4.264676e-01 2.076065e-02
4.274783e-01 1.974938e-02
4.284878e-01 1.881301e-02
4.294960e-01 1.794455e-02
4.305029e-01 1.713775e-02
4.315084e-01 1.638697e-02
4.325126e-01 1.568717e-02
4.335156e-01 1.503380e-02
4.345171e-01 1.442283e-02
4.355174e-01 1.385058e-02
4.365164e-01 1.331380e-02
4.375140e-01 1.280954e-02
4.385103e-01 1.233515e-02
4.395052e-01 1.188826e-02
4.404988e-01 1.146670e-02
4.414911e-01 1.106854e-02
4.424820e-01 1.069201e-02
4.434716e-01 1.033553e-02
4.444598e-01 9.997655e-03
4.454467e-01 9.677057e-03
4.464322e-01 9.372543e-03
4.474164e-01 9.083018e-03
4.483991e-01 8.807481e-03
4.493806e-01 8.545017e-03
4.503606e-01 8.294785e-03
4.513393e-01 8.056012e-03
4.523166e-01 7.827989e-03
4.532925e-01 7.610060e-03
4.542671e-01 7.401621e-03
4.552403e-01 7.202112e-03
4.562120e-01 7.011017e-03
4.571824e-01 6.827855e-03
4.581514e-01 6.652183e-03
4.591190e-01 6.483587e-03
4.600852e-01 6.321681e-03
4.610500e-01 6.166108e-03
4.620134e-01 6.016534e-03
4.629754e-01 5.872647e-03
4.639360e-01 5.734154e-03
4.648952e-01 5.600785e-03
4.658529e-01 5.472282e-03
4.668092e-01 5.348408e-03
4.677642e-01 5.228937e-03
4.687176e-01 5.113659e-03
4.696697e-01 5.002376e-03
,
3.012315e-01 4.675633e-03
3.023715e-01 4.851124e-03
3.035105e-01 5.037497e-03
3.046487e-01 5.235744e-03
3.057859e-01 5.446972e-03
3.069221e-01 5.672421e-03
3.080575e-01 5.913478e-03
3.091919e-01 6.171695e-03
3.103253e-01 6.448811e-03
3.114578e-01 6.746771e-03
3.125894e-01 7.067751e-03
3.137200e-01 7.414185e-03
3.148497e-01 7.788787e-03
3.159783e-01 8.194584e-03
3.171061e-01 8.634939e-03
3.182328e-01 9.113584e-03
3.193586e-01 9.634647e-03
3.204835e-01 1.020268e-02
3.216073e-01 1.082268e-02
3.227302e-01 1.150012e-02
3.238521e-01 1.224095e-02
3.249730e-01 1.305163e-02
3.260929e-01 1.393911e-02
3.272118e-01 1.491085e-02
3.283297e-01 1.597476e-02
3.294466e-01 1.713923e-02
3.305625e-01 1.841302e-02
3.316775e-01 1.980527e-02
3.327914e-01 2.132534e-02
3.339042e-01 2.298276e-02
3.350161e-01 2.478710e-02
3.361270e-01 2.674784e-02
3.372368e-01 2.887415e-02
3.383456e-01 3.117478e-02
3.394533e-01 3.365781e-02
3.405601e-01 3.633043e-02
3.416658e-01 3.919871e-02
3.427704e-01 4.226737e-02
3.438740e-01 4.553948e-02
3.449766e-01 4.901624e-02
3.460781e-01 5.269673e-02
3.471785e-01 5.657764e-02
3.482779e-01 6.065307e-02
3.493763e-01 6.491435e-02
3.504736e-01 6.934984e-02
3.515698e-01 7.394486e-02
3.526649e-01 7.868159e-02
3.537590e-01 8.353903e-02
3.548519e-01 8.849314e-02
3.559438e-01 9.351682e-02
3.570347e-01 9.858022e-02
3.581244e-01 1.036509e-01
3.592130e-01 1.086941e-01
3.603006e-01 1.136733e-01
3.613870e-01 1.185505e-01
3.624724e-01 1.232867e-01
3.635566e-01 1.278426e-01
3.646397e-01 1.321789e-01
3.657218e-01 1.362572e-01
3.668027e-01 1.400404e-01
3.678825e-01 1.434933e-01
3.689611e-01 1.465833e-01
3.700387e-01 1.492807e-01
3.711151e-01 1.515597e-01
3.721904e-01 1.533983e-01
3.732646e-01 1.547788e-01
3.743376e-01 1.556883e-01
3.754095e-01 1.561189e-01
3.764802e-01 1.560675e-01
3.775498e-01 1.555363e-01
3.786182e-01 1.545324e-01
3.796855e-01 1.530675e-01
3.807516e-01 1.511583e-01
3.818166e-01 1.488255e-01
3.828804e-01 1.460937e-01
3.839430e-01 1.429910e-01
3.850045e-01 1.395486e-01
3.860648e-01 1.357997e-01
3.871239e-01 1.317799e-01
3.881819e-01 1.275255e-01
3.892386e-01 1.230740e-01
3.902942e-01 1.184628e-01
3.913486e-01 1.137290e-01
3.924018e-01 1.089091e-01
3.934538e-01 1.040379e-01
3.945046e-01 9.914885e-02
3.955542e-01 9.427332e-02
3.966026e-01 8.944035e-02
3.976498e-01 8.467649e-02
3.986957e-01 8.000562e-02
3.997405e-01 7.544887e-02
4.007840e-01 7.102452e-02
4.018264e-01 6.674806e-02
4.028674e-01 6.263221e-02
4.039073e-01 5.868704e-02
4.049460e-01 5.492005e-02
4.059834e-01 5.133638e-02
4.070195e-01 4.793896e-02
4.080545e-01 4.472871e-02
4.090881e-01 4.170476e-02
4.101206e-01 3.886462e-02
4.111518e-01 3.620448e-02
4.121817e-01 3.371931e-02
4.132104e-01 3.140315e-02
4.142378e-01 2.924927e-02
4.152640e-01 2.725035e-02
4.162889e-01 2.539862e-02
4.173125e-01 2.368608e-02
4.183349e-01 2.210455e-02
4.193559e-01 2.064584e-02
4.203757e-01 1.930184e-02
4.213943e-01 1.806461e-02
4.224115e-01 1.692640e-02
4.234275e-01 1.587980e-02
4.244421e-01 1.491769e-02
4.254555e-01 1.403332e-02
4.264676e-01 1.322032e-02
4.274783e-01 1.247272e-02
4.284878e-01 1.178494e-02
4.294960e-01 1.115180e-02
4.305029e-01 1.056849e-02
4.315084e-01 1.003061e-02
4.325126e-01 9.534074e-03
4.335156e-01 9.075176e-03
4.345171e-01 8.650517e-03
4.355174e-01 8.257003e-03
4.365164e-01 7.891823e-03
4.375140e-01 7.552429e-03
4.385103e-01 7.236510e-03
4.395052e-01 6.941980e-03
4.404988e-01 6.666952e-03
4.414911e-01 6.409726e-03
4.424820e-01 6.168765e-03
4.434716e-01 5.942687e-03
4.444598e-01 5.730243e-03
4.454467e-01 5.530308e-03
4.464322e-01 5.341867e-03
4.474164e-01 5.164005e-03
4.483991e-01 4.995895e-03
4.493806e-01 4.836788e-03
4.503606e-01 4.686009e-03
4.513393e-01 4.542944e-03
4.523166e-01 4.407037e-03
4.532925e-01 4.277784e-03
4.542671e-01 4.154724e-03
4.552403e-01 4.037439e-03
4.562120e-01 3.925546e-03
4.571824e-01 3.818696e-03
4.581514e-01 3.716569e-03
4.591190e-01 3.618872e-03
4.600852e-01 3.525334e-03
4.610500e-01 3.435706e-03
4.620134e-01 3.349761e-03
4.629754e-01 3.267286e-03
4.639360e-01 3.188087e-03
4.648952e-01 3.111980e-03
4.658529e-01 3.038800e-03
4.668092e-01 2.968388e-03
4.677642e-01 2.900601e-03
4.687176e-01 2.835302e-03
4.696697e-01 2.772365e-03
,
3.012315e-01 3.586583e-03
3.023715e-01 3.749207e-03
3.035105e-01 3.924643e-03
3.046487e-01 4.114258e-03
3.057859e-01 4.319577e-03
3.069221e-01 4.542290e-03
3.080575e-01 4.784272e-03
3.091919e-01 5.047597e-03
3.103253e-01 5.334551e-03
3.114578e-01 5.647645e-03
3.125894e-01 5.989634e-03
3.137200e-01 6.363521e-03
3.148497e-01 6.772576e-03
3.159783e-01 7.220337e-03
3.171061e-01 7.710618e-03
3.182328e-01 8.247511e-03
3.193586e-01 8.835386e-03
3.204835e-01 9.478875e-03
3.216073e-01 1.018287e-02
3.227302e-01 1.095249e-02
3.238521e-01 1.179308e-02
3.249730e-01 1.271013e-02
3.260929e-01 1.370929e-02
3.272118e-01 1.479628e-02
3.283297e-01 1.597684e-02
3.294466e-01 1.725665e-02
3.305625e-01 1.864128e-02
3.316775e-01 2.013608e-02
3.327914e-01 2.174609e-02
3.339042e-01 2.347594e-02
3.350161e-01 2.532973e-02
3.361270e-01 2.731094e-02
3.372368e-01 2.942227e-02
3.383456e-01 3.166557e-02
3.394533e-01 3.404169e-02
3.405601e-01 3.655036e-02
3.416658e-01 3.919009e-02
3.427704e-01 4.195809e-02
3.438740e-01 4.485012e-02
3.449766e-01 4.786047e-02
3.460781e-01 5.098185e-02
3.471785e-01 5.420540e-02
3.482779e-01 5.752061e-02
3.493763e-01 6.091537e-02
3.504736e-01 6.437596e-02
3.515698e-01 6.788714e-02
3.526649e-01 7.143220e-02
3.537590e-01 7.499308e-02
3.548519e-01 7.855053e-02
3.559438e-01 8.208422e-02
3.570347e-01 8.557299e-02
3.581244e-01 8.899500e-02
3.592130e-01 9.232802e-02
3.603006e-01 9.554964e-02
3.613870e-01 9.863753e-02
3.624724e-01 1.015697e-01
3.635566e-01 1.043249e-01
3.646397e-01 1.068826e-01
3.657218e-01 1.092235e-01
3.668027e-01 1.113299e-01
3.678825e-01 1.131855e-01
3.689611e-01 1.147760e-01
3.700387e-01 1.160891e-01
3.711151e-01 1.171149e-01
3.721904e-01 1.178456e-01
3.732646e-01 1.182762e-01
3.743376e-01 1.184038e-01
3.754095e-01 1.182285e-01
3.764802e-01 1.177526e-01
3.775498e-01 1.169811e-01
3.786182e-01 1.159213e-01
3.796855e-01 1.145829e-01
3.807516e-01 1.129775e-01
3.818166e-01 1.111191e-01
3.828804e-01 1.090229e-01
3.839430e-01 1.067062e-01
3.850045e-01 1.041873e-01
3.860648e-01 1.014857e-01
3.871239e-01 9.862153e-02
3.881819e-01 9.561569e-02
3.892386e-01 9.248930e-02
3.902942e-01 8.926354e-02
3.913486e-01 8.595945e-02
3.924018e-01 8.259765e-02
3.934538e-01 7.919818e-02
3.945046e-01 7.578030e-02
3.955542e-01 7.236232e-02
3.966026e-01 6.896148e-02
3.976498e-01 6.559381e-02
3.986957e-01 6.227407e-02
3.997405e-01 5.901564e-02
4.007840e-01 5.583050e-02
4.018264e-01 5.272920e-02
4.028674e-01 4.972088e-02
4.039073e-01 4.681323e-02
4.049460e-01 4.401260e-02
4.059834e-01 4.132399e-02
4.070195e-01 3.875113e-02
4.080545e-01 3.629656e-02
4.090881e-01 3.396172e-02
4.101206e-01 3.174702e-02
4.111518e-01 2.965194e-02
4.121817e-01 2.767514e-02
4.132104e-01 2.581453e-02
4.142378e-01 2.406740e-02
4.152640e-01 2.243049e-02
4.162889e-01 2.090008e-02
4.173125e-01 1.947211e-02
4.183349e-01 1.814219e-02
4.193559e-01 1.690577e-02
4.203757e-01 1.575814e-02
4.213943e-01 1.469450e-02
4.224115e-01 1.371004e-02
4.234275e-01 1.279999e-02
4.244421e-01 1.195963e-02
4.254555e-01 1.118435e-02
4.264676e-01 1.046968e-02
4.274783e-01 9.811310e-03
4.284878e-01 9.205105e-03
4.294960e-01 8.647126e-03
4.305029e-01 8.133637e-03
4.315084e-01 7.661113e-03
4.325126e-01 7.226238e-03
4.335156e-01 6.825912e-03
4.345171e-01 6.457241e-03
4.355174e-01 6.117539e-03
4.365164e-01 5.804316e-03
4.375140e-01 5.515274e-03
4.385103e-01 5.248298e-03
4.395052e-01 5.001445e-03
4.404988e-01 4.772935e-03
4.414911e-01 4.561141e-03
4.424820e-01 4.364581e-03
4.434716e-01 4.181902e-03
4.444598e-01 4.011877e-03
4.454467e-01 3.853389e-03
4.464322e-01 3.705429e-03
4.474164e-01 3.567081e-03
4.483991e-01 3.437516e-03
4.493806e-01 3.315985e-03
4.503606e-01 3.201809e-03
4.513393e-01 3.094378e-03
4.523166e-01 2.993137e-03
4.532925e-01 2.897587e-03
4.542671e-01 2.807276e-03
4.552403e-01 2.721795e-03
4.562120e-01 2.640775e-03
4.571824e-01 2.563880e-03
4.581514e-01 2.490807e-03
4.591190e-01 2.421281e-03
4.600852e-01 2.355052e-03
4.610500e-01 2.291892e-03
4.620134e-01 2.231594e-03
4.629754e-01 2.173970e-03
4.639360e-01 2.118845e-03
4.648952e-01 2.066064e-03
4.658529e-01 2.015481e-03
4.668092e-01 1.966963e-03
4.677642e-01 1.920388e-03
4.687176e-01 1.875644e-03
4.696697e-01 1.832628e-03
,
3.012315e-01 7.343175e-04
3.023715e-01 9.993211e-04
3.035105e-01 1.292640e-03
3.046487e-01 1.616086e-03
3.057859e-01 1.971484e-03
3.069221e-01 2.360662e-03
3.080575e-01 2.785441e-03
3.091919e-01 3.247619e-03
3.103253e-01 3.748954e-03
3.114578e-01 4.291157e-03
3.125894e-01 4.875866e-03
3.137200e-01 5.504636e-03
3.148497e-01 6.178918e-03
3.159783e-01 6.900042e-03
3.171061e-01 7.669200e-03
3.182328e-01 8.487425e-03
3.193586e-01 9.355575e-03
3.204835e-01 1.027431e-02
3.216073e-01 1.124408e-02
3.227302e-01 1.226511e-02
3.238521e-01 1.333736e-02
3.249730e-01 1.446055e-02
3.260929e-01 1.563411e-02
3.272118e-01 1.685718e-02
3.283297e-01 1.812860e-02
3.294466e-01 1.944691e-02
3.305625e-01 2.081032e-02
3.316775e-01 2.221671e-02
3.327914e-01 2.366364e-02
3.339042e-01 2.514836e-02
3.350161e-01 2.666777e-02
3.361270e-01 2.821846e-02
3.372368e-01 2.979670e-02
3.383456e-01 3.139849e-02
3.394533e-01 3.301949e-02
3.405601e-01 3.465514e-02
3.416658e-01 3.630059e-02
3.427704e-01 3.795078e-02
3.438740e-01 3.960044e-02
3.449766e-01 4.124411e-02
3.460781e-01 4.287619e-02
3.471785e-01 4.449096e-02
3.482779e-01 4.608261e-02
3.493763e-01 4.764528e-02
3.504736e-01 4.917310e-02
3.515698e-01 5.066021e-02
3.526649e-01 5.210082e-02
3.537590e-01 5.348921e-02
3.548519e-01 5.481983e-02
3.559438e-01 5.608728e-02
3.570347e-01 5.728637e-02
3.581244e-01 5.841215e-02
3.592130e-01 5.945995e-02
3.603006e-01 6.042540e-02
3.613870e-01 6.130448e-02
3.624724e-01 6.209353e-02
3.635566e-01 6.278929e-02
3.646397e-01 6.338888e-02
3.657218e-01 6.388991e-02
3.668027e-01 6.429038e-02
3.678825e-01 6.458878e-02
3.689611e-01 6.478408e-02
3.700387e-01 6.487569e-02
3.711151e-01 6.486353e-02
3.721904e-01 6.474797e-02
3.732646e-01 6.452987e-02
3.743376e-01 6.421054e-02
3.754095e-01 6.379173e-02
3.764802e-01 6.327565e-02
3.775498e-01 6.266489e-02
3.786182e-01 6.196246e-02
3.796855e-01 6.117172e-02
3.807516e-01 6.029640e-02
3.818166e-01 5.934053e-02
3.828804e-01 5.830841e-02
3.839430e-01 5.720461e-02
3.850045e-01 5.603394e-02
3.860648e-01 5.480137e-02
3.871239e-01 5.351203e-02
3.881819e-01 5.217119e-02
3.892386e-01 5.078417e-02
3.902942e-01 4.935639e-02
3.913486e-01 4.789325e-02
3.924018e-01 4.640016e-02
3.934538e-01 4.488249e-02
3.945046e-01 4.334552e-02
3.955542e-01 4.179444e-02
3.966026e-01 4.023432e-02
3.976498e-01 3.867007e-02
3.986957e-01 3.710644e-02
3.997405e-01 3.554797e-02
4.007840e-01 3.399900e-02
4.018264e-01 3.246366e-02
4.028674e-01 3.094581e-02
4.039073e-01 2.944907e-02
4.049460e-01 2.797683e-02
4.059834e-01 2.653217e-02
4.070195e-01 2.511794e-02
4.080545e-01 2.373669e-02
4.090881e-01 2.239072e-02
4.101206e-01 2.108205e-02
4.111518e-01 1.981242e-02
4.121817e-01 1.858334e-02
4.132104e-01 1.739604e-02
4.142378e-01 1.625151e-02
4.152640e-01 1.515052e-02
4.162889e-01 1.409358e-02
4.173125e-01 1.308101e-02
4.183349e-01 1.211291e-02
4.193559e-01 1.118921e-02
4.203757e-01 1.030964e-02
4.213943e-01 9.473777e-03
4.224115e-01 8.681035e-03
4.234275e-01 7.930699e-03
4.244421e-01 7.221928e-03
4.254555e-01 6.553769e-03
4.264676e-01 5.925173e-03
4.274783e-01 5.335002e-03
4.284878e-01 4.782050e-03
4.294960e-01 4.265047e-03
4.305029e-01 3.782675e-03
4.315084e-01 3.333579e-03
4.325126e-01 2.916373e-03
4.335156e-01 2.529657e-03
4.345171e-01 2.172017e-03
4.355174e-01 1.842041e-03
4.365164e-01 1.538321e-03
4.375140e-01 1.259465e-03
4.385103e-01 1.004099e-03
4.395052e-01 7.708735e-04
4.404988e-01 5.584694e-04
4.414911e-01 3.656019e-04
4.424820e-01 1.910238e-04
4.434716e-01 3.352880e-05
4.444598e-01 -1.080462e-04
4.454467e-01 -2.348188e-04
4.464322e-01 -3.478599e-04
4.474164e-01 -4.481925e-04
4.483991e-01 -5.367908e-04
4.493806e-01 -6.145803e-04
4.503606e-01 -6.824378e-04
4.513393e-01 -7.411915e-04
4.523166e-01 -7.916217e-04
4.532925e-01 -8.344619e-04
4.542671e-01 -8.703997e-04
4.552403e-01 -9.000780e-04
4.562120e-01 -9.240966e-04
4.571824e-01 -9.430135e-04
4.581514e-01 -9.573466e-04
4.591190e-01 -9.675756e-04
4.600852e-01 -9.741433e-04
4.610500e-01 -9.774579e-04
4.620134e-01 -9.778945e-04
4.629754e-01 -9.757969e-04
4.639360e-01 -9.714796e-04
4.648952e-01 -9.652292e-04
4.658529e-01 -9.573067e-04
4.668092e-01 -9.479486e-04
4.677642e-01 -9.373691e-04
4.687176e-01 -9.257612e-04
4.696697e-01 -9.132987e-04
,
3.012315e-01 3.667644e-04
3.023715e-01 7.675859e-04
3.035105e-01 1.197502e-03
3.046487e-01 1.657188e-03
3.057859e-01 2.147244e-03
3.069221e-01 2.668193e-03
3.080575e-01 3.220467e-03
3.091919e-01 3.804406e-03
3.103253e-01 4.420250e-03
3.114578e-01 5.068129e-03
3.125894e-01 5.748064e-03
3.137200e-01 6.459956e-03
3.148497e-01 7.203582e-03
3.159783e-01 7.978594e-03
3.171061e-01 8.784509e-03
3.182328e-01 9.620710e-03
3.193586e-01 1.048644e-02
3.204835e-01 1.138081e-02
3.216073e-01 1.230277e-02
3.227302e-01 1.325116e-02
3.238521e-01 1.422464e-02
3.249730e-01 1.522175e-02
3.260929e-01 1.624088e-02
3.272118e-01 1.728031e-02
3.283297e-01 1.833814e-02
3.294466e-01 1.941239e-02
3.305625e-01 2.050091e-02
3.316775e-01 2.160147e-02
3.327914e-01 2.271171e-02
3.339042e-01 2.382916e-02
3.350161e-01 2.495127e-02
3.361270e-01 2.607539e-02
3.372368e-01 2.719880e-02
3.383456e-01 2.831872e-02
3.394533e-01 2.943230e-02
3.405601e-01 3.053667e-02
3.416658e-01 3.162890e-02
3.427704e-01 3.270606e-02
3.438740e-01 3.376521e-02
3.449766e-01 3.480342e-02
3.460781e-01 3.581776e-02
3.471785e-01 3.680536e-02
3.482779e-01 3.776338e-02
3.493763e-01 3.868905e-02
3.504736e-01 3.957966e-02
3.515698e-01 4.043259e-02
3.526649e-01 4.124533e-02
3.537590e-01 4.201545e-02
3.548519e-01 4.274067e-02
3.559438e-01 4.341883e-02
3.570347e-01 4.404791e-02
3.581244e-01 4.462604e-02
3.592130e-01 4.515152e-02
3.603006e-01 4.562281e-02
3.613870e-01 4.603854e-02
3.624724e-01 4.639753e-02
3.635566e-01 4.669879e-02
3.646397e-01 4.694150e-02
3.657218e-01 4.712505e-02
3.668027e-01 4.724904e-02
3.678825e-01 4.731322e-02
3.689611e-01 4.731760e-02
3.700387e-01 4.726232e-02
3.711151e-01 4.714777e-02
3.721904e-01 4.697449e-02
3.732646e-01 4.674324e-02
3.743376e-01 4.645493e-02
3.754095e-01 4.611067e-02
3.764802e-01 4.571174e-02
3.775498e-01 4.525957e-02
3.786182e-01 4.475575e-02
3.796855e-01 4.420201e-02
3.807516e-01 4.360023e-02
3.818166e-01 4.295242e-02
3.828804e-01 4.226067e-02
3.839430e-01 4.152723e-02
3.850045e-01 4.075440e-02
3.860648e-01 3.994458e-02
3.871239e-01 3.910024e-02
3.881819e-01 3.822392e-02
3.892386e-01 3.731820e-02
3.902942e-01 3.638569e-02
3.913486e-01 3.542903e-02
3.924018e-01 3.445088e-02
3.934538e-01 3.345391e-02
3.945046e-01 3.244075e-02
3.955542e-01 3.141404e-02
3.966026e-01 3.037640e-02
3.976498e-01 2.933038e-02
3.986957e-01 2.827849e-02
3.997405e-01 2.722321e-02
4.007840e-01 2.616694e-02
4.018264e-01 2.511199e-02
4.028674e-01 2.406061e-02
4.039073e-01 2.301497e-02
4.049460e-01 2.197715e-02
4.059834e-01 2.094911e-02
4.070195e-01 1.993273e-02
4.080545e-01 1.892978e-02
4.090881e-01 1.794194e-02
4.101206e-01 1.697075e-02
4.111518e-01 1.601766e-02
4.121817e-01 1.508401e-02
4.132104e-01 1.417101e-02
4.142378e-01 1.327978e-02
4.152640e-01 1.241130e-02
4.162889e-01 1.156646e-02
4.173125e-01 1.074603e-02
4.183349e-01 9.950686e-03
4.193559e-01 9.180976e-03
4.203757e-01 8.437360e-03
4.213943e-01 7.720195e-03
4.224115e-01 7.029741e-03
4.234275e-01 6.366166e-03
4.244421e-01 5.729549e-03
4.254555e-01 5.119885e-03
4.264676e-01 4.537088e-03
4.274783e-01 3.980996e-03
4.284878e-01 3.451378e-03
4.294960e-01 2.947934e-03
4.305029e-01 2.470305e-03
4.315084e-01 2.018073e-03
4.325126e-01 1.590768e-03
4.335156e-01 1.187874e-03
4.345171e-01 8.088316e-04
4.355174e-01 4.530432e-04
4.365164e-01 1.198777e-04
4.375140e-01 -1.913253e-04
4.385103e-01 -4.812511e-04
4.395052e-01 -7.506059e-04
4.404988e-01 -1.000113e-03
4.414911e-01 -1.230508e-03
4.424820e-01 -1.442538e-03
4.434716e-01 -1.636954e-03
4.444598e-01 -1.814512e-03
4.454467e-01 -1.975965e-03
4.464322e-01 -2.122067e-03
4.474164e-01 -2.253564e-03
4.483991e-01 -2.371194e-03
4.493806e-01 -2.475687e-03
4.503606e-01 -2.567759e-03
4.513393e-01 -2.648112e-03
4.523166e-01 -2.717433e-03
4.532925e-01 -2.776393e-03
4.542671e-01 -2.825644e-03
4.552403e-01 -2.865818e-03
4.562120e-01 -2.897527e-03
4.571824e-01 -2.921364e-03
4.581514e-01 -2.937897e-03
4.591190e-01 -2.947676e-03
4.600852e-01 -2.951224e-03
4.610500e-01 -2.949045e-03
4.620134e-01 -2.941619e-03
4.629754e-01 -2.929404e-03
4.639360e-01 -2.912834e-03
4.648952e-01 -2.892321e-03
4.658529e-01 -2.868257e-03
4.668092e-01 -2.841010e-03
4.677642e-01 -2.810927e-03
4.687176e-01 -2.778335e-03
4.696697e-01 -2.743540e-03
,
3.012315e-01 1.460514e-03
3.023715e-01 1.924447e-03
3.035105e-01 2.410082e-03
3.046487e-01 2.917318e-03
3.057859e-01 3.445989e-03
3.069221e-01 3.995861e-03
3.080575e-01 4.566629e-03
3.091919e-01 5.157916e-03
3.103253e-01 5.769274e-03
3.114578e-01 6.400181e-03
3.125894e-01 7.050043e-03
3.137200e-01 7.718191e-03
3.148497e-01 8.403882e-03
3.159783e-01 9.106302e-03
3.171061e-01 9.824563e-03
3.182328e-01 1.055771e-02
3.193586e-01 1.130470e-02
3.204835e-01 1.206446e-02
3.216073e-01 1.283581e-02
3.227302e-01 1.361754e-02
3.238521e-01 1.440835e-02
3.249730e-01 1.520690e-02
3.260929e-01 1.601181e-02
3.272118e-01 1.682162e-02
3.283297e-01 1.763485e-02
3.294466e-01 1.844995e-02
3.305625e-01 1.926535e-02
3.316775e-01 2.007947e-02
3.327914e-01 2.089065e-02
3.339042e-01 2.169725e-02
3.350161e-01 2.249761e-02
3.361270e-01 2.329003e-02
3.372368e-01 2.407283e-02
3.383456e-01 2.484432e-02
3.394533e-01 2.560282e-02
3.405601e-01 2.634665e-02
3.416658e-01 2.707417e-02
3.427704e-01 2.778375e-02
3.438740e-01 2.847377e-02
3.449766e-01 2.914268e-02
3.460781e-01 2.978893e-02
3.471785e-01 3.041106e-02
3.482779e-01 3.100763e-02
3.493763e-01 3.157726e-02
3.504736e-01 3.211864e-02
3.515698e-01 3.263051e-02
3.526649e-01 3.311170e-02
3.537590e-01 3.356110e-02
3.548519e-01 3.397768e-02
3.559438e-01 3.436050e-02
3.570347e-01 3.470870e-02
3.581244e-01 3.502149e-02
3.592130e-01 3.529820e-02
3.603006e-01 3.553824e-02
3.613870e-01 3.574110e-02
3.624724e-01 3.590639e-02
3.635566e-01 3.603381e-02
3.646397e-01 3.612314e-02
3.657218e-01 3.617428e-02
3.668027e-01 3.618721e-02
3.678825e-01 3.616202e-02
3.689611e-01 3.609889e-02
3.700387e-01 3.599811e-02
3.711151e-01 3.586003e-02
3.721904e-01 3.568512e-02
3.732646e-01 3.547393e-02
3.743376e-01 3.522710e-02
3.754095e-01 3.494535e-02
3.764802e-01 3.462948e-02
3.775498e-01 3.428038e-02
3.786182e-01 3.389898e-02
3.796855e-01 3.348632e-02
3.807516e-01 3.304347e-02
3.818166e-01 3.257159e-02
3.828804e-01 3.207188e-02
3.839430e-01 3.154559e-02
3.850045e-01 3.099403e-02
3.860648e-01 3.041854e-02
3.871239e-01 2.982050e-02
3.881819e-01 2.920133e-02
3.892386e-01 2.856246e-02
3.902942e-01 2.790535e-02
3.913486e-01 2.723149e-02
3.924018e-01 2.654236e-02
3.934538e-01 2.583947e-02
3.945046e-01 2.512431e-02
3.955542e-01 2.439839e-02
3.966026e-01 2.366319e-02
3.976498e-01 2.292020e-02
3.986957e-01 2.217088e-02
3.997405e-01 2.141667e-02
4.007840e-01 2.065901e-02
4.018264e-01 1.989928e-02
4.028674e-01 1.913884e-02
4.039073e-01 1.837903e-02
4.049460e-01 1.762114e-02
4.059834e-01 1.686642e-02
4.070195e-01 1.611608e-02
4.080545e-01 1.537128e-02
4.090881e-01 1.463314e-02
4.101206e-01 1.390273e-02
4.111518e-01 1.318107e-02
4.121817e-01 1.246911e-02
4.132104e-01 1.176777e-02
4.142378e-01 1.107791e-02
4.152640e-01 1.040033e-02
4.162889e-01 9.735763e-03
4.173125e-01 9.084911e-03
4.183349e-01 8.448403e-03
4.193559e-01 7.826816e-03
4.203757e-01 7.220672e-03
4.213943e-01 6.630437e-03
4.224115e-01 6.056524e-03
4.234275e-01 5.499290e-03
4.244421e-01 4.959042e-03
4.254555e-01 4.436034e-03
4.264676e-01 3.930471e-03
4.274783e-01 3.442509e-03
4.284878e-01 2.972255e-03
4.294960e-01 2.519774e-03
4.305029e-01 2.085086e-03
4.315084e-01 1.668167e-03
4.325126e-01 1.268955e-03
4.335156e-01 8.873510e-04
4.345171e-01 5.232167e-04
4.355174e-01 1.763821e-04
4.365164e-01 -1.533558e-04
4.375140e-01 -4.662296e-04
4.385103e-01 -7.625002e-04
4.395052e-01 -1.042454e-03
4.404988e-01 -1.306402e-03
4.414911e-01 -1.554675e-03
4.424820e-01 -1.787626e-03
4.434716e-01 -2.005625e-03
4.444598e-01 -2.209056e-03
4.454467e-01 -2.398320e-03
4.464322e-01 -2.573828e-03
4.474164e-01 -2.736001e-03
4.483991e-01 -2.885270e-03
4.493806e-01 -3.022073e-03
4.503606e-01 -3.146851e-03
4.513393e-01 -3.260050e-03
4.523166e-01 -3.362121e-03
4.532925e-01 -3.453510e-03
4.542671e-01 -3.534668e-03
4.552403e-01 -3.606042e-03
4.562120e-01 -3.668075e-03
4.571824e-01 -3.721209e-03
4.581514e-01 -3.765877e-03
4.591190e-01 -3.802511e-03
4.600852e-01 -3.831531e-03
4.610500e-01 -3.853354e-03
4.620134e-01 -3.868386e-03
4.629754e-01 -3.877024e-03
4.639360e-01 -3.879657e-03
4.648952e-01 -3.876663e-03
4.658529e-01 -3.868410e-03
4.668092e-01 -3.855254e-03
4.677642e-01 -3.837541e-03
4.687176e-01 -3.815605e-03
4.696697e-01 -3.789768e-03
,
3.012315e-01 2.005526e-03
3.023715e-01 2.474709e-03
3.035105e-01 2.957840e-03
3.046487e-01 3.454492e-03
3.057859e-01 3.964195e-03
3.069221e-01 4.486439e-03
3.080575e-01 5.020675e-03
3.091919e-01 5.566313e-03
3.103253e-01 6.122724e-03
3.114578e-01 6.689242e-03
3.125894e-01 7.265162e-03
3.137200e-01 7.849747e-03
3.148497e-01 8.442222e-03
3.159783e-01 9.041781e-03
3.171061e-01 9.647588e-03
3.182328e-01 1.025878e-02
3.193586e-01 1.087445e-02
3.204835e-01 1.149369e-02
3.216073e-01 1.211555e-02
3.227302e-01 1.273908e-02
3.238521e-01 1.336328e-02
3.249730e-01 1.398716e-02
3.260929e-01 1.460970e-02
3.272118e-01 1.522988e-02
3.283297e-01 1.584666e-02
3.294466e-01 1.645900e-02
3.305625e-01 1.706587e-02
3.316775e-01 1.766621e-02
3.327914e-01 1.825898e-02
3.339042e-01 1.884315e-02
3.350161e-01 1.941768e-02
3.361270e-01 1.998155e-02
3.372368e-01 2.053376e-02
3.383456e-01 2.107331e-02
3.394533e-01 2.159923e-02
3.405601e-01 2.211057e-02
3.416658e-01 2.260640e-02
3.427704e-01 2.308582e-02
3.438740e-01 2.354795e-02
3.449766e-01 2.399196e-02
3.460781e-01 2.441703e-02
3.471785e-01 2.482238e-02
3.482779e-01 2.520730e-02
3.493763e-01 2.557107e-02
3.504736e-01 2.591304e-02
3.515698e-01 2.623260e-02
3.526649e-01 2.652919e-02
3.537590e-01 2.680228e-02
3.548519e-01 2.705140e-02
3.559438e-01 2.727612e-02
3.570347e-01 2.747608e-02
3.581244e-01 2.765094e-02
3.592130e-01 2.780043e-02
3.603006e-01 2.792433e-02
3.613870e-01 2.802247e-02
3.624724e-01 2.809474e-02
3.635566e-01 2.814106e-02
3.646397e-01 2.816143e-02
3.657218e-01 2.815588e-02
3.668027e-01 2.812451e-02
3.678825e-01 2.806745e-02
3.689611e-01 2.798491e-02
3.700387e-01 2.787711e-02
3.711151e-01 2.774436e-02
3.721904e-01 2.758698e-02
3.732646e-01 2.740536e-02
3.743376e-01 2.719994e-02
3.754095e-01 2.697117e-02
3.764802e-01 2.671958e-02
3.775498e-01 2.644572e-02
3.786182e-01 2.615018e-02
3.796855e-01 2.583358e-02
3.807516e-01 2.549659e-02
3.818166e-01 2.513990e-02
3.828804e-01 2.476424e-02
3.839430e-01 2.437036e-02
3.850045e-01 2.395903e-02
3.860648e-01 2.353106e-02
3.871239e-01 2.308727e-02
3.881819e-01 2.262850e-02
3.892386e-01 2.215561e-02
3.902942e-01 2.166948e-02
3.913486e-01 2.117097e-02
3.924018e-01 2.066100e-02
3.934538e-01 2.014046e-02
3.945046e-01 1.961026e-02
3.955542e-01 1.907131e-02
3.966026e-01 1.852451e-02
3.976498e-01 1.797077e-02
3.986957e-01 1.741100e-02
3.997405e-01 1.684610e-02
4.007840e-01 1.627695e-02
4.018264e-01 1.570445e-02
4.028674e-01 1.512945e-02
4.039073e-01 1.455281e-02
4.049460e-01 1.397537e-02
4.059834e-01 1.339797e-02
4.070195e-01 1.282139e-02
4.080545e-01 1.224644e-02
4.090881e-01 1.167387e-02
4.101206e-01 1.110443e-02
4.111518e-01 1.053883e-02
4.121817e-01 9.977770e-03
4.132104e-01 9.421920e-03
4.142378e-01 8.871922e-03
4.152640e-01 8.328389e-03
4.162889e-01 7.791909e-03
4.173125e-01 7.263040e-03
4.183349e-01 6.742313e-03
4.193559e-01 6.230227e-03
4.203757e-01 5.727252e-03
4.213943e-01 5.233829e-03
4.224115e-01 4.750368e-03
4.234275e-01 4.277250e-03
4.244421e-01 3.814824e-03
4.254555e-01 3.363411e-03
4.264676e-01 2.923301e-03
4.274783e-01 2.494755e-03
4.284878e-01 2.078005e-03
4.294960e-01 1.673253e-03
4.305029e-01 1.280675e-03
4.315084e-01 9.004164e-04
4.325126e-01 5.325985e-04
4.335156e-01 1.773142e-04
4.345171e-01 -1.653690e-04
4.355174e-01 -4.954084e-04
4.365164e-01 -8.127860e-04
4.375140e-01 -1.117507e-03
4.385103e-01 -1.409599e-03
4.395052e-01 -1.689112e-03
4.404988e-01 -1.956116e-03
4.414911e-01 -2.210702e-03
4.424820e-01 -2.452979e-03
4.434716e-01 -2.683074e-03
4.444598e-01 -2.901133e-03
4.454467e-01 -3.107314e-03
4.464322e-01 -3.301795e-03
4.474164e-01 -3.484765e-03
4.483991e-01 -3.656427e-03
4.493806e-01 -3.816996e-03
4.503606e-01 -3.966698e-03
4.513393e-01 -4.105770e-03
4.523166e-01 -4.234459e-03
4.532925e-01 -4.353018e-03
4.542671e-01 -4.461710e-03
4.552403e-01 -4.560803e-03
4.562120e-01 -4.650571e-03
4.571824e-01 -4.731294e-03
4.581514e-01 -4.803255e-03
4.591190e-01 -4.866741e-03
4.600852e-01 -4.922041e-03
4.610500e-01 -4.969445e-03
4.620134e-01 -5.009247e-03
4.629754e-01 -5.041738e-03
4.639360e-01 -5.067210e-03
4.648952e-01 -5.085956e-03
4.658529e-01 -5.098265e-03
4.668092e-01 -5.104425e-03
4.677642e-01 -5.104721e-03
4.687176e-01 -5.099435e-03
4.696697e-01 -5.088847e-03
,
3.012315e-01 2.939706e-03
3.023715e-01 3.369622e-03
3.035105e-01 3.807004e-03
3.046487e-01 4.251386e-03
3.057859e-01 4.702285e-03
3.069221e-01 5.159193e-03
3.080575e-01 5.621588e-03
3.091919e-01 6.088927e-03
3.103253e-01 6.560654e-03
3.114578e-01 7.036193e-03
3.125894e-01 7.514955e-03
3.137200e-01 7.996339e-03
3.148497e-01 8.479729e-03
3.159783e-01 8.964498e-03
3.171061e-01 9.450010e-03
3.182328e-01 9.935620e-03
3.193586e-01 1.042067e-02
3.204835e-01 1.090451e-02
3.216073e-01 1.138648e-02
3.227302e-01 1.186589e-02
3.238521e-01 1.234209e-02
3.249730e-01 1.281440e-02
3.260929e-01 1.328216e-02
3.272118e-01 1.374469e-02
3.283297e-01 1.420134e-02
3.294466e-01 1.465144e-02
3.305625e-01 1.509434e-02
3.316775e-01 1.552939e-02
3.327914e-01 1.595596e-02
3.339042e-01 1.637343e-02
3.350161e-01 1.678118e-02
3.361270e-01 1.717861e-02
3.372368e-01 1.756513e-02
3.383456e-01 1.794018e-02
3.394533e-01 1.830319e-02
3.405601e-01 1.865365e-02
3.416658e-01 1.899102e-02
3.427704e-01 1.931482e-02
3.438740e-01 1.962456e-02
3.449766e-01 1.991981e-02
3.460781e-01 2.020012e-02
3.471785e-01 2.046510e-02
3.482779e-01 2.071437e-02
3.493763e-01 2.094757e-02
3.504736e-01 2.116437e-02
3.515698e-01 2.136448e-02
3.526649e-01 2.154762e-02
3.537590e-01 2.171355e-02
3.548519e-01 2.186205e-02
3.559438e-01 2.199293e-02
3.570347e-01 2.210604e-02
3.581244e-01 2.220125e-02
3.592130e-01 2.227845e-02
3.603006e-01 2.233759e-02
3.613870e-01 2.237861e-02
3.624724e-01 2.240151e-02
3.635566e-01 2.240630e-02
3.646397e-01 2.239304e-02
3.657218e-01 2.236180e-02
3.668027e-01 2.231269e-02
3.678825e-01 2.224583e-02
3.689611e-01 2.216139e-02
3.700387e-01 2.205956e-02
3.711151e-01 2.194055e-02
3.721904e-01 2.180460e-02
3.732646e-01 2.165197e-02
3.743376e-01 2.148296e-02
3.754095e-01 2.129788e-02
3.764802e-01 2.109707e-02
3.775498e-01 2.088088e-02
3.786182e-01 2.064969e-02
3.796855e-01 2.040390e-02
3.807516e-01 2.014393e-02
3.818166e-01 1.987021e-02
3.828804e-01 1.958320e-02
3.839430e-01 1.928337e-02
3.850045e-01 1.897120e-02
3.860648e-01 1.864719e-02
3.871239e-01 1.831184e-02
3.881819e-01 1.796569e-02
3.892386e-01 1.760925e-02
3.902942e-01 1.724307e-02
3.913486e-01 1.686770e-02
3.924018e-01 1.648369e-02
3.934538e-01 1.609161e-02
3.945046e-01 1.569202e-02
3.955542e-01 1.528548e-02
3.966026e-01 1.487257e-02
3.976498e-01 1.445386e-02
3.986957e-01 1.402992e-02
3.997405e-01 1.360133e-02
4.007840e-01 1.316864e-02
4.018264e-01 1.273243e-02
4.028674e-01 1.229326e-02
4.039073e-01 1.185168e-02
4.049460e-01 1.140824e-02
4.059834e-01 1.096349e-02
4.070195e-01 1.051795e-02
4.080545e-01 1.007217e-02
4.090881e-01 9.626645e-03
4.101206e-01 9.181892e-03
4.111518e-01 8.738405e-03
4.121817e-01 8.296668e-03
4.132104e-01 7.857152e-03
4.142378e-01 7.420316e-03
4.152640e-01 6.986604e-03
4.162889e-01 6.556449e-03
4.173125e-01 6.130267e-03
4.183349e-01 5.708460e-03
4.193559e-01 5.291415e-03
4.203757e-01 4.879502e-03
4.213943e-01 4.473076e-03
4.224115e-01 4.072477e-03
4.234275e-01 3.678026e-03
4.244421e-01 3.290029e-03
4.254555e-01 2.908775e-03
4.264676e-01 2.534537e-03
4.274783e-01 2.167570e-03
4.284878e-01 1.808112e-03
4.294960e-01 1.456384e-03
4.305029e-01 1.112590e-03
4.315084e-01 7.769197e-04
4.325126e-01 4.495424e-04
4.335156e-01 1.306131e-04
4.345171e-01 -1.797302e-04
4.355174e-01 -4.813654e-04
4.365164e-01 -7.741866e-04
4.375140e-01 -1.058103e-03
4.385103e-01 -1.333041e-03
4.395052e-01 -1.598938e-03
4.404988e-01 -1.855751e-03
4.414911e-01 -2.103449e-03
4.424820e-01 -2.342014e-03
4.434716e-01 -2.571444e-03
4.444598e-01 -2.791748e-03
4.454467e-01 -3.002949e-03
4.464322e-01 -3.205082e-03
4.474164e-01 -3.398195e-03
4.483991e-01 -3.582345e-03
4.493806e-01 -3.757602e-03
4.503606e-01 -3.924046e-03
4.513393e-01 -4.081768e-03
4.523166e-01 -4.230866e-03
4.532925e-01 -4.371450e-03
4.542671e-01 -4.503636e-03
4.552403e-01 -4.627550e-03
4.562120e-01 -4.743325e-03
4.571824e-01 -4.851102e-03
4.581514e-01 -4.951026e-03
4.591190e-01 -5.043250e-03
4.600852e-01 -5.127934e-03
4.610500e-01 -5.205241e-03
4.620134e-01 -5.275340e-03
4.629754e-01 -5.338403e-03
4.639360e-01 -5.394607e-03
4.648952e-01 -5.444133e-03
4.658529e-01 -5.487163e-03
4.668092e-01 -5.523884e-03
4.677642e-01 -5.554482e-03
4.687176e-01 -5.579148e-03
4.696697e-01 -5.598073e-03
,
3.012315e-01 3.518677e-03
3.023715e-01 3.906135e-03
3.035105e-01 4.297792e-03
3.046487e-01 4.693227e-03
3.057859e-01 5.092005e-03
3.069221e-01 5.493683e-03
3.080575e-01 5.897806e-03
3.091919e-01 6.303911e-03
3.103253e-01 6.711529e-03
3.114578e-01 7.120179e-03
3.125894e-01 7.529378e-03
3.137200e-01 7.938635e-03
3.148497e-01 8.347454e-03
3.159783e-01 8.755337e-03
3.171061e-01 9.161780e-03
3.182328e-01 9.566280e-03
3.193586e-01 9.968331e-03
3.204835e-01 1.036743e-02
3.216073e-01 1.076306e-02
3.227302e-01 1.115474e-02
3.238521e-01 1.154195e-02
3.249730e-01 1.192420e-02
3.260929e-01 1.230099e-02
3.272118e-01 1.267184e-02
3.283297e-01 1.303627e-02
3.294466e-01 1.339381e-02
3.305625e-01 1.374398e-02
3.316775e-01 1.408633e-02
3.327914e-01 1.442042e-02
3.339042e-01 1.474580e-02
3.350161e-01 1.506206e-02
3.361270e-01 1.536877e-02
3.372368e-01 1.566554e-02
3.383456e-01 1.595199e-02
3.394533e-01 1.622774e-02
3.405601e-01 1.649243e-02
3.416658e-01 1.674573e-02
3.427704e-01 1.698730e-02
3.438740e-01 1.721685e-02
3.449766e-01 1.743408e-02
3.460781e-01 1.763872e-02
3.471785e-01 1.783051e-02
3.482779e-01 1.800923e-02
3.493763e-01 1.817465e-02
3.504736e-01 1.832658e-02
3.515698e-01 1.846484e-02
3.526649e-01 1.858928e-02
3.537590e-01 1.869976e-02
3.548519e-01 1.879616e-02
3.559438e-01 1.887839e-02
3.570347e-01 1.894638e-02
3.581244e-01 1.900007e-02
3.592130e-01 1.903943e-02
3.603006e-01 1.906444e-02
3.613870e-01 1.907511e-02
3.624724e-01 1.907148e-02
3.635566e-01 1.905359e-02
3.646397e-01 1.902151e-02
3.657218e-01 1.897532e-02
3.668027e-01 1.891515e-02
3.678825e-01 1.884110e-02
3.689611e-01 1.875333e-02
3.700387e-01 1.865200e-02
3.711151e-01 1.853730e-02
3.721904e-01 1.840943e-02
3.732646e-01 1.826859e-02
3.743376e-01 1.811502e-02
3.754095e-01 1.794898e-02
3.764802e-01 1.777072e-02
3.775498e-01 1.758053e-02
3.786182e-01 1.737870e-02
3.796855e-01 1.716553e-02
3.807516e-01 1.694134e-02
3.818166e-01 1.670647e-02
3.828804e-01 1.646126e-02
3.839430e-01 1.620606e-02
3.850045e-01 1.594123e-02
3.860648e-01 1.566715e-02
3.871239e-01 1.538420e-02
3.881819e-01 1.509277e-02
3.892386e-01 1.479326e-02
3.902942e-01 1.448606e-02
3.913486e-01 1.417158e-02
3.924018e-01 1.385024e-02
3.934538e-01 1.352246e-02
3.945046e-01 1.318865e-02
3.955542e-01 1.284924e-02
3.966026e-01 1.250464e-02
3.976498e-01 1.215530e-02
3.986957e-01 1.180163e-02
3.997405e-01 1.144405e-02
4.007840e-01 1.108300e-02
4.018264e-01 1.071889e-02
4.028674e-01 1.035215e-02
4.039073e-01 9.983196e-03
4.049460e-01 9.612435e-03
4.059834e-01 9.240280e-03
4.070195e-01 8.867136e-03
4.080545e-01 8.493402e-03
4.090881e-01 8.119472e-03
4.101206e-01 7.745732e-03
4.111518e-01 7.372562e-03
4.121817e-01 7.000334e-03
4.132104e-01 6.629414e-03
4.142378e-01 6.260156e-03
4.152640e-01 5.892909e-03
4.162889e-01 5.528010e-03
4.173125e-01 5.165788e-03
4.183349e-01 4.806563e-03
4.193559e-01 4.450642e-03
4.203757e-01 4.098325e-03
4.213943e-01 3.749899e-03
4.224115e-01 3.405640e-03
4.234275e-01 3.065815e-03
4.244421e-01 2.730679e-03
4.254555e-01 2.400473e-03
4.264676e-01 2.075430e-03
4.274783e-01 1.755769e-03
4.284878e-01 1.441699e-03
4.294960e-01 1.133416e-03
4.305029e-01 8.311046e-04
4.315084e-01 5.349374e-04
4.325126e-01 2.450754e-04
4.335156e-01 -3.833225e-05
4.345171e-01 -3.151480e-04
4.355174e-01 -5.852462e-04
4.365164e-01 -8.485125e-04
4.375140e-01 -1.104844e-03
4.385103e-01 -1.354149e-03
4.395052e-01 -1.596348e-03
4.404988e-01 -1.831371e-03
4.414911e-01 -2.059160e-03
4.424820e-01 -2.279666e-03
4.434716e-01 -2.492852e-03
4.444598e-01 -2.698691e-03
4.454467e-01 -2.897166e-03
4.464322e-01 -3.088268e-03
4.474164e-01 -3.272001e-03
4.483991e-01 -3.448373e-03
4.493806e-01 -3.617407e-03
4.503606e-01 -3.779130e-03
4.513393e-01 -3.933579e-03
4.523166e-01 -4.080799e-03
4.532925e-01 -4.220843e-03
4.542671e-01 -4.353772e-03
4.552403e-01 -4.479652e-03
4.562120e-01 -4.598557e-03
4.571824e-01 -4.710570e-03
4.581514e-01 -4.815776e-03
4.591190e-01 -4.914268e-03
4.600852e-01 -5.006145e-03
4.610500e-01 -5.091511e-03
4.620134e-01 -5.170473e-03
4.629754e-01 -5.243146e-03
4.639360e-01 -5.309647e-03
4.648952e-01 -5.370097e-03
4.658529e-01 -5.424621e-03
4.668092e-01 -5.473349e-03
4.677642e-01 -5.516411e-03
4.687176e-01 -5.553943e-03
4.696697e-01 -5.586082e-03
,
