2.672873029045642923e+01 3.833868693195862098e-01
3.500028630705394050e+01 3.836793837734071566e-01
4.500005809128630574e+01 3.835980773373971475e-01
5.499995850622406834e+01 3.832318327069196284e-01
6.499999170124480941e+01 3.824628888224487766e-01
7.000007883817427512e+01 3.819053407780522158e-01
7.499984232365144976e+01 3.810945542061405789e-01
8.000007053941908453e+01 3.800415855698611178e-01
8.499994190871368005e+01 3.786961494925703553e-01
8.999984647302903795e+01 3.770208996054443262e-01
9.499987136929459552e+01 3.748989541101501732e-01
9.999927385892117115e+01 3.712073002213167050e-01
